/* XPM */
static char * abiword_48x48_xpm[] = {
"48 48 1081 2",
"  	c None",
". 	c #FFFFFF",
"+ 	c #ECFBE6",
"@ 	c #FCFFFA",
"# 	c #FCF9FF",
"$ 	c #FFFCFF",
"% 	c #FFFAFF",
"& 	c #FFFEFF",
"* 	c #FFFAFE",
"= 	c #FFFBFF",
"- 	c #E9FEED",
"; 	c #FFFFF8",
"> 	c #FFFBF8",
", 	c #FDFAF1",
"' 	c #F4FFF4",
") 	c #F1FFF8",
"! 	c #F1F6F9",
"~ 	c #FFF9FF",
"{ 	c #FBF6F0",
"] 	c #FFFEFB",
"^ 	c #FFFCFD",
"/ 	c #FFFDFD",
"( 	c #FFFCFB",
"_ 	c #FDF7F7",
": 	c #FDFEFF",
"< 	c #F8FFFF",
"[ 	c #F8FFF1",
"} 	c #FEFFFB",
"| 	c #F8F6FB",
"1 	c #FEFFFF",
"2 	c #FDFFFC",
"3 	c #FBFBF9",
"4 	c #FFFDFF",
"5 	c #F9FFFD",
"6 	c #FFF8FF",
"7 	c #FFF5FF",
"8 	c #FCFBFF",
"9 	c #FFF5FD",
"0 	c #FCFFFD",
"a 	c #FCFFFF",
"b 	c #FBFFFF",
"c 	c #FCFDFF",
"d 	c #FFFFFD",
"e 	c #FAFEFD",
"f 	c #FFFFFB",
"g 	c #FDFDFD",
"h 	c #F6F7FB",
"i 	c #FCFFFB",
"j 	c #F9FEF7",
"k 	c #FBFFFA",
"l 	c #F2F5FF",
"m 	c #D4DEF9",
"n 	c #A5C3E5",
"o 	c #9FCDF1",
"p 	c #B9D7FB",
"q 	c #ECECFF",
"r 	c #F4F6E9",
"s 	c #F8FFFD",
"t 	c #F5FFFC",
"u 	c #FAFEFF",
"v 	c #FFFCF3",
"w 	c #F8FCFD",
"x 	c #FEFFFD",
"y 	c #FCFDF5",
"z 	c #FEFFF9",
"A 	c #ECF3FD",
"B 	c #95B2DA",
"C 	c #6BB0D9",
"D 	c #37A3D1",
"E 	c #239CD1",
"F 	c #309ACE",
"G 	c #6EB7DA",
"H 	c #D3EDFA",
"I 	c #FFFCFA",
"J 	c #FAFFF9",
"K 	c #F5F7F2",
"L 	c #F5FDFF",
"M 	c #FDFEF9",
"N 	c #FFFFF6",
"O 	c #FBFCFF",
"P 	c #FAFFFF",
"Q 	c #FCFDF8",
"R 	c #FFFDFA",
"S 	c #EEF5FF",
"T 	c #BACBE9",
"U 	c #4FA4DD",
"V 	c #1193C5",
"W 	c #008DC7",
"X 	c #008DD6",
"Y 	c #0593DB",
"Z 	c #169FCD",
"` 	c #74BED9",
" .	c #FFFAF4",
"..	c #FFFBF4",
"+.	c #FBFEFF",
"@.	c #F6FDFF",
"#.	c #FFFEFD",
"$.	c #FEFDFF",
"%.	c #FCFBF9",
"&.	c #ECF3FF",
"*.	c #B3D5FA",
"=.	c #679FD2",
"-.	c #1198DA",
";.	c #0096D3",
">.	c #0E9DE1",
",.	c #1B93E9",
"'.	c #1090E7",
").	c #008DD1",
"!.	c #2C96C6",
"~.	c #A6CFFB",
"{.	c #F3FCFF",
"].	c #FFF7F1",
"^.	c #FFF8F4",
"/.	c #FDFBFC",
"(.	c #FEFEFE",
"_.	c #FCFEFB",
":.	c #F5FCFF",
"<.	c #AED0EC",
"[.	c #61AFE0",
"}.	c #1F8FCF",
"|.	c #0198E1",
"1.	c #058ED2",
"2.	c #0A87C7",
"3.	c #0887CC",
"4.	c #0F90E1",
"5.	c #1695E6",
"6.	c #138ED1",
"7.	c #168EC0",
"8.	c #ADD2EC",
"9.	c #F1FFFF",
"0.	c #FFFDF8",
"a.	c #F7FCFF",
"b.	c #FFFAF6",
"c.	c #FFFBFA",
"d.	c #E1F1FF",
"e.	c #76ACCE",
"f.	c #2394CC",
"g.	c #0098DD",
"h.	c #0594E3",
"i.	c #178CD2",
"j.	c #0D8FC1",
"k.	c #00A3CA",
"l.	c #0095D1",
"m.	c #0C86D9",
"n.	c #179BE6",
"o.	c #009DCE",
"p.	c #62A2C8",
"q.	c #DBFFFF",
"r.	c #FFFDF3",
"s.	c #FFFFFA",
"t.	c #F3F7F6",
"u.	c #FFFBEE",
"v.	c #FAFAFA",
"w.	c #FCFCFC",
"x.	c #FBFCF6",
"y.	c #FDF1FF",
"z.	c #FFFFEF",
"A.	c #F4FFF1",
"B.	c #93C8F2",
"C.	c #3D9CEC",
"D.	c #0F90D2",
"E.	c #0898D4",
"F.	c #0083B0",
"G.	c #0885BB",
"H.	c #266296",
"I.	c #246E9F",
"J.	c #058CD0",
"K.	c #0292DB",
"L.	c #0892D0",
"M.	c #198EDE",
"N.	c #009ACF",
"O.	c #CBD1E9",
"P.	c #FFFEF6",
"Q.	c #F7FFFF",
"R.	c #E3FFFF",
"S.	c #FFF3FF",
"T.	c #FFFAFA",
"U.	c #FDFCFA",
"V.	c #FFFFF7",
"W.	c #BED8E9",
"X.	c #64A8E5",
"Y.	c #1B8BD5",
"Z.	c #0B95D4",
"`.	c #008BCD",
" +	c #08749B",
".+	c #567A92",
"++	c #97ACAF",
"@+	c #BECCD9",
"#+	c #60A1C1",
"$+	c #068DBD",
"%+	c #128BD0",
"&+	c #1492CD",
"*+	c #0095CB",
"=+	c #55A9CD",
"-+	c #F6E8F9",
";+	c #FEFBF6",
">+	c #F9FFFF",
",+	c #F1FDFB",
"'+	c #F3FDFF",
")+	c #FAFFF3",
"!+	c #DDEBF4",
"~+	c #7AA8E4",
"{+	c #3192DF",
"]+	c #0F96D8",
"^+	c #0E98D7",
"/+	c #007CBC",
"(+	c #466F8D",
"_+	c #ABAAA5",
":+	c #FFF5E7",
"<+	c #FFFBF1",
"[+	c #E8EEE4",
"}+	c #5697B3",
"|+	c #0A94D3",
"1+	c #0797D4",
"2+	c #0991CB",
"3+	c #008FC9",
"4+	c #9BB2DC",
"5+	c #FFFDFB",
"6+	c #FFEFF3",
"7+	c #F5FFF3",
"8+	c #F0FFFF",
"9+	c #FDFCFF",
"0+	c #F9FFF8",
"a+	c #A6CAEA",
"b+	c #479AE8",
"c+	c #0F96DA",
"d+	c #0C9DDC",
"e+	c #0778BA",
"f+	c #176895",
"g+	c #A59AA8",
"h+	c #F0FAF9",
"i+	c #FBFBFF",
"j+	c #FFFCEC",
"k+	c #D5DCEC",
"l+	c #279FD3",
"m+	c #0090E0",
"n+	c #1296D6",
"o+	c #0092E1",
"p+	c #2891C8",
"q+	c #D5E7F3",
"r+	c #F5FFF2",
"s+	c #FFF7F0",
"t+	c #F6FFF7",
"u+	c #FFFBFB",
"v+	c #D9E7F2",
"w+	c #61A2D8",
"x+	c #1B96DC",
"y+	c #04A2D1",
"z+	c #0084BD",
"A+	c #175E9C",
"B+	c #698499",
"C+	c #F6E4E0",
"D+	c #D8FFFF",
"E+	c #FFF4FB",
"F+	c #9EC6E9",
"G+	c #0787C4",
"H+	c #0096D2",
"I+	c #1196E3",
"J+	c #0098D8",
"K+	c #68ACCF",
"L+	c #F7FFF8",
"M+	c #FFF6F2",
"N+	c #FFF7FF",
"O+	c #A1C3E8",
"P+	c #3092D3",
"Q+	c #0091CC",
"R+	c #089DC5",
"S+	c #006495",
"T+	c #4D7098",
"U+	c #C8C2C2",
"V+	c #FFFDF4",
"W+	c #E7F4FA",
"X+	c #F9FFFA",
"Y+	c #FEF5EC",
"Z+	c #FCFEFF",
"`+	c #F8FAFF",
" @	c #F9F9FB",
".@	c #80AABA",
"+@	c #008FC1",
"@@	c #0D92CD",
"#@	c #019AE0",
"$@	c #198AC2",
"%@	c #D7D8ED",
"&@	c #FFEFFF",
"*@	c #F8FFF8",
"=@	c #FBFBFB",
"-@	c #D8EEFF",
";@	c #6BB1E5",
">@	c #1E9BDB",
",@	c #0193CF",
"'@	c #0E81BA",
")@	c #2F6E8F",
"!@	c #98A7AC",
"~@	c #F0E6E4",
"{@	c #F5FFF9",
"]@	c #FFF4EE",
"^@	c #F6FFF8",
"/@	c #ECE8DF",
"(@	c #46A6D8",
"_@	c #088FBE",
":@	c #0094D4",
"<@	c #0B8ED2",
"[@	c #6D98CD",
"}@	c #E5FCFF",
"|@	c #FFF9FB",
"1@	c #F8F8F8",
"2@	c #81B5DA",
"3@	c #3696D0",
"4@	c #0897D1",
"5@	c #0A93DB",
"6@	c #1167B4",
"7@	c #7BA0B3",
"8@	c #E0ECD4",
"9@	c #FFFAF8",
"0@	c #F1FAFF",
"a@	c #FEFEFF",
"b@	c #FFF8EE",
"c@	c #F5FDF0",
"d@	c #F6FFFF",
"e@	c #F5FFFD",
"f@	c #BAD3FF",
"g@	c #1090BF",
"h@	c #1396DE",
"i@	c #0F84C7",
"j@	c #A3C3DC",
"k@	c #F5FFF1",
"l@	c #FFF2FC",
"m@	c #FFFEF8",
"n@	c #F6F9FE",
"o@	c #C0DFFB",
"p@	c #50AADE",
"q@	c #2090D0",
"r@	c #0099D4",
"s@	c #007FAA",
"t@	c #406486",
"u@	c #CFC5D0",
"v@	c #F1FFE0",
"w@	c #3E9CE2",
"x@	c #0E93DE",
"y@	c #0F8ADA",
"z@	c #0091E0",
"A@	c #4AA8C2",
"B@	c #F8FEF2",
"C@	c #FBFFFE",
"D@	c #FCFCFF",
"E@	c #FDF7FF",
"F@	c #FAFBF6",
"G@	c #FEF4EB",
"H@	c #F4FEFF",
"I@	c #8FBDE1",
"J@	c #359ED5",
"K@	c #128FD1",
"L@	c #018CC7",
"M@	c #0E7095",
"N@	c #6E8B9D",
"O@	c #ECE9F2",
"P@	c #F9F9F9",
"Q@	c #F3FFF2",
"R@	c #B0CCF1",
"S@	c #1089CE",
"T@	c #1296D4",
"U@	c #0092CA",
"V@	c #2195C8",
"W@	c #DFDEEE",
"X@	c #FCFEF3",
"Y@	c #FEFBFF",
"Z@	c #FFFBF2",
"`@	c #D2EDFE",
" #	c #579FD1",
".#	c #1793CF",
"+#	c #0795D7",
"@#	c #0973AF",
"##	c #45738D",
"$#	c #B3C3C3",
"%#	c #FBF8FF",
"&#	c #FCFEF9",
"*#	c #FEF1FA",
"=#	c #7AB7E4",
"-#	c #0CA2C5",
";#	c #069ACA",
">#	c #008ECD",
",#	c #A5B6E1",
"'#	c #FFF9F6",
")#	c #FFFCF6",
"!#	c #FEFCFF",
"~#	c #FFF6EB",
"{#	c #95C8E5",
"]#	c #3799D8",
"^#	c #0593D1",
"/#	c #0494D3",
"(#	c #1C6397",
"_#	c #9B99A7",
":#	c #EDEFE1",
"<#	c #F4FFFE",
"[#	c #FCF8F7",
"}#	c #FFF6FF",
"|#	c #EEFFFF",
"1#	c #3FA7C2",
"2#	c #0093CA",
"3#	c #0895DA",
"4#	c #4599D9",
"5#	c #EFF3F4",
"6#	c #FFFCFC",
"7#	c #FEFAFB",
"8#	c #FBFFFB",
"9#	c #FFFBF3",
"0#	c #F7FEFF",
"a#	c #FFFAF1",
"b#	c #E3FAFF",
"c#	c #5EABD5",
"d#	c #2398DD",
"e#	c #0594D6",
"f#	c #027DB6",
"g#	c #50779E",
"h#	c #E4CDD5",
"i#	c #EBF6F0",
"j#	c #F7F7F7",
"k#	c #F3FAFF",
"l#	c #B4C0DA",
"m#	c #088DC6",
"n#	c #128FE1",
"o#	c #008DC5",
"p#	c #A3CFE8",
"q#	c #FAFBFF",
"r#	c #FBF7F6",
"s#	c #F9FFFB",
"t#	c #F3FCF9",
"u#	c #FFF8F2",
"v#	c #94C7E2",
"w#	c #3FA4DC",
"x#	c #1190D5",
"y#	c #088CCD",
"z#	c #136891",
"A#	c #9AABBD",
"B#	c #FFF3F6",
"C#	c #FFFDF7",
"D#	c #F9FAF4",
"E#	c #E8FFF8",
"F#	c #F7FBFE",
"G#	c #F4F2F7",
"H#	c #8BB6E9",
"I#	c #008BD4",
"J#	c #0890C0",
"K#	c #3397C9",
"L#	c #D9E9F6",
"M#	c #FBFFFD",
"N#	c #F3FCFB",
"O#	c #FDF9FA",
"P#	c #D8EEFB",
"Q#	c #56A7D6",
"R#	c #26A0E1",
"S#	c #0889CA",
"T#	c #0677B9",
"U#	c #487491",
"V#	c #DADBDD",
"W#	c #FCFAFF",
"X#	c #EBFFEE",
"Y#	c #F2FFFF",
"Z#	c #F9ECFF",
"`#	c #2B9ECD",
" $	c #0F97D1",
".$	c #007FBC",
"+$	c #A7C6DA",
"@$	c #F4FFFF",
"#$	c #F5F6FB",
"$$	c #B4D4E9",
"%$	c #43A6E1",
"&$	c #1296DE",
"*$	c #0789C5",
"=$	c #0164A5",
"-$	c #8392A7",
";$	c #F6F4E8",
">$	c #EDFFFF",
",$	c #FAFCFF",
"'$	c #FFFEEC",
")$	c #F5F9FF",
"!$	c #ECFFE7",
"~$	c #A1B9D5",
"{$	c #009BE6",
"]$	c #198FCC",
"^$	c #7DA6BC",
"/$	c #EAFCFF",
"($	c #FEF4F3",
"_$	c #F5FFF4",
":$	c #F9FFF6",
"<$	c #F7F6FF",
"[$	c #7FAEDC",
"}$	c #26A2D8",
"|$	c #0288C5",
"1$	c #1371B9",
"2$	c #496E76",
"3$	c #B9D3D4",
"4$	c #F7FFFB",
"5$	c #F1FFF7",
"6$	c #F8FFFC",
"7$	c #FBFFF8",
"8$	c #FFF5F9",
"9$	c #F1FFF3",
"0$	c #FDE9EB",
"a$	c #B4D9FF",
"b$	c #86C2F6",
"c$	c #F8EBFD",
"d$	c #E7F9FF",
"e$	c #30A3D9",
"f$	c #118BE0",
"g$	c #1A8CC2",
"h$	c #DBEAE3",
"i$	c #F6FAFB",
"j$	c #F7FFF6",
"k$	c #F8F1F8",
"l$	c #F3FDF2",
"m$	c #E5EDFF",
"n$	c #63A4DA",
"o$	c #109BD6",
"p$	c #048DC4",
"q$	c #166FA9",
"r$	c #95929D",
"s$	c #EAE4EE",
"t$	c #FCF5FC",
"u$	c #FDF8FC",
"v$	c #F5FCF4",
"w$	c #F1FFED",
"x$	c #F5FFFF",
"y$	c #DCE8F4",
"z$	c #2EA5D0",
"A$	c #4990AC",
"B$	c #CBB4AE",
"C$	c #ECEBE6",
"D$	c #EAF9FE",
"E$	c #95C2D9",
"F$	c #0092D0",
"G$	c #0080B4",
"H$	c #BDD2E5",
"I$	c #F1F7F5",
"J$	c #FFFAFC",
"K$	c #F7FFFA",
"L$	c #BCD5F4",
"M$	c #3B97D6",
"N$	c #0688BA",
"O$	c #307499",
"P$	c #C5C3AE",
"Q$	c #F6F8EB",
"R$	c #F4FFFC",
"S$	c #FAF4FF",
"T$	c #B4D2F4",
"U$	c #5FB0DF",
"V$	c #3A94B9",
"W$	c #6C9EBF",
"X$	c #B2BCC6",
"Y$	c #E1E8E0",
"Z$	c #F3F7E8",
"`$	c #FFFDEA",
" %	c #D6E7EE",
".%	c #3A9CCD",
"+%	c #079DD2",
"@%	c #79ABDC",
"#%	c #FBF2F3",
"$%	c #EFFFF1",
"%%	c #FFF7FB",
"&%	c #FCFBF6",
"*%	c #F5F9FC",
"=%	c #8EB8DE",
"-%	c #2697DB",
";%	c #0097DA",
">%	c #1580AA",
",%	c #7594A8",
"'%	c #FCF4E9",
")%	c #F8FAF5",
"!%	c #F6FFFE",
"~%	c #F6FCF8",
"{%	c #F4FFF9",
"]%	c #EFF2FB",
"^%	c #D1D8F4",
"/%	c #85BADA",
"(%	c #3F9CBB",
"_%	c #3B85AA",
":%	c #5E78A9",
"<%	c #96A1B7",
"[%	c #DDE9DD",
"}%	c #F6F6FF",
"|%	c #FFFCE8",
"1%	c #DDFBFF",
"2%	c #D7CBD9",
"3%	c #1A99D0",
"4%	c #2083C4",
"5%	c #DCDBE1",
"6%	c #F7FFEF",
"7%	c #F8F8FF",
"8%	c #FAFFFB",
"9%	c #F9FCF5",
"0%	c #E5F3FC",
"a%	c #68A7D2",
"b%	c #1998DD",
"c%	c #0290D0",
"d%	c #1F6B8F",
"e%	c #B7B4BF",
"f%	c #F3FFFF",
"g%	c #F6F7F9",
"h%	c #FFFEF4",
"i%	c #FFFFF3",
"j%	c #FFFFF4",
"k%	c #FEFEF4",
"l%	c #E2FBFF",
"m%	c #C2D8F0",
"n%	c #7FB4E0",
"o%	c #3393CD",
"p%	c #0A6CA9",
"q%	c #275C90",
"r%	c #76889E",
"s%	c #BAC7BE",
"t%	c #FFF3E8",
"u%	c #FFF6F6",
"v%	c #FFF8F5",
"w%	c #F1FFF9",
"x%	c #F4FDFF",
"y%	c #FEFFF7",
"z%	c #61AADD",
"A%	c #0591CE",
"B%	c #97B8CB",
"C%	c #E1F1EE",
"D%	c #FCFFF6",
"E%	c #C2E0F8",
"F%	c #449ACD",
"G%	c #0792D5",
"H%	c #0186BF",
"I%	c #336F91",
"J%	c #E9DBE8",
"K%	c #F7F5FF",
"L%	c #E7EDFF",
"M%	c #CEE1FF",
"N%	c #A9C0EA",
"O%	c #78A3D8",
"P%	c #3D94C9",
"Q%	c #117CB2",
"R%	c #286EA1",
"S%	c #6B82A2",
"T%	c #ACB3B9",
"U%	c #DDE3D9",
"V%	c #FAFAF0",
"W%	c #E9FBFD",
"X%	c #FFF8FD",
"Y%	c #F9FFEF",
"Z%	c #F1FFFA",
"`%	c #FAF5FF",
" &	c #F5FFE6",
".&	c #C5DCFC",
"+&	c #018AB8",
"@&	c #418FB6",
"#&	c #F0EAF6",
"$&	c #BDBAB3",
"%&	c #A4B8B7",
"&&	c #878090",
"*&	c #CDC9BE",
"=&	c #FBFDF2",
"-&	c #ECF5FF",
";&	c #87B6E2",
">&	c #2793D4",
",&	c #0094D7",
"'&	c #098FC4",
")&	c #5595B8",
"!&	c #EEF0FF",
"~&	c #F8EAF9",
"{&	c #D6DDF0",
"]&	c #B2D4F0",
"^&	c #82BCE2",
"/&	c #5BABDC",
"(&	c #41A2D9",
"_&	c #1D87C3",
":&	c #0C6EAF",
"<&	c #336695",
"[&	c #737E90",
"}&	c #B3B8B4",
"|&	c #D9E3DB",
"1&	c #EDEFEE",
"2&	c #F9F8F6",
"3&	c #EFFFFF",
"4&	c #FBF5FF",
"5&	c #F8FFED",
"6&	c #F2F7FD",
"7&	c #FFFFF1",
"8&	c #F9F7FA",
"9&	c #5EB4D7",
"0&	c #1688C7",
"a&	c #B4C8E1",
"b&	c #FFFFEC",
"c&	c #7A7E87",
"d&	c #A2A4B1",
"e&	c #A4A295",
"f&	c #FFFEFA",
"g&	c #EBF5FF",
"h&	c #669EDB",
"i&	c #229CE7",
"j&	c #009EDF",
"k&	c #0993C4",
"l&	c #539FC3",
"m&	c #B4CBEA",
"n&	c #95D0F2",
"o&	c #6FB4DB",
"p&	c #54ACDC",
"q&	c #4AB2E7",
"r&	c #2996CE",
"s&	c #0A74A6",
"t&	c #096A95",
"u&	c #015A82",
"v&	c #78797D",
"w&	c #A2A7AB",
"x&	c #D5D9DC",
"y&	c #F6F2F1",
"z&	c #FFF5F6",
"A&	c #FFF7F7",
"B&	c #E8FFFF",
"C&	c #FFFEEB",
"D&	c #B6D9F9",
"E&	c #0286D8",
"F&	c #83B4D4",
"G&	c #FFFFE4",
"H&	c #F2FFE8",
"I&	c #D2EEFA",
"J&	c #3C9DCA",
"K&	c #2997E2",
"L&	c #118DD7",
"M&	c #0C97D2",
"N&	c #3291D5",
"O&	c #3DA4E6",
"P&	c #4494D1",
"Q&	c #3E9DDF",
"R&	c #1487CA",
"S&	c #0983C4",
"T&	c #026CA0",
"U&	c #1E6583",
"V&	c #5E7C84",
"W&	c #92948F",
"X&	c #C4C4C4",
"Y&	c #EFEFEF",
"Z&	c #FEFDE8",
"`&	c #67A9CC",
" *	c #4498B2",
".*	c #F0F9FF",
"+*	c #FDF9F0",
"@*	c #F2FFF6",
"#*	c #FFF0F6",
"$*	c #C9E0FF",
"%*	c #299FD1",
"&*	c #0693DB",
"**	c #0894E1",
"=*	c #1E95D7",
"-*	c #008AC4",
";*	c #0085B1",
">*	c #006D96",
",*	c #136386",
"'*	c #44708B",
")*	c #7F8EA5",
"!*	c #B6B7CB",
"~*	c #D6D3E4",
"{*	c #F2EFFF",
"]*	c #FEFFF3",
"^*	c #FCF8FF",
"/*	c #C3F5FF",
"(*	c #5295A8",
"_*	c #E5EBFB",
":*	c #F9F8F4",
"<*	c #F2FFFA",
"[*	c #DEEEFF",
"}*	c #1A81AC",
"|*	c #0689C1",
"1*	c #0082BC",
"2*	c #0A87B7",
"3*	c #006092",
"4*	c #006390",
"5*	c #1B5A83",
"6*	c #4B7A96",
"7*	c #819AA1",
"8*	c #B9BAB2",
"9*	c #E5D9CD",
"0*	c #FFF3ED",
"a*	c #FDFAFF",
"b*	c #F3FCF7",
"c*	c #EBFFFF",
"d*	c #8CB5BB",
"e*	c #C8CAD7",
"f*	c #EBFEF8",
"g*	c #FFFAFD",
"h*	c #FBFBEF",
"i*	c #9FC9DF",
"j*	c #367793",
"k*	c #27738B",
"l*	c #246778",
"m*	c #61849A",
"n*	c #8191AB",
"o*	c #B79AAE",
"p*	c #CBB7C3",
"q*	c #FAF1F4",
"r*	c #F3F4EE",
"s*	c #F0F8EB",
"t*	c #FAFFF7",
"u*	c #F7FDF3",
"v*	c #EDFBFE",
"w*	c #F0F2EF",
"x*	c #D7E7E4",
"y*	c #C8C8D2",
"z*	c #EDFBFB",
"A*	c #FFFAFB",
"B*	c #F8FFEC",
"C*	c #E2E9F3",
"D*	c #CDD7E0",
"E*	c #D9DCE1",
"F*	c #E5DFE1",
"G*	c #F4DDE3",
"H*	c #FAF8F9",
"I*	c #FBFBFD",
"J*	c #FEFFF8",
"K*	c #FAFFF1",
"L*	c #FFF7EE",
"M*	c #FDFEF8",
"N*	c #EDECF2",
"O*	c #F8FEFA",
"P*	c #F1F7F3",
"Q*	c #F8FFFB",
"R*	c #E8FCF3",
"S*	c #F1FAF7",
"T*	c #FCF6F6",
"U*	c #FFFCFE",
"V*	c #F1FBFD",
"W*	c #EFFFFC",
"X*	c #F5F7F4",
"Y*	c #F8FFFA",
"Z*	c #F3FEF8",
"`*	c #E0E4E7",
" =	c #F3F3F3",
".=	c #FDF8F4",
"+=	c #F9F9F7",
"@=	c #F6F6F6",
"#=	c #B7BBC6",
"$=	c #556161",
"%=	c #FFECEF",
"&=	c #F7FAF1",
"*=	c #C5D6CC",
"==	c #373938",
"-=	c #EBFAF5",
";=	c #FFF2FA",
">=	c #FDFFF7",
",=	c #F7F6F2",
"'=	c #6B6567",
")=	c #DBD0D6",
"!=	c #E5D8DF",
"~=	c #867B7F",
"{=	c #908B87",
"]=	c #77776F",
"^=	c #A6A6A6",
"/=	c #F0F0F0",
"(=	c #F5FEFF",
"_=	c #F6FAFF",
":=	c #FFFBF7",
"<=	c #F8FDFF",
"[=	c #61625D",
"}=	c #2A2A28",
"|=	c #A7A7A7",
"1=	c #FDFDFF",
"2=	c #BFBEC3",
"3=	c #06050A",
"4=	c #DADADC",
"5=	c #F3F5F2",
"6=	c #C8CAC7",
"7=	c #C7C7C7",
"8=	c #818181",
"9=	c #C5C3C6",
"0=	c #D5D3D6",
"a=	c #ECEAED",
"b=	c #666867",
"c=	c #EFF1F0",
"d=	c #FFFDFE",
"e=	c #F9F7F8",
"f=	c #D9D9D9",
"g=	c #40413C",
"h=	c #6E6E6C",
"i=	c #3C3C3C",
"j=	c #F2F1F6",
"k=	c #C9C8CD",
"l=	c #000004",
"m=	c #A6A6A8",
"n=	c #88888A",
"o=	c #AEB0AD",
"p=	c #EFF1EE",
"q=	c #A8AAA7",
"r=	c #686868",
"s=	c #F8F6F9",
"t=	c #E5E7E6",
"u=	c #F4F6F5",
"v=	c #D4D6D5",
"w=	c #969696",
"x=	c #A3A3A3",
"y=	c #D2D0D1",
"z=	c #D7D5D6",
"A=	c #FBF9FA",
"B=	c #C0C2C1",
"C=	c #CFCFCF",
"D=	c #C2C2C2",
"E=	c #A8A6A7",
"F=	c #949293",
"G=	c #959595",
"H=	c #F4F4F4",
"I=	c #B8B8B8",
"J=	c #8D8D8D",
"K=	c #434343",
"L=	c #80807E",
"M=	c #E2E2E0",
"N=	c #0D0D0F",
"O=	c #9C9BA0",
"P=	c #C8C7CC",
"Q=	c #818183",
"R=	c #CACACA",
"S=	c #474946",
"T=	c #737572",
"U=	c #E2E2E2",
"V=	c #545454",
"W=	c #7E7C7F",
"X=	c #A9A7AA",
"Y=	c #F2F4F3",
"Z=	c #C2C4C3",
"`=	c #868686",
" -	c #D6D6D6",
".-	c #C9C9C9",
"+-	c #626262",
"@-	c #7F7D7E",
"#-	c #CBC9CA",
"$-	c #D8DAD9",
"%-	c #575757",
"&-	c #656565",
"*-	c #999999",
"=-	c #D2D2D2",
"--	c #777576",
";-	c #DEDCDD",
">-	c #CCCCCC",
",-	c #6F6F6F",
"'-	c #7C7C7C",
")-	c #B4B4B4",
"!-	c #DFDFDF",
"~-	c #AFAFAF",
"{-	c #808080",
"]-	c #CDCDCD",
"^-	c #000000",
"/-	c #B9B9B7",
"(-	c #707072",
"_-	c #605F64",
":-	c #C7C6CB",
"<-	c #060608",
"[-	c #B3B3B3",
"}-	c #D8D8D8",
"|-	c #2F2F2F",
"1-	c #B9B9B9",
"2-	c #E5E5E5",
"3-	c #B7B7B7",
"4-	c #737373",
"5-	c #717171",
"6-	c #878787",
"7-	c #989898",
"8-	c #A2A2A2",
"9-	c #464646",
"0-	c #F1F1F1",
"a-	c #444444",
"b-	c #BCBCBC",
"c-	c #B6B6B6",
"d-	c #D7D7D7",
"e-	c #262626",
"f-	c #949494",
"g-	c #C1C1C1",
"h-	c #616161",
"i-	c #F5F5F5",
"j-	c #6D6D6D",
"k-	c #313131",
"l-	c #525252",
"m-	c #515151",
"n-	c #58585A",
"o-	c #0F0E13",
"p-	c #B2B1B6",
"q-	c #000002",
"r-	c #ECECEC",
"s-	c #323232",
"t-	c #353535",
"u-	c #EEEEEE",
"v-	c #5B5B5B",
"w-	c #3A3A3A",
"x-	c #ACACAC",
"y-	c #A5A5A5",
"z-	c #484848",
"A-	c #DDDDDD",
"B-	c #666666",
"C-	c #E1E1E1",
"D-	c #A1A1A1",
"E-	c #D4D4D4",
"F-	c #1F1F1F",
"G-	c #9C9C9C",
"H-	c #A4A4A4",
"I-	c #EDEDED",
"J-	c #424242",
"K-	c #E4E4E4",
"L-	c #E5E5E7",
"M-	c #E3E2E7",
"N-	c #636267",
"O-	c #616065",
"P-	c #9A9A98",
"Q-	c #D7D7D5",
"R-	c #747275",
"S-	c #59575A",
"T-	c #363636",
"U-	c #787878",
"V-	c #F1F3F0",
"W-	c #E1E3E0",
"X-	c #6A6869",
"Y-	c #ABA9AA",
"Z-	c #585858",
"`-	c #DCDCDC",
" ;	c #747474",
".;	c #777978",
"+;	c #747675",
"@;	c #F7F5F6",
"#;	c #A09E9F",
"$;	c #4B4B4B",
"%;	c #727272",
"&;	c #E9E9E9",
"*;	c #616362",
"=;	c #ECEEED",
"-;	c #898989",
";;	c #6A6A6A",
">;	c #B2B2B2",
",;	c #595959",
"';	c #7F7F7F",
");	c #DADADA",
"!;	c #6C6C6C",
"~;	c #E3E3E3",
"{;	c #F8F8FA",
"];	c #C0BFC4",
"^;	c #515055",
"/;	c #5E5E5E",
"(;	c #6B6B69",
"_;	c #33342F",
":;	c #555356",
"<;	c #B3B1B4",
"[;	c #6A686B",
"};	c #444643",
"|;	c #454744",
"1;	c #5A5C59",
"2;	c #BEBCBD",
"3;	c #D3D1D2",
"4;	c #A6A4A5",
"5;	c #414141",
"6;	c #5D5D5D",
"7;	c #ABADAC",
"8;	c #E2E4E3",
"9;	c #686A69",
"0;	c #403E3F",
"a;	c #9E9C9D",
"b;	c #706E6F",
"c;	c #8B8B8B",
"d;	c #FAFCFB",
"e;	c #9C9E9D",
"f;	c #414342",
"g;	c #BEBEBE",
"h;	c #636363",
"i;	c #505050",
"j;	c #8C8C8C",
"k;	c #C6C6C6",
"l;	c #F8F7FC",
"m;	c #DDDDDF",
"n;	c #EAEAE8",
"o;	c #D1D2CD",
"p;	c #D4D2D5",
"q;	c #F1EFF2",
"r;	c #F3F1F4",
"s;	c #D5D7D4",
"t;	c #D6D8D5",
"u;	c #E7E5E6",
"v;	c #E4E6E5",
"w;	c #F8FAF9",
"x;	c #EAECEB",
"y;	c #E6E4E5",
"z;	c #E1DFE0",
"A;	c #DADCDB",
"B;	c #F2F2F2",
"C;	c #D3D3D3",
"D;	c #DEDEDE",
". . . . . . . . . . . . + @ # $ % & * = - ; > , ' ) ! ~ { ] ^ / ( _ : < . . . . . . . . . . . . ",
". . . . . . . . . . . . [ } | & 1 2 3 4 5 6 7 $ 8 9 = 1 0 a b c d ] d e . . . . . . . . . . . . ",
". . . . . . . . . . . . f g h 1 i j k b l m n o p q = r s t < < u f ; v . . . . . . . . . . . . ",
". . . . . . . . . . . . . : w x y z a A B C D E F G H I J K x a L b M N . . . . . . . . . . . . ",
". . . . . . . . . . . . O a P Q R & S T U V W X Y Z ` 6 f  .../ +.@.O #.. . . . . . . . . . . . ",
". . . . . . . . . . . . $.a e %.4 &.*.=.-.;.>.,.'.).!.~.{.d ].^.& < a /.. . . . . . . . . . . . ",
". . . . . . . . . . . . & (._.(.:.<.[.}.|.1.2.3.4.5.6.7.8.9.0.].& a.1 b.. . . . . . . . . . . . ",
". . . . . . . . . . . . ^ c.d a d.e.f.g.h.i.j.k.l.m.n.o.p.q.b r.s.t.s.u.. . . . . . . . . . . . ",
". . . . v.w.. . . (.. . x.y.z.A.B.C.D.E.F.G.H.I.J.K.L.M.N.O.P.Q.R.a S.T.. . . . . . . . . . . . ",
". . . . w.(.. . . (.(.. < U.V.W.X.Y.Z.`. +.+++@+#+$+%+&+*+=+-+;+4 >+] ,+. . . . . . . . . . . . ",
". . . . . . . . (.(.(.(.'+)+!+~+{+]+^+/+(+_+:+<+[+}+|+1+2+3+4+5+6+s.7+8+. . . . . . . . . . . . ",
". . . . . . . . (.(.(.. 9+0+a+b+c+d+e+f+g+h+i+0 j+k+l+m+n+o+p+q+r+s+t+4 . . . . . . . . . . . . ",
". . . . . . . . . . . . u+v+w+x+y+z+A+B+C+< D+c E+< F+G+H+I+J+K+L+M+N+R . . . . . . . . . . . . ",
". . . . . . (.. . . . (.4 O+P+Q+R+S+T+U+V+W+X+Y+Z+`+ @.@+@@@#@$@%@a &@*@. . . . . . . . . . . . ",
". . . . . . (.. . . g =@-@;@>@,@'@)@!@~@c.{@]@N u = ^@/@(@_@:@<@[@}@|@i . . . . . . . . . . . . ",
". . . . . . . . . (.=@1@2@3@4@5@6@7@8@(.Q.9@0@a@b@c@d@e@f@g@o.h@i@j@k@l@. . . . . . . . . . . . ",
". . . . 9.V+m@< P 0.n@o@p@q@r@s@t@u@f c.(.(.(.(.. . . . v@w@x@y@z@A@P +.B@C@D@E@^ m@F@>+. . . . ",
". . . . d@; M P d G@H@I@J@K@L@M@N@O@P@] (.(.(.(.. . . . Q@R@S@T@U@V@W@= X@. a@Y@#.; Q a . . . . ",
". . . . } x P : V+Z@`@ #.#+#@###$#b %#] (.(.(.(.. . . . &#*#=#-#;#>#,#'#)##.& . f s.d !#. . . . ",
". . . . m@u < d ~#f {#]#^#/#(#_#:#<#4 [#(.(.(.(.. . . . 9@}#|#1#2#3#4#5#R 6#7#x 8#J & = . . . . ",
". . . . 9#b 0#] a#b#c#d#e#f#g#h#z.i#$ j#. . . . (.(.(.(.u+k#' l#m#n#o#p#q#& r#f s#t#& = . . . . ",
". . . . u#a n@> P v#w#x#y#z#A#B#C#D#& 1 . . . . (.(.(.(.% E#F#G#H#I#J#K#L#b T.s.M#N#a@^ . . . . ",
". . . . ( 1 O#I P#Q#R#S#T#U#V#b W#0.V+b . . . . (.(.(.(.% X#6 Y#Z#`# $.$+$@$4 9@1 L 1 I . . . . ",
". . . . & #$5+0.$$%$&$*$=$-$;$>$,$b.'$< . . . . (.(.(.(.6 9#M#)$!$~${$]$^$/$4 ($. < a > . . . . ",
". . . . d _$:$<$[$}$|$1$2$3$4$<+v m@c < 5$& % % 6$7$R 8$9$0$a$b$c$d$e$f$g$h$>$7 m@i$j$% g (.. . ",
". . . . k$l$@ m$n$o$p$q$r$s$4 t$u$& x i N+v$w$N % # '+x$y$z$A$B$C$D$E$F$G$H$I$x ^ J$K$$ g (.. . ",
". . . . = s.x L$M$:@N$O$P$Q$b >++.4 6 9 , / a R$} S$T$U$V$W$X$Y$Z$`$ %.%+%@%#%$%% %%h+& g (.. . ",
". . . . 4 &%*%=%-%;%>%,%'%N )%!%Q.h+~%@ X+{%]%^%/%(%_%:%<%[%}%S.|%|#1%2%3%4%5%6%% . 7%] (.(.(.. ",
". . . . 8%9%0%a%b%c%d%e%f%d@g%s.h%i%j%k%l%m%n%o%p%q%r%s%t%u%v%w%x%6 % y%z%A%B%N 6 C%$ m@(.(.(.(.",
". . . . D%>+E%F%G%H%I%J%8 & / 4 K%L%M%N%O%P%Q%R%S%T%U%V%W%X%Y%Z%`%@  &6 .&+&@&#&$&%&&&*&. (.(.(.",
". . . . =&-&;&>&,&'&)&!&}#~&{&]&^&/&(&_&:&<&[&}&|&1&2&N >$3&4&..5&|#6&7&8&9&0&a&b&c&d&e&. (.g (.",
". . . . f&g&h&i&j&k&l&m&n&o&p&q&r&s&t&u&v&w&x&y&P.N M#k#z&h%%.~ % A&& B&C&D&E&F&G&~ d@7&. (.g (.",
". . . . H&I&J&K&L&M&N&O&P&Q&R&S&T&U&V&W&X&Y&j#(.. (.. (.g . . . (.g (.. Z&K%`& *.*+*@*% . . . . ",
". . . . #*$*%*&***/#=*-*;*>*,*'*)*!*~*{*. . (.w.. v.w.. (.. . . (.g (.. ]*^*/*(*_*:*<*% . . . . ",
". . . . 7 [*}*|*1*2*3*4*5*6*7*8*9*0*$ a*w.P@g . . . v.g (.. . . (.(.(.. b*= c*d*e*a f*g*. . . . ",
". . . . h*d@i*j*k*l*m*n*o*p*q*r*s*:$t*u*. v.. w.1@. (.. (.. . . (.(.(.. v*% w*x*y*>+z*A*. . . . ",
"(.(.(.(.B*t*& C*D*E*F*G*i%; H*4 $ I*J*K*. P@. g v.. w.. . (.(.(.. . . (.Q.^ L*M*N*:.< J$. . . . ",
"(.(.(.(.( O*$ t$N+}#P*Q*R*e@S*a : & 1 1 . j#v.. . . 1@(.. (.(.(.. . . (.a T*m@s. @a a U*. . . . ",
"(.(.(.(.}#V*% 1 u$l@9.W*= 4 X*Y*Z*>+`*&  =. . w.g v.g . . (.g (.. . . (..=+=1 a@@=& O#1 . . . . ",
"(.(.(.(.#=$=%=&=*===-=;=>=,='=)=!=~={=]=^=/=. =@w.. . j#. (.g (.. . . g V+b (=_=1 :=^ <=. . . . ",
"v.(.P@. [=}=|=1=2=3=4=1=5=x 6=7=8=9=0=a=b=c=1 . @=& d=& c=1 1 v.. & e=& v.=@. . g . g . =@=@. . ",
". . . f=g=h=i=j=k=l=m=n=o=p=q=g r=0=4 s=t=u=v=w=x=y=z=A=1 1&B=C=D=E=y=F=G=H=P@I=J=^=/=. =@j#P@. ",
"w.j#Y&K=L=M=N=O=P=l=Q=R=S=T=i=C=U=V=W=X=Y=Z=`= -.-+-@-#-c=$-%-&-*-=---;->-,-'-)-!-~-{-(.. (.=@(.",
". . ]-^-/-Y&(-_-:-<-[-. }-|-K=1-. 2-3-4-5-6-7-/=. 8-9-7=. 0-a-,-b-c-~-H=w.d-e-f-3-g-h-0-g i-. . ",
"P@1@j-k-l-m-n-o-p-q-f=3 r-s-t-g-d-w.u-u-v-w-x-=@. y-z->-j#A-m-B-C-)-D-. . E-F-G-G-H-^=0-. . P@(.",
". I-J-b-K-L-M-N-O-q-P-Q-R-S-T-X&U-C=V-W-X-Y-Z-j#`- ;.;+;@;#;$;%;>-&;*;=;f=-;;;J=w.>;-;X&,;+-';. ",
"1@);!;~;{;I*& ];^;/;(;_;:;<;[;7=Y&};|;1;2;3;4;5;6;7;8;9;0;a;b;c;7=d;e;f;6;g;!-h;i;8=>-1@j;I=k;. ",
"w.H=u-i-. . l;& m;);n;o;p;q;r;!-1@W-s;t;u;& & ););v;w;x;;-y;z;i-K-1 u=A;}-2-. B;C;D;0-g . . @=. "};
