/* XPM */
static char * applications2_32x32_xpm[] = {
"32 32 296 2",
"  	c None",
". 	c #AEAFD8",
"+ 	c #AAABD6",
"@ 	c #A0A2D1",
"# 	c #ADAED7",
"$ 	c #ABADD6",
"% 	c #A6A8D4",
"& 	c #9C9DCF",
"* 	c #9395CB",
"= 	c #ACADD7",
"- 	c #A4A5D3",
"; 	c #9D9FD0",
"> 	c #9496CB",
", 	c #8F91C9",
"' 	c #8A8CC6",
") 	c #8A8883",
"! 	c #9B988F",
"~ 	c #C1C0CA",
"{ 	c #9FA1D1",
"] 	c #8B8DC7",
"^ 	c #8789C5",
"/ 	c #888AC6",
"( 	c #888AC5",
"_ 	c #BEBBB4",
": 	c #BEBCC9",
"< 	c #8183C2",
"[ 	c #8082C1",
"} 	c #8284C2",
"| 	c #8688C5",
"1 	c #AAACD5",
"2 	c #BDBBB8",
"3 	c #B5B2AB",
"4 	c #B7B6C3",
"5 	c #8284BC",
"6 	c #BDBAB4",
"7 	c #8E8C86",
"8 	c #8C8983",
"9 	c #7E7B74",
"0 	c #807D77",
"a 	c #616289",
"b 	c #8486BF",
"c 	c #8688C2",
"d 	c #A86459",
"e 	c #AD5F52",
"f 	c #A8A9D2",
"g 	c #A7A9D4",
"h 	c #B1B0BD",
"i 	c #7173AB",
"j 	c #908E88",
"k 	c #262626",
"l 	c #333333",
"m 	c #2D2D2D",
"n 	c #73716C",
"o 	c #58597D",
"p 	c #7B7DB3",
"q 	c #9D9DC4",
"r 	c #9F9B92",
"s 	c #907971",
"t 	c #79493B",
"u 	c #737282",
"v 	c #85859F",
"w 	c #81819E",
"x 	c #BEBBB3",
"y 	c #A8A5AB",
"z 	c #575776",
"A 	c #B7B5AF",
"B 	c #71706E",
"C 	c #81807D",
"D 	c #878582",
"E 	c #5B5A58",
"F 	c #454559",
"G 	c #5F5F7F",
"H 	c #908FAE",
"I 	c #EAD597",
"J 	c #C0A864",
"K 	c #51505A",
"L 	c #7C7A87",
"M 	c #67635C",
"N 	c #4C4944",
"O 	c #46433E",
"P 	c #9A978F",
"Q 	c #A19E98",
"R 	c #4F4C47",
"S 	c #ACA9A3",
"T 	c #6D6D6D",
"U 	c #777777",
"V 	c #5C5B59",
"W 	c #42413F",
"X 	c #757268",
"Y 	c #DCC992",
"Z 	c #C9B26C",
"` 	c #726D6E",
" .	c #61638B",
"..	c #3B3C56",
"+.	c #A9AAD3",
"@.	c #8A89A2",
"#.	c #807C73",
"$.	c #726E69",
"%.	c #45423D",
"&.	c #AEACA7",
"*.	c #B8B4AD",
"=.	c #97948E",
"-.	c #484641",
";.	c #B1AEA7",
">.	c #8B8B8B",
",.	c #63625F",
"'.	c #615E56",
").	c #E9D394",
"!.	c #CAB26A",
"~.	c #4D4C55",
"{.	c #56587D",
"].	c #54557A",
"^.	c #58597F",
"/.	c #41425F",
"(.	c #A7A8D2",
"_.	c #84839D",
":.	c #7D7970",
"<.	c #C9C7C1",
"[.	c #B4B1AD",
"}.	c #B9B6B1",
"|.	c #C9C6C0",
"1.	c #C3C1BB",
"2.	c #B3B1AC",
"3.	c #D0CEC8",
"4.	c #BDBCB8",
"5.	c #BDBBB7",
"6.	c #D8D4C9",
"7.	c #E9DDBA",
"8.	c #CFC9B8",
"9.	c #B4B2B1",
"0.	c #87858C",
"a.	c #4D4E70",
"b.	c #595A80",
"c.	c #686A97",
"d.	c #A8A9D5",
"e.	c #9EA0CE",
"f.	c #797895",
"g.	c #7B776E",
"h.	c #DAD7D0",
"i.	c #BAB5AB",
"j.	c #54524F",
"k.	c #494B6E",
"l.	c #5D5F89",
"m.	c #7375A8",
"n.	c #7E80B8",
"o.	c #A8AAD5",
"p.	c #A1A2D2",
"q.	c #9395C8",
"r.	c #707090",
"s.	c #C9C5BE",
"t.	c #E8E6E3",
"u.	c #48496D",
"v.	c #5E608D",
"w.	c #7678AE",
"x.	c #8082BC",
"y.	c #8183C1",
"z.	c #A1A3D2",
"A.	c #9EA0D0",
"B.	c #8688C1",
"C.	c #6A6A8D",
"D.	c #7C786E",
"E.	c #D1CEC7",
"F.	c #B6E578",
"G.	c #92D835",
"H.	c #979797",
"I.	c #414263",
"J.	c #595A86",
"K.	c #7A7CB9",
"L.	c #7779B6",
"M.	c #6F71AA",
"N.	c #9597CC",
"O.	c #9294CA",
"P.	c #7F81BE",
"Q.	c #7D796F",
"R.	c #84946F",
"S.	c #475E28",
"T.	c #3C3D5B",
"U.	c #53557F",
"V.	c #6B6DA3",
"W.	c #7172AC",
"X.	c #686AA0",
"Y.	c #5D5F90",
"Z.	c #8385C2",
"`.	c #8082BF",
" +	c #7E80BE",
".+	c #7D7FBE",
"++	c #7A7CBA",
"@+	c #69698C",
"#+	c #C1C1C1",
"$+	c #A2A2A2",
"%+	c #373853",
"&+	c #4D4E76",
"*+	c #606193",
"=+	c #5E6091",
"-+	c #4F517A",
";+	c #46476B",
">+	c #6D6FA7",
",+	c #6E70A9",
"'+	c #7375B0",
")+	c #7577B3",
"!+	c #68688B",
"~+	c #777369",
"{+	c #C2BDB4",
"]+	c #AAA9A7",
"^+	c #747474",
"/+	c #343550",
"(+	c #48496F",
"_+	c #535580",
":+	c #4D4E75",
"<+	c #3C3D5D",
"[+	c #383956",
"}+	c #5F6092",
"|+	c #5E5F90",
"1+	c #65679B",
"2+	c #6B6DA5",
"3+	c #656586",
"4+	c #706C62",
"5+	c #31324B",
"6+	c #3E3F60",
"7+	c #404162",
"8+	c #373855",
"9+	c #343551",
"0+	c #585A87",
"a+	c #5B5D8C",
"b+	c #616395",
"c+	c #60607F",
"d+	c #747066",
"e+	c #2B2C42",
"f+	c #33334D",
"g+	c #31324C",
"h+	c #565784",
"i+	c #575886",
"j+	c #585873",
"k+	c #635F55",
"l+	c #212232",
"m+	c #242538",
"n+	c #292A40",
"o+	c #53536B",
"p+	c #605C52",
"q+	c #191A27",
"r+	c #1E1F2F",
"s+	c #424465",
"t+	c #424262",
"u+	c #12121C",
"v+	c #33344E",
"w+	c #A39F99",
"x+	c #323130",
"y+	c #06060A",
"z+	c #242537",
"A+	c #29293E",
"B+	c #202031",
"C+	c #1D1D2C",
"D+	c #1C1D2C",
"E+	c #1E1E2E",
"F+	c #1E1F2E",
"G+	c #1C1C2B",
"H+	c #191926",
"I+	c #13131E",
"J+	c #0F0F16",
"K+	c #0A0B10",
"L+	c #040406",
"M+	c #000000",
"N+	c #28283D",
"O+	c #252639",
"P+	c #27283C",
"Q+	c #2A2A40",
"R+	c #2C2C43",
"S+	c #2C2C42",
"T+	c #1E1E2D",
"U+	c #151521",
"V+	c #11111A",
"W+	c #050507",
"X+	c #222234",
"Y+	c #32334D",
"Z+	c #3D3E5D",
"`+	c #424365",
" @	c #444568",
".@	c #414264",
"+@	c #3A3B59",
"@@	c #2D2E45",
"#@	c #232336",
"$@	c #1A1B29",
"%@	c #0C0C13",
"&@	c #434467",
"*@	c #48496E",
"=@	c #4E5078",
"-@	c #494A71",
";@	c #3E3F5F",
">@	c #2E2E46",
",@	c #27283D",
"'@	c #4B4D73",
")@	c #4B4C73",
"!@	c #2F3049",
"~@	c #3C3D5C",
"{@	c #353652",
"]@	c #333450",
"                                                                ",
"                            . + @                               ",
"                          # $ % & *                             ",
"                        = + - ; > , '                           ",
"                    ) ! ~ { * ] ^ ^ / (                         ",
"                    ) _ : * ^ < [ } | ( (                       ",
"                  1 2 3 4 5 6 7 8 9 0 a b c     d e             ",
"                f g 2 3 h i j k l m n o p 5 q r s t             ",
"              u v w ) x y z A B C D E F G H I J K               ",
"            L M N O ) P Q R S T U U V W X Y Z `  ...            ",
"          +.@.#.$.%.&.*.=.-.;.U >.>.,.'.).!.~.{.].^./.          ",
"        $ (._.:.<.[.}.|.1.2.3.4.4.4.5.6.7.8.9.0.a.b.c.          ",
"      + d.e.f.g.h.i.i.i.i.i.i.i.i.i.i.i.i.i.i.j.k.l.m.n.        ",
"    o.d.p.q.r.g.h.i.i.i.s.t.t.t.t.t.t.s.i.i.i.j.u.v.w.x.y.      ",
"    z.A.* B.C.D.h.i.i.i.E.F.G.G.G.G.F.H.i.i.i.j.I.J.i K.L.M.    ",
"  > N.O.( P.C.Q.h.i.i.i.E.R.S.S.S.S.R.H.i.i.i.j.T.U.V.W.X.Y.    ",
"  Z.`. +.+++@+:.h.i.i.i.E.#+$+$+$+$+#+H.i.i.i.j.%+&+*+=+-+;+    ",
"    >+,+'+)+!+~+h.i.i.i.{+]+H.H.H.H.H.^+i.i.i.j./+(+_+:+<+[+    ",
"    }+|+1+2+3+4+h.i.i.i.i.i.i.i.i.i.i.i.i.i.i.j.5+6+7+8+9+      ",
"      0+a+b+c+d+h.i.i.i.i.i.i.i.i.i.i.i.i.i.i.j.e+f+g+g+        ",
"        h+i+j+k+h.i.i.i.i.i.i.i.i.i.i.i.i.i.i.j.l+m+n+          ",
"            o+p+h.i.i.i.i.i.i.i.i.i.i.i.i.i.i.j.q+r+            ",
"            s+t+h.i.i.i.i.i.i.i.i.i.i.i.i.i.i.j.u+              ",
"              v+w+j.j.j.j.j.j.j.j.j.j.j.j.j.j.x+y+              ",
"                z+A+B+C+D+E+F+F+F+E+G+H+I+J+K+L+M+              ",
"                  F+N+O+P+Q+e+R+S+Q+m+T+U+V+W+M+                ",
"                    X+Y+8+Z+`+ @.@+@@@#@$@%@                    ",
"                        &@*@=@-+-@;@>@,@                        ",
"                          '@)@(+;@/+!@                          ",
"                             @~@{@]@                            ",
"                                                                ",
"                                                                "};
