/* XPM */
static char * calc_32x32_xpm[] = {
"32 32 344 2",
"  	c None",
". 	c #D4D0C5",
"+ 	c #E0DBCF",
"@ 	c #CDCDC2",
"# 	c #AAB1A4",
"$ 	c #B9BCAF",
"% 	c #C5C3B8",
"& 	c #C9C6B9",
"* 	c #C6C2B6",
"= 	c #BDB9AE",
"- 	c #C9C4B8",
"; 	c #DBD8CC",
"> 	c #778778",
", 	c #4F6B59",
"' 	c #677F6D",
") 	c #6C7F70",
"! 	c #738376",
"~ 	c #818D7F",
"{ 	c #969C90",
"] 	c #A9AA9E",
"^ 	c #BFBBB0",
"/ 	c #BEBAAF",
"( 	c #BAB6AB",
"_ 	c #B3AFA4",
": 	c #A2A095",
"< 	c #DCD7CA",
"[ 	c #B8BBAE",
"} 	c #718676",
"| 	c #7D9684",
"1 	c #748E7C",
"2 	c #6D8775",
"3 	c #6A8371",
"4 	c #637969",
"5 	c #5A7060",
"6 	c #526557",
"7 	c #4B5D50",
"8 	c #536256",
"9 	c #656F64",
"0 	c #797F75",
"a 	c #A9A89E",
"b 	c #AEAA9E",
"c 	c #737169",
"d 	c #C3BFB2",
"e 	c #E2DED3",
"f 	c #DAD7CB",
"g 	c #C6C5B7",
"h 	c #BEC0B2",
"i 	c #B2B7A9",
"j 	c #A3AC9E",
"k 	c #8D9D8F",
"l 	c #798D7E",
"m 	c #6D8273",
"n 	c #697D6F",
"o 	c #657668",
"p 	c #5E6E61",
"q 	c #58665A",
"r 	c #5A675C",
"s 	c #898E83",
"t 	c #A7A398",
"u 	c #6A6861",
"v 	c #E1DCD0",
"w 	c #E8E6DF",
"x 	c #AEB0AB",
"y 	c #8C8F88",
"z 	c #99978E",
"A 	c #AEABA1",
"B 	c #B8B4A8",
"C 	c #BCB8AC",
"D 	c #C1BCB0",
"E 	c #BAB8AB",
"F 	c #AAADA0",
"G 	c #949B90",
"H 	c #858E83",
"I 	c #7B857A",
"J 	c #758076",
"K 	c #92958B",
"L 	c #A19D93",
"M 	c #64625B",
"N 	c #CDC9BD",
"O 	c #E6E3D9",
"P 	c #D4D4CE",
"Q 	c #8B9993",
"R 	c #7B8D87",
"S 	c #949691",
"T 	c #C1BEB6",
"U 	c #ACA99E",
"V 	c #98958C",
"W 	c #9C9A94",
"X 	c #9C998F",
"Y 	c #A5A297",
"Z 	c #B0ACA0",
"` 	c #B3B0A3",
" .	c #ABA99E",
"..	c #A3A398",
"+.	c #A5A499",
"@.	c #9C988D",
"#.	c #605D57",
"$.	c #ACA89E",
"%.	c #DFDCD0",
"&.	c #E5E4DD",
"*.	c #9AA099",
"=.	c #66736E",
"-.	c #555E5A",
";.	c #9F9E9A",
">.	c #A9A69C",
",.	c #A9A599",
"'.	c #807E78",
").	c #C3C1B9",
"!.	c #B2AEA2",
"~.	c #96938A",
"{.	c #6C6D6A",
"].	c #7C817B",
"^.	c #888A82",
"/.	c #AAA69B",
"(.	c #949087",
"_.	c #585650",
":.	c #D1CDC1",
"<.	c #E6E3DA",
"[.	c #D2D5CF",
"}.	c #96A29A",
"|.	c #7F8F89",
"1.	c #8E938E",
"2.	c #C8C6BF",
"3.	c #ADA99D",
"4.	c #939086",
"5.	c #888784",
"6.	c #88857D",
"7.	c #87837A",
"8.	c #7A7870",
"9.	c #747875",
"0.	c #7F8C87",
"a.	c #7D8983",
"b.	c #848780",
"c.	c #8E8A81",
"d.	c #514F49",
"e.	c #B1ADA2",
"f.	c #E1DDD2",
"g.	c #E3E2DC",
"h.	c #9EA69E",
"i.	c #6C7973",
"j.	c #58605C",
"k.	c #A3A4A1",
"l.	c #95928A",
"m.	c #BCBBB6",
"n.	c #BBB7AA",
"o.	c #AEAA9F",
"p.	c #7D7B74",
"q.	c #757571",
"r.	c #6A6D66",
"s.	c #6B7069",
"t.	c #5E605A",
"u.	c #8A887F",
"v.	c #848179",
"w.	c #4B4944",
"x.	c #D6D1C5",
"y.	c #E5E1D9",
"z.	c #CCCFC8",
"A.	c #8F9E97",
"B.	c #7B8E88",
"C.	c #838A86",
"D.	c #BBB8B2",
"E.	c #A6A397",
"F.	c #9D9A8F",
"G.	c #7C7A75",
"H.	c #908F89",
"I.	c #8D8A81",
"J.	c #A5A29B",
"K.	c #A9A69B",
"L.	c #9D9A90",
"M.	c #68665F",
"N.	c #8D8980",
"O.	c #7E7B73",
"P.	c #42403D",
"Q.	c #BBB7AB",
"R.	c #DFDBD0",
"S.	c #E1E1DB",
"T.	c #7E8882",
"U.	c #606F6B",
"V.	c #596460",
"W.	c #91918E",
"X.	c #AFACA2",
"Y.	c #B4B0A4",
"Z.	c #A9A59A",
"`.	c #AAA8A3",
" +	c #C5C1B8",
".+	c #A39F94",
"++	c #8A877D",
"@+	c #575653",
"#+	c #86847D",
"$+	c #89867D",
"%+	c #918D84",
"&+	c #77746C",
"*+	c #918E84",
"=+	c #75726B",
"-+	c #373532",
";+	c #D4D0C3",
">+	c #E6E3DB",
",+	c #C4CAC4",
"'+	c #859791",
")+	c #72847F",
"!+	c #727873",
"~+	c #B9B8B1",
"{+	c #9C988E",
"]+	c #8D8A80",
"^+	c #67655E",
"/+	c #9D9A96",
"(+	c #A6A298",
"_+	c #B4AFA3",
":+	c #9B988D",
"<+	c #868480",
"[+	c #ACA99F",
"}+	c #949086",
"|+	c #88857B",
"1+	c #625F58",
"2+	c #959287",
"3+	c #716F67",
"4+	c #393834",
"5+	c #E0DCD2",
"6+	c #D1D0CB",
"7+	c #8E938B",
"8+	c #7C8983",
"9+	c #7B847D",
"0+	c #B7B7B2",
"a+	c #CBC7BC",
"b+	c #BFBBAE",
"c+	c #9F9D96",
"d+	c #BAB8B1",
"e+	c #7B786F",
"f+	c #68655F",
"g+	c #83827E",
"h+	c #99968D",
"i+	c #A29E93",
"j+	c #76736B",
"k+	c #908D83",
"l+	c #33322F",
"m+	c #D9D5C9",
"n+	c #C4C0B5",
"o+	c #ABAA9F",
"p+	c #95978D",
"q+	c #86867E",
"r+	c #95938D",
"s+	c #928E85",
"t+	c #9D998F",
"u+	c #979389",
"v+	c #B2B0AA",
"w+	c #BEBAB0",
"x+	c #ACA89C",
"y+	c #706D66",
"z+	c #A1A09C",
"A+	c #9D9A94",
"B+	c #8B8881",
"C+	c #7B7871",
"D+	c #5D5B55",
"E+	c #938F85",
"F+	c #65635C",
"G+	c #AFABA0",
"H+	c #C4C0B4",
"I+	c #C2BEB1",
"J+	c #C5C0B3",
"K+	c #C1BDB0",
"L+	c #C0BCAF",
"M+	c #A5A196",
"N+	c #8C8A80",
"O+	c #8E8B84",
"P+	c #858179",
"Q+	c #88857C",
"R+	c #6F6D68",
"S+	c #BDBBB6",
"T+	c #C5C2BC",
"U+	c #CCCAC4",
"V+	c #C0BEB7",
"W+	c #6D6B65",
"X+	c #605E57",
"Y+	c #79766E",
"Z+	c #86837A",
"`+	c #98958A",
" @	c #A8A599",
".@	c #A9A69A",
"+@	c #AEAB9F",
"@@	c #B4B0A3",
"#@	c #B7B3A7",
"$@	c #B7B3A6",
"%@	c #B6B2A6",
"&@	c #B0ABA0",
"*@	c #9B978D",
"=@	c #838079",
"-@	c #8A8781",
";@	c #7D7A74",
">@	c #91908A",
",@	c #A8A59F",
"'@	c #8C887F",
")@	c #5A5751",
"!@	c #0B0B0A",
"~@	c #31302E",
"{@	c #514F4A",
"]@	c #585751",
"^@	c #75736B",
"/@	c #7F7D74",
"(@	c #7E7B72",
"_@	c #98948A",
":@	c #9C998E",
"<@	c #A09D93",
"[@	c #A3A095",
"}@	c #A19D92",
"|@	c #918E85",
"1@	c #726F67",
"2@	c #858279",
"3@	c #53514B",
"4@	c #252421",
"5@	c #272624",
"6@	c #1E1D1A",
"7@	c #3F3E38",
"8@	c #646259",
"9@	c #7D7A71",
"0@	c #85827A",
"a@	c #7B7970",
"b@	c #817F75",
"c@	c #908D82",
"d@	c #949187",
"e@	c #969389",
"f@	c #969288",
"g@	c #7F7C73",
"h@	c #504E49",
"i@	c #373732",
"j@	c #3C3A36",
"k@	c #3E3C38",
"l@	c #41403A",
"m@	c #3B3A35",
"n@	c #3D3C37",
"o@	c #54524C",
"p@	c #5F5D56",
"q@	c #78766D",
"r@	c #6F6D65",
"s@	c #55534E",
"t@	c #0F0E0E",
"u@	c #100F0E",
"v@	c #373631",
"w@	c #504E48",
"x@	c #45443D",
"y@	c #525049",
"z@	c #494742",
"A@	c #191818",
"B@	c #262522",
"C@	c #1C1B1A",
"                                                                ",
"                                                                ",
"                                                                ",
"                                                                ",
"                                                                ",
"                        .                                       ",
"                      + @ # $ % & * =                           ",
"                    - ; > , ' ) ! ~ { ] ^ / ( _ :               ",
"                    < [ } | 1 2 3 4 5 6 7 8 9 0 a b c           ",
"                  d e f g h i j k l m n o p q r s t u           ",
"                  v w x y z A B C D E F G H I J K L M           ",
"                N O P Q R S T U V W X Y Z `  ...+.@.#.          ",
"              $.%.&.*.=.-.;.>.,.'.).!.~.{.].^.z /.(._.          ",
"              :.<.[.}.|.1.2.3.4.5.6.7.8.9.0.a.b.V c.d.          ",
"            e.f.g.h.i.j.k./.b l.m.n.o.p.q.r.s.t.u.v.w.          ",
"            x.y.z.A.B.C.D.E.F.G.H.I.L '.J.K.L.M.N.O.P.          ",
"          Q.R.S.T.U.V.W.X.Y.Z.`. +.+++@+#+$+%+&+*+=+-+          ",
"          ;+>+,+'+)+!+~+{+]+^+/+(+_+:+<+[+}+|+1+2+3+4+          ",
"        * 5+6+7+8+9+0+a+b+Z c+d+I.e+f+g+h+F.i+j+k+c l+          ",
"        m+m+n+o+p+q+r+s+t+u+v+w+!.x+y+z+A+B+C+D+E+F+            ",
"      G+H+I+d J+d K+L+B M+N+O+P+Q+I.R+S+T+U+V+W+%+X+            ",
"      Y+Z+`+ @E..@+@@@#@$@%@&@t *@N.=@-@;@>@,@W+'@)@            ",
"        !@~@{@]@^@/@(@$+E+_@:@<@[@M+M+.+}@|@O.1@2@3@            ",
"                4@5@6@7@8@9@(@0@a@Y+b@c@d@e@u+f@g@h@            ",
"                        i@j@k@l@m@n@o@p@M.a@^@q@r@s@            ",
"                                    t@u@v@w@x@y@3@z@            ",
"                                            A@B@C@              ",
"                                                                ",
"                                                                ",
"                                                                ",
"                                                                ",
"                                                                "};
