/* XPM */
static char * crackattack_48x48_xpm[] = {
"48 48 45 1",
" 	c None",
".	c #333333",
"+	c #000000",
"@	c #000033",
"#	c #003333",
"$	c #003300",
"%	c #000066",
"&	c #330033",
"*	c #333300",
"=	c #660066",
"-	c #330066",
";	c #660033",
">	c #330000",
",	c #006600",
"'	c #339900",
")	c #009900",
"!	c #663366",
"~	c #990066",
"{	c #993399",
"]	c #990099",
"^	c #663399",
"/	c #660099",
"(	c #336600",
"_	c #00CC33",
":	c #33CC33",
"<	c #33FF33",
"[	c #009933",
"}	c #CC33CC",
"|	c #CC66CC",
"1	c #CC3399",
"2	c #00CC00",
"3	c #FF66FF",
"4	c #FF66CC",
"5	c #CC33FF",
"6	c #9933CC",
"7	c #CC66FF",
"8	c #FF33FF",
"9	c #9900CC",
"0	c #FF33CC",
"a	c #339933",
"b	c #336633",
"c	c #006633",
"d	c #993366",
"e	c #CC00CC",
"f	c #CC0099",
"                                                ",
"      .+@@#@#@@#@#@@#@#@++++++++++++++++++.     ",
"    +++++++++++++++++@$@+@++@+@++@+@++@+@++++   ",
"   +++@+@@+@@+@@+@@+@+@+@++@+@++@+@++@+@++@+++  ",
"  ++@++@+@+@+@+@+@+@+@+@+@@+@+@@+@+@@+@+@@+@+++ ",
"  ++@+@+@@@@@@@@@@@@@@@@@+@@@@+@@@@+@@@@@+@+@++ ",
" ++@+@+@@+@@@+@@@+@@@@@@@@@@@@@@@@@@@@+@@+@+@+++",
" +@+@+@@@@@@@@@@@@@@@@@@@@@@@@@@@@@@@@@@@@@+@+@+",
" +++@@@+@@@@@@@@@@@@@@@@@@@@@@@@@@@@@@@@@@@@+@++",
" +@+@+@@@@@@@%@@%@@@@&@&@&&@&@#&@&@@@@@@@@+@+@++",
" ++@+@@@@###@*@&&&=-;=;-;&&&&&&&&&&&&&&+&@>@@+@+",
" ++@+.$,')',@&&;=!~{]^/~/======&=&&&&&&&&&&&+@++",
" +@+#,(_:<[.&&-==]{{}}|}}}}1{{{{{{]^~!====&&&+@+",
" ++$$,)22:+&&&===^]}}}3334|5|}}1}{{{{]{]====&@++",
" +@$$,)):2&&&&===]~64}}|7}|}}}}6{{]{]^=!/====+++",
" ++$,,))2:+&&&====]{37}}48|}|61{}{{]{~]~=====+@+",
" +@$$,)):2&&&;-==={{84}}}|}}}16{{]{]^=/====]=+++",
" ++$,,))2:.&&&====]9|8|}6}|}6161]{]{~]===]]==+@+",
" +@$,,,)):.&&&==;={{070|}{}}16{{{]{=/==={]{==+++",
" ++$,,,)a2.&&&-;-=~{545}}}{}61]{]^~/~==]{{]~-$@+",
" +@$,,,,)2b&&;-&==/]|}|}}{{{}6{]{]!]=={{}]{==+++",
" ++$,,$))2b=&-;&-=~{}8}}}}}{]}{]{=]=={]}{{]=-$@+",
" +@*),$,)2b=&&&&;=/{}|}}}{{]{]1{]==/]1}}{]{==+++",
" ++@),$,)2b=&&&&-==]}}}}{}{{{]{]{=]~6}}}6{]=-$@+",
" ++&,,$,)a,==&+&;=={}}|}6{]{]=/]{]{{}3}}{{]=;@++",
" +@+,,$,)_(==&&&&==~6}}1}1{{/{~=]]}}3}}}{]{=&#++",
" ++@$,,,,2c;-.+&&=={{}}6{]{]d/==]{}}3}|{{]{==+@+",
" +++.,,,))'-;&@&&===}}}1}{]{/~==]{]}|}}}{{]=&$++",
" +@+$$,,,))&-&&&&==/{}6{9{]]!/~{6e{{}}}}{]!=-@++",
" +@+.$,,))a&&&&&&-=~{}1}{{]d]=]{f{}]{{{}{{]=;$@+",
" ++@+$,,,))&&&&&&==={}9{]]{/=]{9}{]{]{{{{]!=-@++",
" ++@+$,,)))>&&;&&;==]}6f{{=]]{f{{f6]{]={{{]=&#++",
" +@+@+$,)))@&&-&&-=={1{9{]{]{]6]}]{]{]^={]!=&#++",
" ++@+@#$,))#+&&=&;==]9}]{]~^]{}{]{]{]d]!=!]=.+@+",
" ++@+@@@$,)#@&&&-&=={{]{]{/]1]]{]{]]^]=]=&!=&#++",
" ++@+@@@&@,#+&&&=&===}]{]~]19{6{]{]d]!]===&=.@++",
" +@+@@@@@@%@@+&&=&==]{]{/{{]{f]]{]/{=]=====&&#++",
" +++@+@@@%@@%@&&=&==={]]]{f6]{]{]d/~/=~===-&>>@+",
" +@+@@@@@@@%@@#@&=;-~]]!]6]{]{]/d/====&-&.&>&@++",
" +++@+@@@@@@@%@@>&-==]^f{]]{====&&&&@@@@#@#@+@++",
" +@+@@@@@@@@%@@@&&&&=====;&&&&>@@&@@@@@@@+@+@+@+",
" ++@++@+@@@@@@@@@@@&&&&&@&@@@@@@@@@@@@@@@@@@+@++",
" +++@@+@@@@@@@@@@@@@@@@@@@@@@@@@@@@@@@@@+@+@++++",
"  +@+@+@+@+@@@@@@@@+@@+@+@@+@@@@+@@@+@@+@@+@+@+ ",
"  ++++@+@+@++@++@+@+@+@+@+@+@++@@++@+@+@+@+@+++ ",
"   +++@+@+@+@+@+@++@++@+@+@+@+@+++@+@+@+@+@+++  ",
"    ++++@+@++@++@+@+@++@+++@++@+@+@++@++@++++   ",
"      +++++++++++++++++++++++++++++++++++++     "};
