/* XPM */
static char * eagle_48x48_xpm[] = {
"48 48 486 2",
"  	c None",
". 	c #FFFFFF",
"+ 	c #FFFFFD",
"@ 	c #F8F8F8",
"# 	c #D3D3D3",
"$ 	c #F6F6F6",
"% 	c #E7E7E7",
"& 	c #FFFFFE",
"* 	c #A4A4A4",
"= 	c #777777",
"- 	c #D8D8D8",
"; 	c #727272",
"> 	c #9C9C9C",
", 	c #FEFEFE",
"' 	c #C7C7C7",
") 	c #2E2E2E",
"! 	c #919191",
"~ 	c #F4F4F4",
"{ 	c #ACACAC",
"] 	c #424242",
"^ 	c #636363",
"/ 	c #E6E6E6",
"( 	c #FCFCFC",
"_ 	c #F7F7F7",
": 	c #686868",
"< 	c #151515",
"[ 	c #D2D2D2",
"} 	c #E0E0E0",
"| 	c #7E7E7E",
"1 	c #333333",
"2 	c #ECECEC",
"3 	c #BFBFBF",
"4 	c #B0B0B0",
"5 	c #F5F5F5",
"6 	c #2F2F2F",
"7 	c #5D5D5D",
"8 	c #F0F0F0",
"9 	c #CACACA",
"0 	c #535353",
"a 	c #262626",
"b 	c #818181",
"c 	c #D1D1D1",
"d 	c #BCBCBC",
"e 	c #737373",
"f 	c #3F3F3F",
"g 	c #F9F9F9",
"h 	c #EEEEEE",
"i 	c #6B6B6B",
"j 	c #070707",
"k 	c #A0A0A0",
"l 	c #F2F2F2",
"m 	c #9A9A9A",
"n 	c #252525",
"o 	c #1C1C1C",
"p 	c #8A8A8A",
"q 	c #BBBBBB",
"r 	c #525252",
"s 	c #101010",
"t 	c #ADADAD",
"u 	c #FDFDFD",
"v 	c #B6B6B6",
"w 	c #2B2B2B",
"x 	c #121212",
"y 	c #A8A8A8",
"z 	c #585858",
"A 	c #000000",
"B 	c #030303",
"C 	c #414141",
"D 	c #7C7C7C",
"E 	c #1E1E1E",
"F 	c #1B1B1B",
"G 	c #040404",
"H 	c #0F0F0F",
"I 	c #060606",
"J 	c #080808",
"K 	c #0D0D0D",
"L 	c #232323",
"M 	c #CECECE",
"N 	c #BEBEBE",
"O 	c #282828",
"P 	c #010101",
"Q 	c #161616",
"R 	c #959595",
"S 	c #A3A3A3",
"T 	c #565656",
"U 	c #4A4A4A",
"V 	c #B4B4B4",
"W 	c #DADADA",
"X 	c #353535",
"Y 	c #9D9D9D",
"Z 	c #838383",
"` 	c #0E0E0E",
" .	c #3C3C3C",
"..	c #B8B8B8",
"+.	c #EAEAEA",
"@.	c #676767",
"#.	c #050505",
"$.	c #6D6D6D",
"%.	c #5E5E5E",
"&.	c #020202",
"*.	c #171717",
"=.	c #6C6C6C",
"-.	c #D7D7D7",
";.	c #090909",
">.	c #AAAAAA",
",.	c #F3F3F3",
"'.	c #AEAEAE",
").	c #0B0B0B",
"!.	c #4F4F4F",
"~.	c #D4D4D4",
"{.	c #F1F1F1",
"].	c #B3B3B3",
"^.	c #787878",
"/.	c #181818",
"(.	c #111111",
"_.	c #4B4B4B",
":.	c #7F7F7F",
"<.	c #CDCDCD",
"[.	c #2A2A2A",
"}.	c #494949",
"|.	c #696969",
"1.	c #C8C8C8",
"2.	c #C4C4C4",
"3.	c #4D4D4D",
"4.	c #858585",
"5.	c #3E3E3E",
"6.	c #DFDFDF",
"7.	c #6A6A6A",
"8.	c #292929",
"9.	c #2D2D2D",
"0.	c #5C5C5C",
"a.	c #575757",
"b.	c #7A7A7A",
"c.	c #242424",
"d.	c #B7B7B7",
"e.	c #323232",
"f.	c #969696",
"g.	c #202020",
"h.	c #222222",
"i.	c #6F6F6F",
"j.	c #1F1F1F",
"k.	c #DDDDDD",
"l.	c #C3C3C3",
"m.	c #313131",
"n.	c #393939",
"o.	c #131313",
"p.	c #707070",
"q.	c #7B7B7B",
"r.	c #464646",
"s.	c #E3E3E3",
"t.	c #CCCCCC",
"u.	c #404040",
"v.	c #E2E2E2",
"w.	c #949494",
"x.	c #8F8F8F",
"y.	c #B1B1B1",
"z.	c #717171",
"A.	c #3B3B3B",
"B.	c #D5D5D5",
"C.	c #989898",
"D.	c #979797",
"E.	c #D9D9D9",
"F.	c #363636",
"G.	c #EBEBEB",
"H.	c #626262",
"I.	c #FAFAFA",
"J.	c #E4E4E4",
"K.	c #C5C5C5",
"L.	c #C6C6C6",
"M.	c #7D7D7D",
"N.	c #1D1D1D",
"O.	c #D0D0D0",
"P.	c #BDBDBD",
"Q.	c #909090",
"R.	c #0C0C0C",
"S.	c #828282",
"T.	c #8C8C8C",
"U.	c #646464",
"V.	c #454545",
"W.	c #606060",
"X.	c #0A0A0A",
"Y.	c #141414",
"Z.	c #191919",
"`.	c #939393",
" +	c #CFCFCF",
".+	c #555555",
"++	c #EDEDED",
"@+	c #5F5F5F",
"#+	c #666666",
"$+	c #A5A5A5",
"%+	c #6E6E6E",
"&+	c #EFEFEF",
"*+	c #A2A2A2",
"=+	c #3A3A3A",
"-+	c #303030",
";+	c #BABABA",
">+	c #FFFEFF",
",+	c #C2C2C2",
"'+	c #000001",
")+	c #474747",
"!+	c #8B8B8B",
"~+	c #FFFAF8",
"{+	c #FFFAF9",
"]+	c #FFFBFA",
"^+	c #FFFDFB",
"/+	c #FFFEFC",
"(+	c #F6F5F3",
"_+	c #F5F5F4",
":+	c #FFFEFE",
"<+	c #FFFEFD",
"[+	c #F7F6F7",
"}+	c #000002",
"|+	c #FEFFFF",
"1+	c #FFE3D8",
"2+	c #FFE4D9",
"3+	c #FFE6DB",
"4+	c #FFE9DF",
"5+	c #FFEAE1",
"6+	c #FFEEE5",
"7+	c #FFEFE7",
"8+	c #FFF0E9",
"9+	c #FFF2EC",
"0+	c #FFF2EE",
"a+	c #FFF5F2",
"b+	c #FFF6F3",
"c+	c #FFF8F4",
"d+	c #FFF9F6",
"e+	c #FFFAF7",
"f+	c #F3F0EF",
"g+	c #747172",
"h+	c #010001",
"i+	c #010000",
"j+	c #040303",
"k+	c #373636",
"l+	c #BBBBBA",
"m+	c #FEFEFD",
"n+	c #FFCCB8",
"o+	c #FFCDBA",
"p+	c #FFCFBC",
"q+	c #FED1BF",
"r+	c #FED3C1",
"s+	c #FED6C5",
"t+	c #FED6C7",
"u+	c #FFD9CA",
"v+	c #FFDBCC",
"w+	c #FEDCCE",
"x+	c #FFDFD3",
"y+	c #FFE0D4",
"z+	c #FEE6DC",
"A+	c #FBE6DE",
"B+	c #FCEDE6",
"C+	c #E6DDD9",
"D+	c #666160",
"E+	c #020000",
"F+	c #352F2E",
"G+	c #665D5A",
"H+	c #6D635F",
"I+	c #B2A8A4",
"J+	c #F7F0ED",
"K+	c #FFFBF9",
"L+	c #FFFCFA",
"M+	c #FFFCFB",
"N+	c #FFB197",
"O+	c #FEB399",
"P+	c #FFB69D",
"Q+	c #FEB8A0",
"R+	c #FEBAA3",
"S+	c #FEBDA6",
"T+	c #FEBDA7",
"U+	c #FFC1AA",
"V+	c #FFC4AC",
"W+	c #FFC5AD",
"X+	c #FFC8B2",
"Y+	c #FDC9B4",
"Z+	c #FBCCB9",
"`+	c #E0BAAB",
" @	c #B89D91",
".@	c #907C74",
"+@	c #564A46",
"@@	c #221C1C",
"#@	c #030000",
"$@	c #040000",
"%@	c #050000",
"&@	c #0B0000",
"*@	c #8C7A74",
"=@	c #F7DDD3",
"-@	c #F6DBD0",
";@	c #FBE2D8",
">@	c #FFE8DF",
",@	c #FFEAE3",
"'@	c #FFECE5",
")@	c #FFEEE7",
"!@	c #FFF0EB",
"~@	c #FFF1EC",
"{@	c #FFF4EE",
"]@	c #FFF4EF",
"^@	c #FFF6F1",
"/@	c #FFF8F5",
"(@	c #FFFCF8",
"_@	c #FFFDFA",
":@	c #FFFDFC",
"<@	c #FF9479",
"[@	c #FE9679",
"}@	c #FF987D",
"|@	c #FF9A80",
"1@	c #FF9D82",
"2@	c #FF9F86",
"3@	c #FEA187",
"4@	c #FFA48A",
"5@	c #FFA68B",
"6@	c #FEA88C",
"7@	c #FEAC92",
"8@	c #F8AF97",
"9@	c #C78E7B",
"0@	c #56342D",
"a@	c #1D100E",
"b@	c #120908",
"c@	c #070100",
"d@	c #0A0403",
"e@	c #130402",
"f@	c #341B14",
"g@	c #311A16",
"h@	c #280E0A",
"i@	c #7F594C",
"j@	c #DFB19E",
"k@	c #FDC9B5",
"l@	c #FECBB7",
"m@	c #FFCDB9",
"n@	c #FFCFBB",
"o@	c #FFD2BF",
"p@	c #FFD3C1",
"q@	c #FFD6C3",
"r@	c #FFD7C8",
"s@	c #FFD9C9",
"t@	c #FFDCCD",
"u@	c #FFDDCF",
"v@	c #FFDFD2",
"w@	c #FEE1D5",
"x@	c #FFE5DA",
"y@	c #FEE7DB",
"z@	c #FFE8DE",
"A@	c #FFEBE1",
"B@	c #FFEBE3",
"C@	c #FFEEE6",
"D@	c #FFF1EA",
"E@	c #FFF4F1",
"F@	c #FF735B",
"G@	c #FE755C",
"H@	c #FF795F",
"I@	c #FF7B62",
"J@	c #FF7D63",
"K@	c #FF8067",
"L@	c #FE8168",
"M@	c #FF856B",
"N@	c #FF886D",
"O@	c #FD8A6E",
"P@	c #F98E74",
"Q@	c #D77F6A",
"R@	c #854639",
"S@	c #350E0A",
"T@	c #1F0401",
"U@	c #3C1C18",
"V@	c #2A0804",
"W@	c #431F1C",
"X@	c #62342A",
"Y@	c #BB7B6A",
"Z@	c #D69382",
"`@	c #C4806D",
" #	c #ECA089",
".#	c #FEAD93",
"+#	c #FFAD94",
"@#	c #FFB096",
"##	c #FFB198",
"$#	c #FFB399",
"%#	c #FFB79E",
"&#	c #FFB9A0",
"*#	c #FFBCA3",
"=#	c #FFC0AA",
"-#	c #FEC2AB",
";#	c #FEC4AE",
">#	c #FFC7B1",
",#	c #FEC8B2",
"'#	c #FFCCB9",
")#	c #FECEBB",
"!#	c #FFCFBD",
"~#	c #FFD2C0",
"{#	c #FFD3C2",
"]#	c #FFD6C5",
"^#	c #FFD8C8",
"/#	c #FFDBCD",
"(#	c #FFDBCE",
"_#	c #FF5244",
":#	c #FF5445",
"<#	c #FF5848",
"[#	c #FF5A49",
"}#	c #FF5D4B",
"|#	c #FF604E",
"1#	c #FE614E",
"2#	c #FF6552",
"3#	c #FF6853",
"4#	c #FD6B56",
"5#	c #F26B57",
"6#	c #BA4C3D",
"7#	c #7C2821",
"8#	c #611B17",
"9#	c #893E34",
"0#	c #C36A5C",
"a#	c #9F4535",
"b#	c #79281E",
"c#	c #C66C5A",
"d#	c #E57A63",
"e#	c #FB8A72",
"f#	c #FC8B72",
"g#	c #FD8D73",
"h#	c #FE9075",
"i#	c #FF9077",
"j#	c #FF947A",
"k#	c #FF967B",
"l#	c #FF9B80",
"m#	c #FF9C81",
"n#	c #FF9F85",
"o#	c #FFA287",
"p#	c #FEA389",
"q#	c #FFA78D",
"r#	c #FEA98E",
"s#	c #FEAA90",
"t#	c #FFAD93",
"u#	c #FEAE94",
"v#	c #FFB299",
"w#	c #FFB39B",
"x#	c #FEB49D",
"y#	c #FFB8A1",
"z#	c #FFB9A2",
"A#	c #FFBCA5",
"B#	c #FEBEA7",
"C#	c #FEC0AA",
"D#	c #FFC3AD",
"E#	c #FFC4AD",
"F#	c #FD262D",
"G#	c #FD282E",
"H#	c #FF2E33",
"I#	c #FF3134",
"J#	c #FF3637",
"K#	c #FF3A39",
"L#	c #FF3B39",
"M#	c #FF413E",
"N#	c #FF443F",
"O#	c #FF4741",
"P#	c #FB4B44",
"Q#	c #EF4B43",
"R#	c #E34D45",
"S#	c #D5453D",
"T#	c #E8584D",
"U#	c #F56153",
"V#	c #F2604F",
"W#	c #DE5244",
"X#	c #F46555",
"Y#	c #FB6752",
"Z#	c #FE6953",
"`#	c #FE6A53",
" $	c #FF6E56",
".$	c #FF7158",
"+$	c #FE725B",
"@$	c #FF765E",
"#$	c #FF775E",
"$$	c #FF7A61",
"%$	c #FF7E65",
"&$	c #FE8066",
"*$	c #FF836A",
"=$	c #FF866D",
"-$	c #FF876D",
";$	c #FF8B72",
">$	c #FE8D73",
",$	c #FF8F75",
"'$	c #FF9277",
")$	c #FF9378",
"!$	c #FF977C",
"~$	c #FF997D",
"{$	c #FE9A7E",
"]$	c #FF9D83",
"^$	c #FF9F84",
"/$	c #FFA286",
"($	c #FEA489",
"_$	c #FEA58B",
":$	c #FFA98F",
"<$	c #FFAA8F",
". . . . . . . . . . . . . . . . . . . . . . . . . . . . . . . . . . . . . . . . . . . . . . . . ",
"+ . . . . . . . . . . . . . . . . . . . . . . . . . . . . . @ # . . . . . . $ % . . . . . . . . ",
"& . . . . . . . . . . . . . . . . . . . . . . . . . . . . . * = . . . . . - ; > . , , . . . . . ",
". . . . . . . . . . . . . . . . . . . . . . . . . . . . . ' ) ! , . , ~ { ] ^ / . ( , . . . . . ",
". . . . . . . . . . . . . . . . . . . . . . . . . . . . _ : < [ . , } | 1 | 2 $ 3 4 5 . . . . . ",
". . . . . . . . . . . . . . . . . . . . . . . . . . . . 3 6 7 8 ( 9 0 a b c d e f * g . . . . . ",
". . . . . . . . . . . . . . . . . . . . . . . . . . . h i j k l m n o p q r o s t g . . . . . . ",
". . . . . . . . . . . . . . . . . . . . . . . . . . u v w x y z A B C D E A F 4 . . . . . . . . ",
". . . . . . . . . . . . . . . . . . . . . . . . . . 2 ; G H w I A J E K A L > _ . ~ M - . . . . ",
". . . . . . . . . . . . . . . . , . . . . . . . . , N O A A A A A P B A Q R ~ l S T U V . . . . ",
". . . . . . . . . . . . . . . . . . . . . . . . , W T P A A A A A A I X Y 9 Z L `  ...@ . . . . ",
". . . . . . . . . . . . . . . . . . . . . . . . +.@.#.A A A A A A P L $.%.o &.*.=.-.. . . . . . ",
". . . . . . . . . . . . . . . . . . . . . . . u Z ;.A A A A A A A P K H P P  .>.,.. . . . . . . ",
". . . . . . . . . . . . . . . . . . . . . ( +.'.K P A A A A A A A A A ).!.Y ~.{.~ 5 g u . . . . ",
". . . . . . . . . . . . . . . . . u ,.l 5 ].^./.A A A A A A A A A A A (.X C C C C _.:.<.. . . . ",
". . . . . . . . . . . . . . . , . h { ' >.!.O G A A A A A A A A A A A A A P F [.}.|.! 1.. . . . ",
". . . . . . . . . , . . . . . ].l 2.3.4.5.Q #.A A A A A A A A A A A A A A A ` f 2.{.. . . . . . ",
". . . . . . . . . . . . . . 6.7.+.r 8.5.P A A A A A A A A A A P A A A B 9.0.a.; @ . , . . . . . ",
". . . . . . . . . . . . . u b.:.y H c.(.A A A A A A A A A A A A A A A A #.c.|.d.( . . . . . . . ",
". . . . . . . . . . . . . # e.f.6 I x A A A A A A A A A A A A A A A A A A A B g.'.. . . . . . . ",
". . . . . . . . . . . . @ ; h.i.&.A P A A A A A A A A A A A A A A A A A A A ).j.k.. . . . . . . ",
". . . . . . . . . . . . l.m.n.o.A A A A A A A A A A A A A A A A A A A A A P p.+.u . . . . . . . ",
". . . . . . . . . . . _ q.).H &.A A A A A A A A A A A A A A A A A A A A A A r.s.. . . . . . . . ",
". . . . . . . . . . . t.u.A A A A A A A A A A A A A A A A A A A A A A A A A L v.. . . . . . . . ",
". . . . . . . . , . . w.j A A A A A A A A A A A A A A A A A A A A A A A A A 6 Y . . . . . . . . ",
". . . . . . . . . . . x.&.A A A A A A A A A A A A A A A A A A A A A A A A &.*.y.. . . . . . . . ",
". . . . . . . . . . . 4 h.A A A A A A A A A A A A A A A A A A A A A A A A s z.k.. . . . . . . . ",
". . . . . . . . . . . 8 D o.P A A A A A A A A A A A A A A A A A A A A A P A.B., . . . . . . . . ",
". . . . . . . . . . . . 8 C.u.J A A A A A A A A A A A A A A A A A A A &.F D.~ . . . . . . . . . ",
". . . . . . . . . . . . . u E.F.A A A A A A A A A A A A A A A A A A j U >.G.. . . . . . . . . . ",
". . . . . . . . . . , , ( $ M n.A A A A A A A A A A A A A A P &.B #.(.H.t.$ u I.J.3 K.W . . . . ",
". . . . . . . . . . _ L.M.9.G A A A A A A A A A A A A A A A N.H.! '.O.2.P.N Q.C &.A R.S.( . . . ",
". . . . . . . . . $ t m.A A A A A A A A A A A A A A A A A s  .C.C.T.b U.V.Q &.A A A x W.M , . . ",
". . . . . . . . ( P.) P A A A A A A A A A A A A A A A A A X.Y.Z.R.#.B A A A A A A A P w `. +$ . ",
". . . . . . . .  +8.P A A A A A A A A A A A A A A A A A A A A A A A A A A A A A A A A B X.z.+.. ",
". . . . . . . . .+I A A A A A A A A A A A A A A A A A A A A A A A A A A A A A A A A A (.9.4.++. ",
". . . . . . . . Q #.&.< 5.@+0 R.A A A A A A A A A A A A A A A A J x j o .+@.#+b Q.Q.Q.$+K.t.~ . ",
". . . . . . . % j o.%+9 / &+2 *+K P A A A A A A A A A A A A A I m B.N t - {.8 @ ( ( ( u . . . . ",
". . . . . . . B.J |.$ . . . . . d.=+A A A A A A A A A A A A G /.-+;+. . . . . . . . . . . . . . ",
">+>+. . . >+. h b.,+. . . . . . I.k A '+'+A A A A A A Y.)+r.1 !+k d.. . . . . . . . . . . . . . ",
"~+{+]+^+^+/+/+/+(+_+:+<++ & & >+[+T.'+}+'+A P A A A B r.2.} # &+. |+|+. . . . . . . . . . . . . ",
"1+2+3+4+5+6+7+8+9+0+a+b+c+d+e+{+f+g+h+A A P A i+i+j+k+l+m+. . . . . . . . . + + . . . . . . . . ",
"n+o+p+q+r+s+t+u+v+w+x+y+1+z+A+B+C+D+i+A A A E+F+G+H+I+J+K+K+L+M+^+/+<+:+:+& & & & & . . . . . . ",
"N+O+P+Q+R+S+T+U+V+W+X+Y+Z+`+ @.@+@@@#@$@$@%@&@*@=@-@;@>@,@'@)@!@~@{@]@^@c+/@e+{+(@_@M+:@/+/+/+:+",
"<@[@}@|@1@2@3@4@5@6@7@8@9@0@a@b@c@d@e@f@g@h@i@j@k@l@m@n@o@p@q@r@s@t@u@v@y+w@x@y@z@A@B@C@8+D@{@E@",
"F@G@H@I@J@K@L@M@N@O@P@Q@R@S@T@U@V@W@X@Y@Z@`@ #.#+#@###$#P+%#&#*#S+=#-#;#>#,#'#)#!#~#{#]#^#u+/#(#",
"_#:#<#[#}#|#1#2#3#4#5#6#7#8#9#0#a#b#c#d#e#f#g#h#i#j#k#}@l#m#n#o#p#q#r#s#t#u#v#w#x#y#z#A#B#C#D#E#",
"F#G#H#I#J#K#L#M#N#O#P#Q#R#S#T#U#V#W#X#Y#Z#`# $.$+$@$#$$$%$&$*$=$-$;$>$,$'$)$!$~${$]$^$/$($_$:$<$"};
