/* XPM */
static char * freeciv_16x16_xpm[] = {
"16 16 78 1",
" 	c None",
".	c #202020",
"+	c #483028",
"@	c #40302B",
"#	c #544844",
"$	c #685C58",
"%	c #8C746C",
"&	c #C0C0C0",
"*	c #585858",
"=	c #B4A8A4",
"-	c #E0E0E0",
";	c #B4B4B4",
">	c #805C50",
",	c #C8C8C8",
"'	c #D0D0D0",
")	c #707070",
"!	c #A09490",
"~	c #D8D8D8",
"{	c #606060",
"]	c #B8B8B8",
"^	c #645854",
"/	c #101010",
"(	c #503830",
"_	c #949494",
":	c #988C88",
"<	c #907870",
"[	c #B8ACA8",
"}	c #805040",
"|	c #643428",
"1	c #5C2C24",
"2	c #888888",
"3	c #908480",
"4	c #988078",
"5	c #5C5C5C",
"6	c #704030",
"7	c #784838",
"8	c #8C8C8C",
"9	c #A8A8A8",
"0	c #484848",
"a	c #B0A4A0",
"b	c #382020",
"c	c #603024",
"d	c #64342C",
"e	c #ACACAC",
"f	c #786C6C",
"g	c #3C3030",
"h	c #2C2020",
"i	c #646464",
"j	c #102040",
"k	c #3C2420",
"l	c #6C483C",
"m	c #88706C",
"n	c #543030",
"o	c #542420",
"p	c #442020",
"q	c #454545",
"r	c #002060",
"s	c #282040",
"t	c #482420",
"u	c #5C382C",
"v	c #744434",
"w	c #683828",
"x	c #BCBCBC",
"y	c #887C7C",
"z	c #4C2820",
"A	c #704034",
"B	c #442C28",
"C	c #807474",
"D	c #5C3838",
"E	c #582824",
"F	c #183880",
"G	c #5C443C",
"H	c #846C68",
"I	c #582820",
"J	c #6C3C30",
"K	c #3050A0",
"L	c #103075",
"M	c #502020",
"                ",
"       .  +@.   ",
"     +#$.@%&*   ",
"   .#=-;>,'')   ",
"  .!--~,{-']^/  ",
" ((_-~~')':<[.  ",
"}|12~~-]34=-'5  ",
"6768~'90a-'-')  ",
"bcdeefghe-'-~i  ",
"jklmnopb_-'-~q  ",
"rstuvwbb9-,xy.  ",
"rrsozuABxxCDEA@ ",
"  FrsozGHDIc6|J.",
"   KFrsozw6777u.",
"      LrsoIMpb.j",
"        Frsbb.j "};
