/* XPM */
static char * go_48x48_xpm[] = {
"48 48 547 2",
"  	c None",
". 	c #020202",
"+ 	c #131313",
"@ 	c #242424",
"# 	c #323232",
"$ 	c #C8C8C8",
"% 	c #D1D1D1",
"& 	c #E3E3E3",
"* 	c #F8F8F8",
"= 	c #FFFFFF",
"- 	c #EFEFEF",
"; 	c #000000",
"> 	c #D4D4D4",
", 	c #DBDBDB",
"' 	c #999999",
") 	c #5B5B5B",
"! 	c #060606",
"~ 	c #494949",
"{ 	c #E2E2E2",
"] 	c #DADADA",
"^ 	c #9D9D9D",
"/ 	c #676767",
"( 	c #0B0B0B",
"_ 	c #464646",
": 	c #C5C5C5",
"< 	c #030303",
"[ 	c #E1E1E1",
"} 	c #2A2A2A",
"| 	c #050505",
"1 	c #0F0F0F",
"2 	c #FBFBFB",
"3 	c #858585",
"4 	c #6C6C6C",
"5 	c #414141",
"6 	c #DEDEDE",
"7 	c #AFAFAF",
"8 	c #4B4B4B",
"9 	c #8B8B8B",
"0 	c #BDBDBD",
"a 	c #151515",
"b 	c #1A1A1B",
"c 	c #3C3C3E",
"d 	c #D9D9D9",
"e 	c #070708",
"f 	c #727272",
"g 	c #7C7C7C",
"h 	c #878787",
"i 	c #FCFCFC",
"j 	c #5A5A5A",
"k 	c #1D1D1F",
"l 	c #646466",
"m 	c #C2C2C4",
"n 	c #9E9E9E",
"o 	c #B3B3B3",
"p 	c #999A9B",
"q 	c #262627",
"r 	c #292929",
"s 	c #3A3A3A",
"t 	c #BFC0C4",
"u 	c #C3C4C6",
"v 	c #A8A9A9",
"w 	c #E0E0E0",
"x 	c #D5D5D5",
"y 	c #A2A2A5",
"z 	c #E9E9E9",
"A 	c #898989",
"B 	c #F7F7F8",
"C 	c #C7C7CE",
"D 	c #F8F8F9",
"E 	c #CCCAC9",
"F 	c #666362",
"G 	c #D8D7D8",
"H 	c #787576",
"I 	c #ABACAC",
"J 	c #CDCDCE",
"K 	c #F7F7F7",
"L 	c #1D1D1D",
"M 	c #DCDCDC",
"N 	c #F6F6F7",
"O 	c #C4C4CB",
"P 	c #E9E8E8",
"Q 	c #716A6A",
"R 	c #655D57",
"S 	c #777467",
"T 	c #DFDCDB",
"U 	c #594733",
"V 	c #898888",
"W 	c #424242",
"X 	c #2A2A2B",
"Y 	c #C2C2CA",
"Z 	c #D0CECD",
"` 	c #544D4A",
" .	c #A5A195",
"..	c #FFFFE7",
"+.	c #A7A891",
"@.	c #DFDBD8",
"#.	c #7E694E",
"$.	c #6E6E6E",
"%.	c #515155",
"&.	c #E5E6E7",
"*.	c #D8D8D7",
"=.	c #564F4C",
"-.	c #CCC9C2",
";.	c #FFFFFB",
">.	c #FFFFF4",
",.	c #A3A393",
"'.	c #EAE8E5",
").	c #F0EFED",
"!.	c #09090B",
"~.	c #98989A",
"{.	c #5D5753",
"].	c #C2BFB8",
"^.	c #FFFFFD",
"/.	c #FFFFFA",
"(.	c #A1A297",
"_.	c #DBDBDC",
":.	c #161617",
"<.	c #28282A",
"[.	c #9A9695",
"}.	c #8E8982",
"|.	c #FFFFFC",
"1.	c #A1A298",
"2.	c #D6D8D8",
"3.	c #5E5F63",
"4.	c #010102",
"5.	c #7A797C",
"6.	c #FBFAFA",
"7.	c #595250",
"8.	c #F1F0DC",
"9.	c #FFFFF8",
"0.	c #FFFFF9",
"a.	c #A1A296",
"b.	c #EDECEA",
"c.	c #F8F8F7",
"d.	c #AEAEB1",
"e.	c #050506",
"f.	c #121212",
"g.	c #575757",
"h.	c #626262",
"i.	c #BABABC",
"j.	c #BDBBBC",
"k.	c #8A8477",
"l.	c #FFFFE6",
"m.	c #FFFFEA",
"n.	c #FFFFEF",
"o.	c #FFFFEE",
"p.	c #FFFFEC",
"q.	c #A2A291",
"r.	c #DCDAD6",
"s.	c #8A7C69",
"t.	c #3D3D3C",
"u.	c #4D4D52",
"v.	c #363639",
"w.	c #090909",
"x.	c #9B9BA0",
"y.	c #C4C4C5",
"z.	c #BEBEC2",
"A.	c #E0E1E0",
"B.	c #908E8E",
"C.	c #BDB699",
"D.	c #FFFFD6",
"E.	c #FFFFDB",
"F.	c #FFFFE0",
"G.	c #FFFFDF",
"H.	c #FFFFDE",
"I.	c #A2A08A",
"J.	c #DFDEDC",
"K.	c #7E592D",
"L.	c #C5C0BA",
"M.	c #EBEBEC",
"N.	c #87878D",
"O.	c #D8D9E5",
"P.	c #D4D5E0",
"Q.	c #B2B3BB",
"R.	c #8D8E94",
"S.	c #59595C",
"T.	c #B6B7BC",
"U.	c #F9F9F8",
"V.	c #767375",
"W.	c #DFCCA4",
"X.	c #FFF4C2",
"Y.	c #FFF8C8",
"Z.	c #FFFBCC",
"`.	c #FFFACD",
" +	c #FFFCCB",
".+	c #A29A82",
"++	c #DEDDDD",
"@+	c #AA7C48",
"#+	c #886841",
"$+	c #EEEFF0",
"%+	c #C5C5C7",
"&+	c #94959C",
"*+	c #C6C7D1",
"=+	c #C1C2CB",
"-+	c #C1C2CA",
";+	c #9C9CA2",
">+	c #1B1B1C",
",+	c #F6F7FF",
"'+	c #FBFCFF",
")+	c #A8A8AC",
"!+	c #716F71",
"~+	c #EECB9E",
"{+	c #FFE2B0",
"]+	c #FFE5B5",
"^+	c #FFE8B8",
"/+	c #FFE7B8",
"(+	c #FFE9B8",
"_+	c #A1927A",
":+	c #DDDCDC",
"<+	c #A87B48",
"[+	c #CC995E",
"}+	c #826F57",
"|+	c #959598",
"1+	c #ABACB5",
"2+	c #BFBEC8",
"3+	c #BABCC4",
"4+	c #9A99A1",
"5+	c #1F1F21",
"6+	c #F2F2FE",
"7+	c #FCFDFF",
"8+	c #A2A3A8",
"9+	c #FEFEFE",
"0+	c #7B797C",
"a+	c #E6BC90",
"b+	c #FFD09F",
"c+	c #FFD4A3",
"d+	c #FFD6A5",
"e+	c #FFD6A4",
"f+	c #FFD8A4",
"g+	c #A18A71",
"h+	c #A27844",
"i+	c #D4A164",
"j+	c #AB7F4B",
"k+	c #A69D93",
"l+	c #78777C",
"m+	c #B4B6BE",
"n+	c #BBBBC3",
"o+	c #9C9CA3",
"p+	c #1E1E1F",
"q+	c #ECEDF8",
"r+	c #AEAEB2",
"s+	c #E8E8E9",
"t+	c #949395",
"u+	c #CCAB85",
"v+	c #F4C48E",
"w+	c #F4C492",
"x+	c #F5C694",
"y+	c #F4C693",
"z+	c #F9C793",
"A+	c #9A8369",
"B+	c #DCDDDC",
"C+	c #A07443",
"D+	c #CD9C63",
"E+	c #C8975E",
"F+	c #846239",
"G+	c #D9D8D6",
"H+	c #E6E6E7",
"I+	c #7A7A80",
"J+	c #BBBBC4",
"K+	c #88888F",
"L+	c #39393A",
"M+	c #6B6B71",
"N+	c #A3A3A8",
"O+	c #898A8D",
"P+	c #C0C0C2",
"Q+	c #BAB9BC",
"R+	c #B19B83",
"S+	c #E8B67E",
"T+	c #E7B883",
"U+	c #E8B984",
"V+	c #E7B884",
"W+	c #ECBB83",
"X+	c #947D63",
"Y+	c #DDDDDC",
"Z+	c #9C7241",
"`+	c #C89861",
" @	c #C4955F",
".@	c #BE8F57",
"+@	c #745C41",
"@@	c #FCFFFF",
"#@	c #A5A5A5",
"$@	c #7E7F83",
"%@	c #E8EBED",
"&@	c #938E8C",
"*@	c #DEAC71",
"=@	c #DCAD76",
"-@	c #DDAE78",
";@	c #E0AF76",
">@	c #8F785D",
",@	c #987040",
"'@	c #C4975E",
")@	c #BF925C",
"!@	c #BE905A",
"~@	c #A97D49",
"{@	c #897E70",
"]@	c #6B6B6B",
"^@	c #28292A",
"/@	c #FDFEFF",
"(@	c #FCFCFF",
"_@	c #A4A6AD",
":@	c #C1A17E",
"<@	c #D5A56A",
"[@	c #D4A56D",
"}@	c #D4A56F",
"|@	c #D8A76E",
"1@	c #8C7459",
"2@	c #DCDCDB",
"3@	c #956E3E",
"4@	c #C1935C",
"5@	c #BC8E5A",
"6@	c #B98C58",
"7@	c #B5874F",
"8@	c #A59689",
"9@	c #C1C2C4",
"0@	c #2C2C2C",
"a@	c #A6A8AF",
"b@	c #F4F4FF",
"c@	c #DBDCE7",
"d@	c #A6A1A2",
"e@	c #CD9E67",
"f@	c #CE9E66",
"g@	c #CD9E68",
"h@	c #D2A168",
"i@	c #887156",
"j@	c #926B3C",
"k@	c #BE905C",
"l@	c #B88B58",
"m@	c #B28550",
"n@	c #C7A57E",
"o@	c #EFF0FC",
"p@	c #7C7C83",
"q@	c #EDEDEC",
"r@	c #333336",
"s@	c #E5E6F0",
"t@	c #EAEBF6",
"u@	c #C5C7D0",
"v@	c #BCACA1",
"w@	c #C89860",
"x@	c #C89760",
"y@	c #CC9B61",
"z@	c #866F54",
"A@	c #8F683A",
"B@	c #BA8E59",
"C@	c #BA9265",
"D@	c #FBF9FB",
"E@	c #CFD1DC",
"F@	c #B9B9C3",
"G@	c #747477",
"H@	c #ACACAC",
"I@	c #0D0D0D",
"J@	c #9E9FA7",
"K@	c #6B6C71",
"L@	c #E5E7F0",
"M@	c #E2E4EE",
"N@	c #C3C4CC",
"O@	c #C9B7AA",
"P@	c #C49760",
"Q@	c #C59558",
"R@	c #836D51",
"S@	c #E1E3E4",
"T@	c #8C663A",
"U@	c #B2844E",
"V@	c #C09B71",
"W@	c #FFFEFC",
"X@	c #D6D7E2",
"Y@	c #BEC0C9",
"Z@	c #C0BFC9",
"`@	c #37373D",
" #	c #9E9EA0",
".#	c #F2F2F2",
"+#	c #AAAAAA",
"@#	c #9D9EA4",
"##	c #E9EAF4",
"$#	c #82838A",
"%#	c #898A90",
"&#	c #DFE0EA",
"*#	c #DBDCE8",
"=#	c #CACCD6",
"-#	c #D5CAC8",
";#	c #D1AE88",
">#	c #816C50",
",#	c #F9FBFB",
"'#	c #D7D4D2",
")#	c #BCB9B4",
"!#	c #A69F95",
"~#	c #948779",
"{#	c #84725C",
"]#	c #745B3D",
"^#	c #9D7646",
"/#	c #DFCCB5",
"(#	c #D3D4DD",
"_#	c #BDBEC8",
":#	c #C0C0C9",
"<#	c #5D5D63",
"[#	c #9999A0",
"}#	c #7F7F85",
"|#	c #373737",
"1#	c #57585C",
"2#	c #D7DAE3",
"3#	c #DADDE6",
"4#	c #69696E",
"5#	c #83848A",
"6#	c #D9DAE5",
"7#	c #D5D6E1",
"8#	c #CFD2DD",
"9#	c #DBD9DD",
"0#	c #B7AEAB",
"a#	c #A29282",
"b#	c #A6896B",
"c#	c #AC875E",
"d#	c #B38D5F",
"e#	c #C19C71",
"f#	c #D4B795",
"g#	c #EEDECC",
"h#	c #EBECF2",
"i#	c #C2C4CD",
"j#	c #BDBDC7",
"k#	c #BCBDC6",
"l#	c #56575A",
"m#	c #86888D",
"n#	c #BABAC3",
"o#	c #B0B0B8",
"p#	c #75757A",
"q#	c #121213",
"r#	c #1F2022",
"s#	c #D0D1DB",
"t#	c #D1D2DC",
"u#	c #CECFD9",
"v#	c #D2D3DD",
"w#	c #D6D8E2",
"x#	c #77787E",
"y#	c #56575B",
"z#	c #CBCCD5",
"A#	c #D4D5DF",
"B#	c #CED0DA",
"C#	c #DBDBE4",
"D#	c #ECE9F0",
"E#	c #F8F6FB",
"F#	c #FBFEFF",
"G#	c #F8FAFF",
"H#	c #ECEEF4",
"I#	c #D8D9E1",
"J#	c #C0C1CB",
"K#	c #A8A9B0",
"L#	c #3F3F43",
"M#	c #8E8F95",
"N#	c #B8B8C0",
"O#	c #B2B2BB",
"P#	c #B0B0B9",
"Q#	c #94949B",
"R#	c #ADAEB5",
"S#	c #D1D2DD",
"T#	c #C9C9D3",
"U#	c #CACAD4",
"V#	c #CACBD5",
"W#	c #D0D2DC",
"X#	c #DCDDE8",
"Y#	c #818288",
"Z#	c #242426",
"`#	c #7E8085",
" $	c #CACBD6",
".$	c #D1D2DB",
"+$	c #CACCD5",
"@$	c #C2C2CD",
"#$	c #BFC0CA",
"$$	c #BFC0C9",
"%$	c #C1C2CC",
"&$	c #C4C5CE",
"*$	c #B4B4BD",
"=$	c #626267",
"-$	c #0F0F11",
";$	c #9A9CA2",
">$	c #BEBEC7",
",$	c #B3B3BB",
"'$	c #ADADB5",
")$	c #AAAAB2",
"!$	c #A8A8B0",
"~$	c #616166",
"{$	c #55565A",
"]$	c #CDCFD9",
"^$	c #C8C7D1",
"/$	c #C6C7D0",
"($	c #CFD0DB",
"_$	c #6D6E73",
":$	c #0C0C0C",
"<$	c #4D4E52",
"[$	c #7C7E83",
"}$	c #9C9CA4",
"|$	c #AFAFB8",
"1$	c #B3B4BC",
"2$	c #A9ABB3",
"3$	c #95969D",
"4$	c #75767B",
"5$	c #3E3E42",
"6$	c #0A090A",
"7$	c #010202",
"8$	c #0B0B0C",
"9$	c #7B7B80",
"0$	c #B7B7BF",
"a$	c #A7A7AF",
"b$	c #A3A3AC",
"c$	c #2A2A2C",
"d$	c #525357",
"e$	c #CCCDD6",
"f$	c #CDCDD7",
"g$	c #ACADB5",
"h$	c #272728",
"i$	c #6C6D72",
"j$	c #69696F",
"k$	c #5A5A60",
"l$	c #555559",
"m$	c #5B5B60",
"n$	c #717178",
"o$	c #4E4E51",
"p$	c #3B3B3E",
"q$	c #A4A4AD",
"r$	c #ACACB4",
"s$	c #A2A2AB",
"t$	c #6E6E73",
"u$	c #83838A",
"v$	c #C5C7CF",
"w$	c #BFBFC7",
"x$	c #BEBEC6",
"y$	c #C3C4CB",
"z$	c #57575B",
"A$	c #0A0A0A",
"B$	c #76767D",
"C$	c #2B2C2E",
"D$	c #5B5B5F",
"E$	c #BEBDC6",
"F$	c #B4B4BC",
"G$	c #B1B1B9",
"H$	c #323235",
"I$	c #37373A",
"J$	c #AFAFB7",
"K$	c #AEAEB6",
"L$	c #B9B9C2",
"M$	c #060607",
"N$	c #AAAAB3",
"O$	c #A9A9B1",
"P$	c #9F9FA7",
"Q$	c #A4A4AC",
"R$	c #84848A",
"S$	c #1D1D1E",
"T$	c #252527",
"U$	c #252526",
"V$	c #181819",
"                                                                                                ",
"                                                                                                ",
"                                                                                                ",
"                                            . . . + @                   .                       ",
"                                      # $ % & * = = -                 ; > , ' ) !               ",
"                                      ~ = = = = = = {                 ' = = = = = ] ^ / (       ",
"                                      _ = = = = = = {               ) = = = = = = = = : <       ",
"                                      _ = = = = = = [             } = = = = = = = = [ |         ",
"                      1               _ = = = = = = [           . [ = = = = = = = 2 @           ",
"                    3 = 4 ;           5 = = = = = = 6 ;       ; 7 = = = = = = = = 8             ",
"                ; 9 = = = 0 a     ; b c = = = = = = d e (     f = = = = = = = = g               ",
"                h = = = = = i j k l m n = = = = = = & o p q r = = = = = = = = 7 ;               ",
"                s = = = = = = t u = = v = = = = = = w x = y z = = = = = = = ] ;                 ",
"                ; A = = = B C D = = E F = = = = = = G H I J = = = = = = = K L                   ",
"                  ; M = N O = = P Q R S = = = = = = T U V = = = = = = = = W                     ",
"                    X = Y = = Z `  ...+.= = = = = = @.#.= = = = = = = = $.                      ",
"                    ; %.&.= *.=.-.;.>.,.= = = = = = '.).= = = = = = = ' ;                       ",
"                    !.~.= 2 {.].= ^./.(.= = = = = = = = = = = = = = _.:.;                       ",
"                    <.2 = [.}.= = ^.|.1.= = = = = = = = = = = = = = 2.3.4.                      ",
"                  ; 5.= 6.7.8.9./.0.9.a.= = = = = = b.c.= = = = = = = d.e.                      ",
"            ; f.g.h.i.= j.k.l.m.n.o.p.q.= = = = = = r.s.= = = = = = = = t.u.v.; ;               ",
"      w.x.y.K = = z.A.= B.C.D.E.F.G.H.I.= = = = = = J.K.L.= = = = = = = M.N.O.P.Q.R.S.          ",
"      :.= = = = = T.U.= V.W.X.Y.Z.`. +.+= = = = = = ++@+#+$+= = = = = = = %+&+*+=+-+;+          ",
"      >+= ,+'+= = )+= = !+~+{+]+^+/+(+_+= = = = = = :+<+[+}+= = = = = = = = |+1+2+3+4+          ",
"      5+= 6+,+7+= 8+9+= 0+a+b+c+d+e+f+g+= = = = = = M h+i+j+k+= = = = = = = = l+m+n+o+;         ",
"      p+q+= = = = r+s+= t+u+v+w+x+y+z+A+= = = = = = B+C+D+E+F+G+= = = = = = = H+I+J+K+;         ",
"        ; | L+M+N+O+P+= Q+R+S+T+U+V+W+X+= = = = = = Y+Z+`+ @.@+@@@= = = = = = = #@; ;           ",
"                ; ; $@= %@&@*@=@-@-@;@>@= = = = = = M ,@'@)@!@~@{@= = = = = = = = ]@            ",
"                  ; ^@/@(@_@:@<@[@}@|@1@= = = = = = 2@3@4@5@6@7@8@9@= = = = = = = = 0@          ",
"                    w.a@b@c@d@e@f@g@h@i@= = = = = = M j@k@l@m@n@o@p@q@= = = = = = = w ;         ",
"                    ; r@s@t@u@v@w@x@y@z@= = = = = = :+A@B@m@C@D@E@F@G@= = = = = = = = H@        ",
"                    I@J@K@L@M@N@O@P@Q@R@= = = = = = S@T@U@V@W@X@Y@Z@`@ #= = = = = .#+#/ .       ",
"                  ; @###$#%#&#*#=#-#;#>#,#'#)#!#~#{#]#^#/#= (#_#:#<#[#}#M = % h |#;             ",
"                  1#&#2#3#4#5#6#7#8#9#0#a#b#c#d#e#f#g#= h#i#j#k#l#m#n#o#p#q#;                   ",
"                r#s#t#u#v#w#x#y#z#A#B#B#C#D#E#F#G#H#I#J#j#=+K#L#M#N#O#o#P#Q#;                   ",
"              ; R#S#T#U#V#W#X#Y#Z#`# $.$+$u@@$#$Y@$$%$&$*$=$-$;$>$,$'$)$!$o#~$                  ",
"                {$]$^$/$ $($_$; ; . :$<$[$}$|$1$2$3$4$5$6$7$; 8$9$0$'$a$a$b$c$                  ",
"                  d$e$f$g$h$;       ; ; i$j$k$l$m$n$o$;         ; p$q$r$s$<.                    ",
"                    l#t$;               u$v$:#w$x$y$z$            ; A$B$C$                      ",
"                      ;                 D$E$F$,$G$J+H$                ;                         ",
"                                        I$J+J$K$K$L$M$                                          ",
"                                        M$L$N$O$)$P$;                                           ",
"                                        ; Q$,$|$G$R$                                            ",
"                                          S$T$U$U$V$                                            ",
"                                                                                                ",
"                                                                                                ",
"                                                                                                ",
"                                                                                                "};
