/* XPM */
static char * java_16x16_xpm[] = {
"16 16 103 2",
"  	c None",
". 	c #FFFFFF",
"+ 	c #F1948D",
"@ 	c #F6B8B4",
"# 	c #F4A8A2",
"$ 	c #FFFEFD",
"% 	c #F3A6A0",
"& 	c #ED786F",
"* 	c #FEF5F5",
"= 	c #F8CAC7",
"- 	c #FDF0EF",
"; 	c #FFFDFD",
"> 	c #EF827A",
", 	c #EF867E",
"' 	c #F8CAC6",
") 	c #F08981",
"! 	c #FDEDEB",
"~ 	c #F4ADA7",
"{ 	c #ED7167",
"] 	c #FCE8E6",
"^ 	c #EA5D52",
"/ 	c #FEF9F8",
"( 	c #F29C95",
"_ 	c #F5B1AB",
": 	c #F8C6C2",
"< 	c #E95449",
"[ 	c #FEFBFB",
"} 	c #FDEFEE",
"| 	c #F08A83",
"1 	c #FEF5F4",
"2 	c #E7493D",
"3 	c #F3A49E",
"4 	c #FBDCDA",
"5 	c #F9D0CD",
"6 	c #F6B9B5",
"7 	c #F1938B",
"8 	c #FCFCFE",
"9 	c #C7C4E9",
"0 	c #C9C6EA",
"a 	c #ECEBF7",
"b 	c #FEF9F9",
"c 	c #F9D2CF",
"d 	c #FBF2F4",
"e 	c #F2F1FA",
"f 	c #EFEEF9",
"g 	c #C6C2E9",
"h 	c #ABA6DF",
"i 	c #F5F4FB",
"j 	c #B1ACE1",
"k 	c #B4AFE2",
"l 	c #B6B1E3",
"m 	c #BEBAE6",
"n 	c #DAD8F1",
"o 	c #FEFDFE",
"p 	c #8780D1",
"q 	c #AAA4DE",
"r 	c #D7D5F0",
"s 	c #E8E7F6",
"t 	c #E9E8F6",
"u 	c #DBD9F1",
"v 	c #C3BFE8",
"w 	c #EBEAF7",
"x 	c #FAFAFD",
"y 	c #B2ADE1",
"z 	c #D5D2EF",
"A 	c #E5E3F5",
"B 	c #B8B4E4",
"C 	c #A9A3DE",
"D 	c #A8A3DE",
"E 	c #B5B1E3",
"F 	c #CECBEC",
"G 	c #E6E4F5",
"H 	c #F7F7FC",
"I 	c #8D87D3",
"J 	c #B7B2E3",
"K 	c #A8A3DD",
"L 	c #A39EDC",
"M 	c #BAB5E4",
"N 	c #D8D6F0",
"O 	c #E3E1F4",
"P 	c #C2BEE7",
"Q 	c #BCB8E5",
"R 	c #C8C5EA",
"S 	c #FEFEFF",
"T 	c #EAE8F7",
"U 	c #F3F2FA",
"V 	c #D0CEED",
"W 	c #928BD5",
"X 	c #A59FDC",
"Y 	c #AFAAE0",
"Z 	c #B5B0E2",
"` 	c #B6B2E3",
" .	c #BBB7E5",
"..	c #C4C1E8",
"+.	c #D0CDED",
"@.	c #F9F9FD",
"#.	c #CCC9EB",
"$.	c #C3C0E8",
"%.	c #C1BEE7",
"&.	c #C0BCE7",
"*.	c #BCB7E5",
"=.	c #CBC8EB",
"-.	c #F9F8FD",
". . . . . . . . . + . . . . . . ",
". . . . . . . . @ # . . . . . . ",
". . . . . . $ % & * = - . . . . ",
". . . . . ; > , ' ) ! . . . . . ",
". . . . . ~ { ] ^ / . . . . . . ",
". . . . . ( _ : < [ . . . . . . ",
". . . . . } | 1 2 3 . . . . . . ",
". . . . . . 4 5 6 7 . . . . . . ",
". . 8 9 0 a . b c d e f g h . . ",
". . i h h j k j l m n o 8 p . . ",
". . . . q r s t u v w x y z . . ",
". . . . A B C D E F e G H . . . ",
". . . . u I y J K L i . . . . . ",
". f M N 8 O P Q R s S . T U . . ",
". V W X Y Z ` ` J E  ...9 +.. . ",
". . . @.N #.$.%.P &.&.*.=.-.. . "};
