/* XPM */
static char * k3b_32x32_xpm[] = {
"32 32 86 1",
" 	c None",
".	c #BC0033",
"+	c #BD0335",
"@	c #C1113F",
"#	c #C31542",
"$	c #BC0234",
"%	c #C21645",
"&	c #C11342",
"*	c #C51C47",
"=	c #F29DA7",
"-	c #FFC2C2",
";	c #C31643",
">	c #E294A9",
",	c #D04E71",
"'	c #C9325B",
")	c #E8AABB",
"!	c #F0C6D2",
"~	c #FFFFFF",
"{	c #DA718E",
"]	c #BF0D3D",
"^	c #D45E7E",
"/	c #FBF2F4",
"(	c #FCF6F7",
"_	c #EAB0BF",
":	c #BF0C3D",
"<	c #E291A7",
"[	c #FBEFF2",
"}	c #F1CCD6",
"|	c #D14F72",
"1	c #CD4267",
"2	c #F0C6D1",
"3	c #F1C9D4",
"4	c #CF4B6F",
"5	c #E18DA4",
"6	c #FCF2F5",
"7	c #F8E6EB",
"8	c #D35879",
"9	c #D66483",
"0	c #F7DFE6",
"a	c #FDF9FA",
"b	c #E9ADBD",
"c	c #C62651",
"d	c #CC3F65",
"e	c #F2D0D9",
"f	c #FEFCFC",
"g	c #D55E7E",
"h	c #BE0638",
"i	c #C72C56",
"j	c #E7A4B6",
"k	c #E49AAE",
"l	c #DE849D",
"m	c #E9AABB",
"n	c #E77D8F",
"o	c #F19BA5",
"p	c #C21240",
"q	c #BD0436",
"r	c #C51946",
"s	c #CD4268",
"t	c #D25577",
"u	c #BE093B",
"v	c #CB3960",
"w	c #D04C6F",
"x	c #C31C4A",
"y	c #D9718E",
"z	c #F4D6DE",
"A	c #D9718D",
"B	c #E8A7B8",
"C	c #E18EA4",
"D	c #E08AA1",
"E	c #DD7E97",
"F	c #DC7B95",
"G	c #FAECF0",
"H	c #D56181",
"I	c #E6A0B3",
"J	c #EDBDCA",
"K	c #C21947",
"L	c #DF879F",
"M	c #CF486D",
"N	c #EEC0CC",
"O	c #FAECEF",
"P	c #EEBDCA",
"Q	c #EAB0C0",
"R	c #C31C49",
"S	c #F5D9E1",
"T	c #F3D3DB",
"U	c #CA355E",
"................................",
"..................+@##########$.",
"..%+...........&..*=----------;.",
"..>,..........')..*=----------;.",
"..!~{&......]^/~..*=----------;.",
"..!~(_:....:<[~~..*=----------;.",
"..')~~}|..12~~34..*=----------;.",
"...&56~7890~abc...*=----------;.",
".....def~~~0gh....*=----------;.",
"......ij~~21......*=----------;.",
"..k!!!!!~~!!!!!!..*=----------;.",
"..!~~~~~~~~~~~~~..*=----------;.",
"..lmmmmmmmmmmmmm..;noooooooooop.",
"..................q#rrrrrrrrrr+.",
"..stsu..ttv..&ttc..cttttwi......",
"..!~!x..~~m..v~~y..y~~~~(zA:....",
"..!~!x..~~m..v~~y..y~~~~~~~5....",
"..!~!x..~~m..v~~y..y~~BCB6~6:...",
"..!~!x..~~m..v~~y..y~~v..D~~v...",
"..!~!x..~~m..v~~y..y~~v..E~~v...",
"..!~!x..~~m..v~~y..y~~Ft>G~0....",
"..!~!x..~~m..v~~y..y~~~~~~7t....",
"..!~!x..~~m..v~~y..y~~~~~~~7d...",
"..!~!x..~~m..v~~y..y~~FtHI~~JK..",
"..!~!x..~~m..v~~y..y~~v...L~6M..",
"..!~!x..~~m..v~~y..y~~v...t~~t..",
"..!~!x..~~m..v~~y..y~~v.hcN~O1..",
"..!~!x..~~m..v~~y..y~~PmQe~~2R..",
"..!~!x..~~m..v~~y..y~~~~~~~Sc...",
"..!~!x..~~m..v~~y..y~~~~aT5U....",
"................................",
"................................"};
