/* XPM */
static char * midi_48x48_xpm[] = {
"48 48 2 1",
" 	g None",
".	g #121212",
"                                                ",
"                                                ",
"                                                ",
"                                                ",
"                                                ",
"                                                ",
"                                                ",
"                            .                   ",
"                            .                   ",
"               ....        ..                   ",
"             .......      ...                   ",
"             .   ...      ...  .                ",
"             . .  ..     ......  ....     ..    ",
" ..     .... .    ..     .....      .... ...    ",
"                  ..    .. ...           . .    ",
"                . .. .. .  ...          .. .    ",
"              .   ..       ..           .. . .  ",
"            . .   .       .. ....       .. . ...",
" .........     .  .       ..     ...   ..  .    ",
"               . .                  .  ..  .    ",
"               ..                      ... .    ",
"               ..   ........          .... .    ",
"              ...             ..      ..  ..    ",
"           .                    ..    ..   .. . ",
"  .     ...  .   .                ..  ..   ..  .",
"  ......    .   ........              .    ..   ",
"            .  ....    .              .    ..   ",
"            .  ...     . ...          . .  ..   ",
"            .   . . .  .    .         .  .  .   ",
"            .     .    .              .    .    ",
"          . ..     .  ..    ........  .      .  ",
"   ........  .     . ..     ....    ...       ..",
"              .......      .... .     .         ",
"                    .      .......    .         ",
"                    .      .........  .  ..     ",
"               .... .  ..  .... .  .. .   ..    ",
"             ..      .  .  . ......   .     ..  ",
"           ..        .      ......    .      .  ",
"                ..   .       .. ..   ..         ",
"                ..  ..         ......           ",
"                .....                           ",
"                 ..                   .         ",
"                                        ...     ",
"                                          ..    ",
"                                                ",
"                                                ",
"                                                ",
"                                                "};
