/* XPM */
static char * opera_32x32_xpm[] = {
"32 32 84 1",
" 	c None",
".	c #F12C4D",
"+	c #F01C3E",
"@	c #EF072D",
"#	c #EF0A30",
"$	c #F0193C",
"%	c #F0163A",
"&	c #F01539",
"*	c #EF0B31",
"=	c #F23453",
"-	c #F01035",
";	c #EF0E33",
">	c #F0173B",
",	c #F23150",
"'	c #F23C5A",
")	c #EF0C32",
"!	c #F01438",
"~	c #F12A4A",
"{	c #F01B3E",
"]	c #EF092E",
"^	c #F01639",
"/	c #F01A3D",
"(	c #F34561",
"_	c #F23050",
":	c #F0173A",
"<	c #EF092F",
"[	c #F33F5D",
"}	c #F33E5C",
"|	c #F34662",
"1	c #F03856",
"2	c #878787",
"3	c #969696",
"4	c #E44761",
"5	c #C04B5E",
"6	c #949494",
"7	c #9C9C9C",
"8	c #8B8B8B",
"9	c #C14F62",
"0	c #8A8A8A",
"a	c #919191",
"b	c #F14B67",
"c	c #8E8E8E",
"d	c #8C8C8C",
"e	c #979797",
"f	c #959595",
"g	c #888888",
"h	c #EF082E",
"i	c #A1A1A1",
"j	c #CB5265",
"k	c #F01034",
"l	c #A2A2A2",
"m	c #989898",
"n	c #F23957",
"o	c #F12D4D",
"p	c #C63A50",
"q	c #8A8384",
"r	c #CF2E48",
"s	c #F22C4C",
"t	c #F02042",
"u	c #898989",
"v	c #927A7E",
"w	c #D72442",
"x	c #909090",
"y	c #A16771",
"z	c #E61235",
"A	c #F12647",
"B	c #F04763",
"C	c #BD4558",
"D	c #F12B4B",
"E	c #A58A8E",
"F	c #E63754",
"G	c #EF1034",
"H	c #E71134",
"I	c #F12547",
"J	c #999999",
"K	c #8E8B8C",
"L	c #C64E61",
"M	c #E61234",
"N	c #9E9E9E",
"O	c #8F8F8F",
"P	c #8B8384",
"Q	c #A16770",
"R	c #C33D53",
"S	c #F23655",
"                                ",
"                                ",
"                                ",
"               .+@@@@@@#$%      ",
"              &@*=      *@-     ",
"             ;@@>       ,@@;    ",
"            &@@@'        )@@!   ",
"           ~@@@@         {@@@$  ",
"           !@@@]         &@@@@  ",
"          '@@@@@         ^@@@@/ ",
"          &@@@@(         _@@@@: ",
"          @@@@@(         _@@@@< ",
"          @@@@@(          @@@@@[",
"          @@@@@}          @@@@@|",
"         1@@@@@           @@@@@(",
"      23 4@@@@@56         @@@@@(",
"  7822    @@@@@9022a      @@@@@(",
" a2222    @@@@@b c222de   @@@@@}",
"722222    @@@@@(  f0222g  @@@@h ",
"6222223   #@@@@(   i22220j@@@@k ",
"l222222m  n@@@@o    l0222p@@@@{ ",
" c22222g   *@@@;     l22qr@@@@s ",
"  c222220e t@@@@      3uvw@@@-  ",
"   x222220  @@@@       dyz@@@A  ",
"    3822220fB#@@:       C@@@D   ",
"      m2222gEF@@G       H@@I    ",
"        Jxd22KLM@G     $@;~     ",
"            NOPQRH;/%%&#S       ",
"                                ",
"                                ",
"                                ",
"                                "};
