/* XPM */
static char * opera_48x48_xpm[] = {
"48 48 45 1",
" 	c None",
".	c #F33E5C",
"+	c #EF072D",
"@	c #EF0E33",
"#	c #F78396",
"$	c #F01C3E",
"%	c #F1294A",
"&	c #F4536D",
"*	c #F23756",
"=	c #F6758A",
"-	c #F23050",
";	c #F45A73",
">	c #EE2D4D",
",	c #BCBCBC",
"'	c #9B9B9B",
")	c #878787",
"!	c #989898",
"~	c #C3C3C3",
"{	c #E82646",
"]	c #987278",
"^	c #919191",
"/	c #AFAFAF",
"(	c #9E9E9E",
"_	c #A2A2A2",
":	c #ACACAC",
"<	c #B6B6B6",
"[	c #8A8A8A",
"}	c #B2B2B2",
"|	c #E1203F",
"1	c #E11939",
"2	c #95757A",
"3	c #9E6B73",
"4	c #BB475A",
"5	c #F56179",
"6	c #907C7F",
"7	c #F5677F",
"8	c #CC324B",
"9	c #B5AFB0",
"0	c #979192",
"a	c #DE5067",
"b	c #A7606B",
"c	c #EC0B2F",
"d	c #BFB9BA",
"e	c #D4AEB4",
"f	c #DAA7AF",
"                                                ",
"                                                ",
"                                                ",
"                                                ",
"                         .+++++++++@.           ",
"                      #@+++$     #@+++@         ",
"                     %++++&        %++++*       ",
"                    @++++*          $++++%      ",
"                   @+++++            +++++%     ",
"                  %+++++%            @+++++&    ",
"                 #++++++=            -++++++    ",
"                 +++++++             #++++++@   ",
"                ;+++++++              +++++++#  ",
"                +++++++@              +++++++$  ",
"                +++++++-              $+++++++  ",
"               %+++++++#              -+++++++; ",
"               ++++++++#              -+++++++$ ",
"               ++++++++#              -++++++++ ",
"              #++++++++#              =++++++++ ",
"              #++++++++#              #++++++++ ",
"              ;++++++++               #++++++++#",
"              -++++++++               #++++++++#",
"              >++++++++               #++++++++#",
"       ,'))!~~{++++++++]^'/           #++++++++#",
"    ())))^    .++++++++])))))_        #++++++++#",
"  :))))))     #++++++++ !)))))))_     #++++++++#",
" ^)))))))     #++++++++  ~))))))))/   #++++++++ ",
"<))))))))      ++++++++#   !)))))))[  #++++++++ ",
"'))))))))(     ++++++++#    })))))))) =+++++++@ ",
"')))))))))     @+++++++#     }))))))))|+++++++- ",
"~))))))))))    ;+++++++;      })))))))1+++++++# ",
" [)))))))))[    +++++++%       <))))))++++++++  ",
"  ))))))))))[   $+++++++        }))))2+++++++.  ",
"  <))))))))))!  #+++++++         ()))3+++++++   ",
"   <))))))))))!  $++++++          !))4++++++*   ",
"     [)))))))))!  ++++++=          ))1++++++    ",
"      !)))))))))! 5+++++@          ~6++++++7    ",
"        [))))))))[ %+++++           8+++++5     ",
"         ~)))))))))9%++++@          +++++5      ",
"            _)))))))0a++++$        @++++#       ",
"               _))))))bc++++#    7++++%         ",
"                  ~'^)))38+++++++++@;           ",
"                         ~def#=##               ",
"                                                ",
"                                                ",
"                                                ",
"                                                ",
"                                                "};
