/* XPM */
static char * remote_48x48_xpm[] = {
"48 48 302 2",
"  	c None",
". 	c #000000",
"+ 	c #030303",
"@ 	c #050505",
"# 	c #272727",
"$ 	c #6A6A6A",
"% 	c #A5A5A5",
"& 	c #CCCCCC",
"* 	c #E9E9E9",
"= 	c #F3F3F3",
"- 	c #F4F4F4",
"; 	c #EEEEEE",
"> 	c #D7D7D7",
", 	c #B2B2B2",
"' 	c #7E7E7E",
") 	c #3D3D3D",
"! 	c #060606",
"~ 	c #090909",
"{ 	c #636363",
"] 	c #C7C7C7",
"^ 	c #F6F6F6",
"/ 	c #F1F1F1",
"( 	c #EDEDED",
"_ 	c #ECECEC",
": 	c #EBEBEB",
"< 	c #EFEFEF",
"[ 	c #F2F2F2",
"} 	c #DEDEDE",
"| 	c #858585",
"1 	c #1C1C1C",
"2 	c #020202",
"3 	c #595959",
"4 	c #DBDBDB",
"5 	c #F5F5F5",
"6 	c #F0F0F0",
"7 	c #E7E7E7",
"8 	c #E4E4E4",
"9 	c #E1E1E1",
"0 	c #DFDFDF",
"a 	c #E0E0E0",
"b 	c #E2E2E2",
"c 	c #E5E5E5",
"d 	c #888888",
"e 	c #0F0F0F",
"f 	c #181818",
"g 	c #B4B4B4",
"h 	c #E3E3E3",
"i 	c #DADADA",
"j 	c #D6D6D6",
"k 	c #D4D4D4",
"l 	c #D2D2D2",
"m 	c #D1D1D1",
"n 	c #D0D0D0",
"o 	c #D3D3D3",
"p 	c #D5D5D5",
"q 	c #D8D8D8",
"r 	c #DCDCDC",
"s 	c #E6E6E6",
"t 	c #3F3F3F",
"u 	c #333333",
"v 	c #DDDDDD",
"w 	c #CDCDCD",
"x 	c #C9C9C9",
"y 	c #C6C6C6",
"z 	c #C4C4C4",
"A 	c #C3C3C3",
"B 	c #C5C5C5",
"C 	c #C8C8C8",
"D 	c #CBCBCB",
"E 	c #CFCFCF",
"F 	c #6D6D6D",
"G 	c #010101",
"H 	c #E8E8E8",
"I 	c #C0C0C0",
"J 	c #BCBCBC",
"K 	c #B9B9B9",
"L 	c #B7B7B7",
"M 	c #B6B6B6",
"N 	c #B5B5B5",
"O 	c #B8B8B8",
"P 	c #BBBBBB",
"Q 	c #BEBEBE",
"R 	c #CECECE",
"S 	c #808080",
"T 	c #303030",
"U 	c #EAEAEA",
"V 	c #BFBFBF",
"W 	c #AFAFAF",
"X 	c #ABABAB",
"Y 	c #9A9A9A",
"Z 	c #8F8F8F",
"` 	c #929292",
" .	c #A1A1A1",
"..	c #ADADAD",
"+.	c #B1B1B1",
"@.	c #C2C2C2",
"#.	c #D9D9D9",
"$.	c #717171",
"%.	c #121212",
"&.	c #CACACA",
"*.	c #BABABA",
"=.	c #B3B3B3",
"-.	c #A4A4A4",
";.	c #676767",
">.	c #2F2F2F",
",.	c #171717",
"'.	c #444444",
").	c #828282",
"!.	c #A9A9A9",
"~.	c #B0B0B0",
"{.	c #454545",
"].	c #0E0E0E",
"^.	c #2C2C2C",
"/.	c #898989",
"(.	c #141414",
"_.	c #464646",
":.	c #C1C1C1",
"<.	c #A0A0A0",
"[.	c #2E2E2E",
"}.	c #626262",
"|.	c #939393",
"1.	c #9F9F9F",
"2.	c #1D1D1D",
"3.	c #555555",
"4.	c #A8A8A8",
"5.	c #BDBDBD",
"6.	c #262626",
"7.	c #686868",
"8.	c #7B7B7B",
"9.	c #797979",
"0.	c #787878",
"a.	c #919191",
"b.	c #AEAEAE",
"c.	c #0C0C0C",
"d.	c #0B0B0B",
"e.	c #9C9C9C",
"f.	c #797877",
"g.	c #9B968B",
"h.	c #B4AB99",
"i.	c #B3A996",
"j.	c #9A9384",
"k.	c #747372",
"l.	c #747474",
"m.	c #4F4F4F",
"n.	c #404040",
"o.	c #515151",
"p.	c #8D8983",
"q.	c #E2D6BD",
"r.	c #F5E9D0",
"s.	c #F5E8CF",
"t.	c #F4E5C7",
"u.	c #F1DFBA",
"v.	c #DFCBA4",
"w.	c #8A8377",
"x.	c #040404",
"y.	c #8E8E8E",
"z.	c #757575",
"A.	c #151515",
"B.	c #7C7C7C",
"C.	c #85827D",
"D.	c #ECDEC3",
"E.	c #F7ECD8",
"F.	c #F9F1E2",
"G.	c #F7ECD6",
"H.	c #F3E4C6",
"I.	c #F0DCB4",
"J.	c #E7CF9F",
"K.	c #807A70",
"L.	c #5C5C5C",
"M.	c #9B9B9B",
"N.	c #989898",
"O.	c #777777",
"P.	c #C8BCA4",
"Q.	c #F5E8CE",
"R.	c #F9F1E1",
"S.	c #FCF9F2",
"T.	c #FCF8F1",
"U.	c #F8F0DF",
"V.	c #F5E7CC",
"W.	c #F1DEB8",
"X.	c #EDD5A5",
"Y.	c #C6B086",
"Z.	c #6B6B6B",
"`.	c #7A7A7A",
" +	c #777674",
".+	c #EDDBB7",
"++	c #FBF7EE",
"@+	c #FBF6ED",
"#+	c #F8EFDD",
"$+	c #F4E6CA",
"%+	c #F1DDB7",
"&+	c #EDD4A4",
"*+	c #E8CA90",
"=+	c #6F6C67",
"-+	c #191919",
";+	c #A6A6A6",
">+	c #6C6C6C",
",+	c #7D7D7D",
"'+	c #807D77",
")+	c #F0DBB3",
"!+	c #F3E3C4",
"~+	c #F6EAD3",
"{+	c #F8EEDC",
"]+	c #F8EEDB",
"^+	c #F6E9D1",
"/+	c #F3E2C2",
"(+	c #EFDBB1",
"_+	c #ECD29F",
":+	c #E8C98C",
"<+	c #7B7568",
"[+	c #6F6F6F",
"}+	c #1A1A1A",
"|+	c #777673",
"1+	c #EDD6A8",
"2+	c #F3E3C3",
"3+	c #F4E6C9",
"4+	c #F4E5C9",
"5+	c #F0DDB6",
"6+	c #EED6A7",
"7+	c #EACE97",
"8+	c #E7C685",
"9+	c #716D65",
"0+	c #737373",
"a+	c #CEBA91",
"b+	c #EED6A8",
"c+	c #EFDAB1",
"d+	c #F0DCB5",
"e+	c #EFDAB0",
"f+	c #EDD6A6",
"g+	c #EBD09A",
"h+	c #E8C98B",
"i+	c #CDB077",
"j+	c #666666",
"k+	c #959595",
"l+	c #999999",
"m+	c #767676",
"n+	c #8C8475",
"o+	c #E9CD96",
"p+	c #ECD29E",
"q+	c #EDD4A2",
"r+	c #EDD3A2",
"s+	c #ECD19E",
"t+	c #EACE96",
"u+	c #E5C37E",
"v+	c #887D67",
"w+	c #6E6E6E",
"x+	c #161616",
"y+	c #998D75",
"z+	c #E4C68A",
"A+	c #E9CA8E",
"B+	c #E7C684",
"C+	c #E2BF7A",
"D+	c #988869",
"E+	c #696969",
"F+	c #5D5D5D",
"G+	c #363636",
"H+	c #525252",
"I+	c #373737",
"J+	c #727272",
"K+	c #7B766D",
"L+	c #AA9873",
"M+	c #C3A976",
"N+	c #C3A874",
"O+	c #A9956D",
"P+	c #787266",
"Q+	c #949494",
"R+	c #070707",
"S+	c #8B8B8B",
"T+	c #707070",
"U+	c #3E3E3E",
"V+	c #434343",
"W+	c #979797",
"X+	c #575757",
"Y+	c #818181",
"Z+	c #0A0A0A",
"`+	c #ACACAC",
" @	c #292929",
".@	c #AAAAAA",
"+@	c #838383",
"@@	c #1F1F1F",
"#@	c #585858",
"$@	c #323232",
"%@	c #656565",
"&@	c #8A8A8A",
"*@	c #1E1E1E",
"=@	c #080808",
"-@	c #343434",
";@	c #494949",
">@	c #383838",
",@	c #4E4E4E",
"'@	c #3B3B3B",
")@	c #535353",
"!@	c #4B4B4B",
"~@	c #9E9E9E",
"{@	c #5E5E5E",
"]@	c #242424",
"^@	c #646464",
"/@	c #414141",
"(@	c #606060",
"_@	c #4D4D4D",
":@	c #484848",
"<@	c #424242",
"                                                                                                ",
"                                        . . . + @ . . .                                         ",
"                                . . # $ % & * = - ; > , ' ) ! .                                 ",
"                            . ~ { ] ^ - / ; ( _ : _ ( < [ ^ } | 1 .                             ",
"                          2 3 4 5 6 : 7 8 9 0 } } 0 a b c * ( [ ( d e                           ",
"                      . f g ^ < * h } i j k l m n m o p q r 9 s _ = 4 t .                       ",
"                    . u a = : 8 v > l w x y z A A z B C D E k i a 7 < [ F G                     ",
"                  . t : / H a q m D B I J K L M N M O P Q A C R p r 8 _ 5 S G                   ",
"                . T U 6 7 } p w y V K g W X Y Z `  .X ..+.M J @.x m #.b : 5 $..                 ",
"                %.#./ 7 v o &.@.*.=.-.;.>.~ . . . G ,.'.).!.~.L Q y E q b _ = {.                ",
"              G -.= * } k &.I L ..{ ]..               . G ^./.X =.J B E #.h ; 0 (.              ",
"            . _.5 _ 9 j D :.L <.[..                         ! }.!., J y n 4 s [ |..             ",
"            2 ] 6 c #.R A O 1.2..                             G 3.4.=.5.C k 0 : / 6.            ",
"          . {.^ U 0 l ] P X # .                                 G 7.X M :.w #.8 / |..           ",
"          . % / c #.& I g 3..               8.9.0.9.              ~ a.b.*.y o 0 : 7 c.          ",
"          d.( ( a o ] *.e.!             8.f.g.h.i.j.k.l.          . ) 4.g :.w i 7 = m.          ",
"          n.^ * r E @.N o..           8.p.q.r.s.t.u.v.w.$.          x.|.W J x j h 6 y.          ",
"        . z.= s #.D Q +.A.          B.C.D.E.F.F.G.H.I.J.K.$.        . L.X O B l 0 ( @..         ",
"        . M./ h j x J N..           O.P.Q.R.S.T.U.V.W.X.Y.Z.        . u 4.N @.n v U s G         ",
"        . g < b k ] *.`..            +.+V.U.++@+#+$+%+&+*+=+          -+;+=.I R 4 * = ].        ",
"        . @.< 9 k y K >+.         ,+'+)+!+~+{+]+^+/+(+_+:+<+[+        c.% , V w i H - }+        ",
"        . I < 9 k y K >+.           |+1+%+2+3+4+/+5+6+7+8+9+          c.% , V w i H = f         ",
"        . , < b k ] *.8..           0+a+b+c+5+d+e+f+g+h+i+j+          -+;+=.I R 4 * [ c.        ",
"        . k+/ h j x P l+.           m+n+o+p+q+r+s+t+h+u+v+Z.        . u 4.N @.n v U 9 .         ",
"        . w+= s #.D Q +.x+.           0+y+z+A+A+h+B+C+D+E+          . F+X O B l 0 ( J .         ",
"          G+^ * r E @.N H+.           I+J+K+L+M+N+O+P+$ I+          x.Q+W J x j h 6 |           ",
"          ! s ( a o ] *.e.R+.         . O.S+z.w+F T+z.'..         . U+4.g :.w i 7 = V+          ",
"          . W+/ c q & I g X+.         . Y+N 4.Y Z Y+' n..       . Z+` b.*.y l 0 : } R+          ",
"          . G+5 U } l ] P `+ @.       . Y+N .@1.` S ' n..       2 $ .@N :.w q 8 / +@.           ",
"            . M 6 c #.R A O <.@@.     . Y+N .@1.` S ' n.. . . G #@4.=.5.C o 0 : : -+            ",
"            . $@[ _ a p D I L  .T . . . Y+g .@1.` S ' n.. . ! %@!., P y n 4 s / B..             ",
"              . &@= H } o &.I L ..%@d.. Y+g .@1.` S ' n.. *@S+X =.J B E #.h ; R Z+              ",
"                =@B / 7 v o &.@.*.=.-@. Y+g .@1.` S ' n.. ;@~.M Q y E q b _ : [.                ",
"                . 2.i 6 s v p w B V >@. Y+g !.1.a.S ' n.. ,@J @.x m #.b : 6 o..                 ",
"                  . # i 6 H a q m &.'@. Y+g !.1.a.S ' n.. )@C R p r 8 _ 6 F+.                   ",
"                    . 2.C = : h v > t . Y+g !.1.a.S ' n.. 3 k i a 7 < s !@.                     ",
"                      . ~ a.[ < * h V+. Y+g !.~@a.S ' n.. {@a s _ [ :.]@.                       ",
"                          . >@Q - 6 _.. Y+g !.~@a.S ' n.. { ( [ 4 ^@x.                          ",
"                            . G t  ./@. Y+g !.~@a.S ' n.. ;.J (@~ .                             ",
"                                . . . . Y+g !.~@a.S ' t . + . .                                 ",
"                                    . . Y+g !.~@a.S ' t . .                                     ",
"                                    . . S =.!.~@a.S ' t . .                                     ",
"                                    . . S =.!.~@a.S ' t . .                                     ",
"                                    . . S =.!.~@a.S ' t . .                                     ",
"                                    . . S =.4.~@a.Y+' t . .                                     ",
"                                    . . U+X+H+_@:@<@) @@. .                                     ",
"                                    . . . . . . . . . . . .                                     ",
"                                                                                                "};
