/* XPM */
static char * scorched3d_48x48_xpm[] = {
"48 48 2151 2",
"  	c None",
". 	c #AC9B71",
"+ 	c #AC9A72",
"@ 	c #AE9874",
"# 	c #AF9B75",
"$ 	c #B0A076",
"% 	c #B2A678",
"& 	c #B2A779",
"* 	c #B4A476",
"= 	c #B5A276",
"- 	c #B6A176",
"; 	c #B8A178",
"> 	c #B8A279",
", 	c #B7A378",
"' 	c #B39F76",
") 	c #AE9A72",
"! 	c #A9966E",
"~ 	c #AA9670",
"{ 	c #AE9772",
"] 	c #B49D78",
"^ 	c #B9A47E",
"/ 	c #BEAA83",
"( 	c #C2B089",
"_ 	c #C3B28C",
": 	c #C2B28E",
"< 	c #BCB090",
"[ 	c #B8AE8C",
"} 	c #B4AB86",
"| 	c #B0A883",
"1 	c #ABA47E",
"2 	c #A6A078",
"3 	c #A09E75",
"4 	c #9E9C74",
"5 	c #9E9B74",
"6 	c #A09B76",
"7 	c #A49B78",
"8 	c #A79B79",
"9 	c #A99B79",
"0 	c #A89B78",
"a 	c #A79A75",
"b 	c #A79872",
"c 	c #A7976C",
"d 	c #A79668",
"e 	c #A99468",
"f 	c #A9946A",
"g 	c #AA966C",
"h 	c #AC986E",
"i 	c #AC9C72",
"j 	c #AC9B73",
"k 	c #AE9A74",
"l 	c #AF9C75",
"m 	c #AFA076",
"n 	c #B1A678",
"o 	c #B2A778",
"p 	c #B4A576",
"q 	c #B5A376",
"r 	c #B6A276",
"s 	c #B8A278",
"t 	c #B9A37A",
"u 	c #B8A47A",
"v 	c #B4A078",
"w 	c #AF9B73",
"x 	c #AB976F",
"y 	c #AA966F",
"z 	c #AB9670",
"A 	c #AD9772",
"B 	c #B39C77",
"C 	c #B8A27D",
"D 	c #BEA983",
"E 	c #C2AF88",
"F 	c #C2B18B",
"G 	c #C1B18E",
"H 	c #BCAF90",
"I 	c #B4AB87",
"J 	c #B0A783",
"K 	c #ACA37E",
"L 	c #A6A079",
"M 	c #A19E75",
"N 	c #9F9C74",
"O 	c #9F9A74",
"P 	c #A09A76",
"Q 	c #A39A77",
"R 	c #A69A78",
"S 	c #A79A78",
"T 	c #A69A77",
"U 	c #A69A75",
"V 	c #A69872",
"W 	c #A6976E",
"X 	c #A7966A",
"Y 	c #A8946A",
"Z 	c #A9956B",
"` 	c #AA976D",
" .	c #AC986F",
"..	c #AC9E78",
"+.	c #AC9E77",
"@.	c #AE9F76",
"#.	c #AFA276",
"$.	c #AFA676",
"%.	c #B0A776",
"&.	c #B4A776",
"*.	c #B6A576",
"=.	c #B8A476",
"-.	c #B9A478",
";.	c #BBA57C",
">.	c #BCA67E",
",.	c #B9A47C",
"'.	c #B69F78",
").	c #B29974",
"!.	c #AF9771",
"~.	c #AD9671",
"{.	c #AD9672",
"].	c #B19876",
"^.	c #B69E7B",
"/.	c #BCA481",
"(.	c #C0A986",
"_.	c #C0AD8A",
":.	c #C0AF8E",
"<.	c #BDAF90",
"[.	c #BAAE8E",
"}.	c #B6AB8B",
"|.	c #B2A686",
"1.	c #AEA080",
"2.	c #AA9C7B",
"3.	c #A39875",
"4.	c #A09774",
"5.	c #9F9876",
"6.	c #A09876",
"7.	c #A09874",
"8.	c #A29772",
"9.	c #A59670",
"0.	c #A79670",
"a.	c #A89772",
"b.	c #AA9875",
"c.	c #AC9A77",
"d.	c #AEA079",
"e.	c #B0A278",
"f.	c #B0A378",
"g.	c #B0A478",
"h.	c #AFA679",
"i.	c #AEA878",
"j.	c #AEA877",
"k.	c #B1A776",
"l.	c #B4A676",
"m.	c #B7A476",
"n.	c #B9A578",
"o.	c #BCA77C",
"p.	c #BEA87F",
"q.	c #BEA880",
"r.	c #BCA47E",
"s.	c #B9A07B",
"t.	c #B59B76",
"u.	c #B09874",
"v.	c #AE9773",
"w.	c #B09875",
"x.	c #B39B78",
"y.	c #B79F7C",
"z.	c #BCA582",
"A.	c #BEA987",
"B.	c #C0AC8C",
"C.	c #BFAC8E",
"D.	c #BCAB8E",
"E.	c #B8A98C",
"F.	c #B4A587",
"G.	c #B1A081",
"H.	c #AE9C7B",
"I.	c #A99978",
"J.	c #A59676",
"K.	c #A29574",
"L.	c #A09575",
"M.	c #9F9675",
"N.	c #9E9675",
"O.	c #9E9775",
"P.	c #A09775",
"Q.	c #A19775",
"R.	c #A29775",
"S.	c #A49875",
"T.	c #A69875",
"U.	c #A89876",
"V.	c #AB9A7A",
"W.	c #AD9B7C",
"X.	c #B0A179",
"Y.	c #B0A279",
"Z.	c #B2A479",
"`.	c #B2A67A",
" +	c #B2A77A",
".+	c #B0A87C",
"++	c #AEA87B",
"@+	c #ADA979",
"#+	c #AFA877",
"$+	c #B2A676",
"%+	c #B5A577",
"&+	c #B8A779",
"*+	c #BDA87D",
"=+	c #C1AA81",
"-+	c #C4AD86",
";+	c #C3AB86",
">+	c #C1A883",
",+	c #BCA27D",
"'+	c #B69D79",
")+	c #B19A76",
"!+	c #B09975",
"~+	c #B8A27E",
"{+	c #BDA684",
"]+	c #C0A98A",
"^+	c #C0A98C",
"/+	c #BDA98C",
"(+	c #BAA88B",
"_+	c #B6A587",
":+	c #B4A281",
"<+	c #B19E7C",
"[+	c #A79676",
"}+	c #A49374",
"|+	c #A29374",
"1+	c #A19374",
"2+	c #A09374",
"3+	c #A09574",
"4+	c #A39674",
"5+	c #A69674",
"6+	c #A89676",
"7+	c #A99C7A",
"8+	c #AB9C7C",
"9+	c #AC9C7C",
"0+	c #AE9C7D",
"a+	c #AF9C7E",
"b+	c #B2A179",
"c+	c #B2A279",
"d+	c #B2A47B",
"e+	c #B3A67C",
"f+	c #B4A97C",
"g+	c #B4AB7C",
"h+	c #B1AA7C",
"i+	c #AFA97B",
"j+	c #AFA979",
"k+	c #B0A878",
"l+	c #B1A879",
"m+	c #B5A97B",
"n+	c #BCAA80",
"o+	c #C8B28C",
"p+	c #CBB38E",
"q+	c #CAB28D",
"r+	c #C5AD88",
"s+	c #BEA782",
"t+	c #B7A17C",
"u+	c #B59E79",
"v+	c #B59E7A",
"w+	c #B8A17E",
"x+	c #BBA483",
"y+	c #BEA788",
"z+	c #BEA78A",
"A+	c #BDA88A",
"B+	c #BCA989",
"C+	c #B8A784",
"D+	c #B6A47F",
"E+	c #B3A07C",
"F+	c #AF9C7A",
"G+	c #AB9876",
"H+	c #A89574",
"I+	c #A69374",
"J+	c #A79374",
"K+	c #A99574",
"L+	c #AB9674",
"M+	c #AD9676",
"N+	c #AF9A78",
"O+	c #B19E7A",
"P+	c #B39E7E",
"Q+	c #B39F7E",
"R+	c #B3A07E",
"S+	c #B2A07D",
"T+	c #B2A079",
"U+	c #B2A07A",
"V+	c #B4A37C",
"W+	c #B6A77D",
"X+	c #B7AB7E",
"Y+	c #B7AC7E",
"Z+	c #B6AB7E",
"`+	c #B3AB7F",
" @	c #B2AC7E",
".@	c #B1AB7D",
"+@	c #B3A97E",
"@@	c #B9AA82",
"#@	c #C0AC88",
"$@	c #C7B28E",
"%@	c #CBB692",
"&@	c #CEB792",
"*@	c #CCB48F",
"=@	c #C6AE8A",
"-@	c #BFA783",
";@	c #BAA27F",
">@	c #B8A07E",
",@	c #BBA480",
"'@	c #BFA983",
")@	c #C2AD86",
"!@	c #C3AE88",
"~@	c #C2AD89",
"{@	c #C0AB89",
"]@	c #BCA985",
"^@	c #B8A582",
"/@	c #B6A280",
"(@	c #B39E7C",
"_@	c #B09977",
":@	c #AD9674",
"<@	c #AB9575",
"[@	c #AA9575",
"}@	c #AA9675",
"|@	c #AC9875",
"1@	c #AE9976",
"2@	c #B19A77",
"3@	c #B29A79",
"4@	c #B49E7A",
"5@	c #B5A17C",
"6@	c #B6A27E",
"7@	c #B6A27F",
"8@	c #B4A27E",
"9@	c #B2A17A",
"0@	c #B29E7A",
"a@	c #B39F7A",
"b@	c #B7A37C",
"c@	c #B8A87E",
"d@	c #B9AC80",
"e@	c #BAAC80",
"f@	c #BAAD82",
"g@	c #BAAD83",
"h@	c #B8AF83",
"i@	c #B6AE82",
"j@	c #B5AC81",
"k@	c #B4AA83",
"l@	c #B7AA85",
"m@	c #BCAB89",
"n@	c #C4B08F",
"o@	c #CAB693",
"p@	c #CFBA96",
"q@	c #D1B994",
"r@	c #CDB390",
"s@	c #C7AD8A",
"t@	c #C3AA84",
"u@	c #C1A882",
"v@	c #C6AF81",
"w@	c #C8B383",
"x@	c #CAB785",
"y@	c #CEBA87",
"z@	c #CDB888",
"A@	c #CBB489",
"B@	c #C6B186",
"C@	c #C0AC85",
"D@	c #BBA684",
"E@	c #B7A07F",
"F@	c #B49B79",
"G@	c #B29776",
"H@	c #B09776",
"I@	c #AE9877",
"J@	c #AE9B77",
"K@	c #B09F77",
"L@	c #B3A079",
"M@	c #B6A07A",
"N@	c #B6A07C",
"O@	c #B8A47F",
"P@	c #B8A67F",
"Q@	c #B6A57F",
"R@	c #B4A37D",
"S@	c #B2A177",
"T@	c #B49E7C",
"U@	c #B59F7C",
"V@	c #B9A67F",
"W@	c #BAAA82",
"X@	c #BCAE85",
"Y@	c #BFB087",
"Z@	c #C2B189",
"`@	c #C3B189",
" #	c #C2B188",
".#	c #C0B088",
"+#	c #BEAC89",
"@#	c #BDAC89",
"##	c #BEAC8B",
"$#	c #C2AF8F",
"%#	c #CAB593",
"&#	c #D1BA96",
"*#	c #D5BC96",
"=#	c #D3B994",
"-#	c #D0B790",
";#	c #D4BA88",
">#	c #D5BC84",
",#	c #D7C081",
"'#	c #E1CC7E",
")#	c #DECA81",
"!#	c #DAC785",
"~#	c #E3CF87",
"{#	c #E5D088",
"]#	c #E4CE89",
"^#	c #E2CF86",
"/#	c #D6C386",
"(#	c #C7B386",
"_#	c #B69F7F",
":#	c #B49A7A",
"<#	c #B4A37B",
"[#	c #B4A57D",
"}#	c #B6A67E",
"|#	c #B8A67E",
"1#	c #B8A77E",
"2#	c #B6A67F",
"3#	c #B4A37E",
"4#	c #B2A17B",
"5#	c #B0A177",
"6#	c #B29E7C",
"7#	c #B4A07C",
"8#	c #B7A47F",
"9#	c #B9A983",
"0#	c #BBAD86",
"a#	c #C5B28A",
"b#	c #C9B48C",
"c#	c #CAB48E",
"d#	c #CAB38E",
"e#	c #C9B18E",
"f#	c #C7B18F",
"g#	c #C6B291",
"h#	c #CAB493",
"i#	c #D8BF98",
"j#	c #DEC298",
"k#	c #E4C996",
"l#	c #E8CF93",
"m#	c #EAD28C",
"n#	c #E5CE88",
"o#	c #DFC986",
"p#	c #DCC784",
"q#	c #D7C287",
"r#	c #D5BF8B",
"s#	c #DBC38D",
"t#	c #DDC58E",
"u#	c #DFC88E",
"v#	c #E1CE8B",
"w#	c #DDCB8A",
"x#	c #D6C488",
"y#	c #CEBC84",
"z#	c #C1AE81",
"A#	c #B6A47E",
"B#	c #B8A87F",
"C#	c #B8A980",
"D#	c #B8AA80",
"E#	c #B6A980",
"F#	c #B4A680",
"G#	c #B2A47F",
"H#	c #B2A37E",
"I#	c #B0A27D",
"J#	c #AFA17B",
"K#	c #AEA178",
"L#	c #AF9E7C",
"M#	c #B09E7C",
"N#	c #B2A07C",
"O#	c #B5A47E",
"P#	c #B8A782",
"Q#	c #BAAB86",
"R#	c #C0AF89",
"S#	c #C7B38C",
"T#	c #CDB790",
"U#	c #D0B792",
"V#	c #D3B694",
"W#	c #D2B895",
"X#	c #D2B997",
"Y#	c #D5BB99",
"Z#	c #DAC09B",
"`#	c #E0C69C",
" $	c #E9CC9C",
".$	c #F5DA99",
"+$	c #FDE595",
"@$	c #F9E190",
"#$	c #EDD78E",
"$$	c #DEC98C",
"%$	c #D0B98C",
"&$	c #CCB48E",
"*$	c #CCB291",
"=$	c #CEB293",
"-$	c #D0B594",
";$	c #D2BA93",
">$	c #D8C391",
",$	c #DCC98E",
"'$	c #DECE8A",
")$	c #DED084",
"!$	c #CEC183",
"~$	c #BEB082",
"{$	c #B9A981",
"]$	c #BAAD84",
"^$	c #B9AC83",
"/$	c #B7AC83",
"($	c #B3AA82",
"_$	c #B0A780",
":$	c #AEA47F",
"<$	c #AEA27D",
"[$	c #ADA17C",
"}$	c #ABA17C",
"|$	c #ABA17A",
"1$	c #B09C7A",
"2$	c #B5A27C",
"3$	c #B9A681",
"4$	c #BCAB86",
"5$	c #C0AF8B",
"6$	c #C6B390",
"7$	c #CEB892",
"8$	c #D4B994",
"9$	c #D9BA96",
"0$	c #DABB97",
"a$	c #DBBC99",
"b$	c #DCBD9B",
"c$	c #DDC19F",
"d$	c #E0C5A1",
"e$	c #E7CCA2",
"f$	c #F7DA9E",
"g$	c #FDE59B",
"h$	c #FBE798",
"i$	c #EAD398",
"j$	c #DFC697",
"k$	c #D6BC95",
"l$	c #D1B692",
"m$	c #D0B592",
"n$	c #D0B493",
"o$	c #D0B495",
"p$	c #D0B696",
"q$	c #CEB895",
"r$	c #CEBB93",
"s$	c #CFC090",
"t$	c #D6CA88",
"u$	c #DACF85",
"v$	c #D7CD85",
"w$	c #C7BB88",
"x$	c #C0B48A",
"y$	c #BCB18B",
"z$	c #BCB189",
"A$	c #BAAE87",
"B$	c #B7AC85",
"C$	c #B1AA83",
"D$	c #AEA880",
"E$	c #ACA67F",
"F$	c #AAA47F",
"G$	c #A9A27D",
"H$	c #A8A17C",
"I$	c #A99F7A",
"J$	c #B49B77",
"K$	c #B69F7A",
"L$	c #BBA47F",
"M$	c #C1AC87",
"N$	c #C7B28D",
"O$	c #CDB792",
"P$	c #D4BB94",
"Q$	c #D8BC96",
"R$	c #DABD97",
"S$	c #DCBE99",
"T$	c #DEBE9B",
"U$	c #DFBF9E",
"V$	c #DDC1A2",
"W$	c #E5CAA1",
"X$	c #F0D59F",
"Y$	c #FADF9C",
"Z$	c #F4DB9B",
"`$	c #E8D19B",
" %	c #DEC49A",
".%	c #D8BE98",
"+%	c #D4B996",
"@%	c #D2B794",
"#%	c #D0B692",
"$%	c #D1B593",
"%%	c #D1B694",
"&%	c #D1B695",
"*%	c #D1B696",
"=%	c #D0B995",
"-%	c #CFBD94",
";%	c #D2C390",
">%	c #DBCE8D",
",%	c #E1D68C",
"'%	c #D8CC8E",
")%	c #CCC190",
"!%	c #C1B791",
"~%	c #BFB58F",
"{%	c #BCB38C",
"]%	c #B8B089",
"^%	c #B3AD85",
"/%	c #B0AA82",
"(%	c #ADA77E",
"_%	c #AAA37C",
":%	c #A8A17B",
"<%	c #A79F7A",
"[%	c #A79D79",
"}%	c #BA9C7A",
"|%	c #B99B79",
"1%	c #B69975",
"2%	c #B29876",
"3%	c #B19B79",
"4%	c #BCA583",
"5%	c #C5AE8B",
"6%	c #CEB591",
"7%	c #D5BA95",
"8%	c #DBC19A",
"9%	c #DDC19C",
"0%	c #DEC19D",
"a%	c #DEC19F",
"b%	c #DCC2A1",
"c%	c #E9CF9E",
"d%	c #F7DD99",
"e%	c #F6DC98",
"f%	c #E5CA9A",
"g%	c #D4B99B",
"h%	c #D2B897",
"i%	c #D1B794",
"j%	c #CFB692",
"k%	c #CDB490",
"l%	c #CCB38E",
"m%	c #CEB38E",
"n%	c #D0B490",
"o%	c #D3B592",
"p%	c #D5B794",
"q%	c #D4BA95",
"r%	c #D2BC96",
"s%	c #CEBC96",
"t%	c #D7C794",
"u%	c #E1D393",
"v%	c #E5D991",
"w%	c #D7CC92",
"x%	c #C7BD94",
"y%	c #C2B992",
"z%	c #BEB78F",
"A%	c #BBB58B",
"B%	c #B8B187",
"C%	c #B4AD83",
"D%	c #AFA97F",
"E%	c #ABA37B",
"F%	c #A8A07A",
"G%	c #A69E79",
"H%	c #A49C79",
"I%	c #C19E7C",
"J%	c #C09D7B",
"K%	c #BA9977",
"L%	c #9D866C",
"M%	c #857765",
"N%	c #918472",
"O%	c #A0927D",
"P%	c #B1A088",
"Q%	c #C4B295",
"R%	c #D2BE9D",
"S%	c #DDC5A2",
"T%	c #E0C5A0",
"U%	c #DFC4A0",
"V%	c #DEC49F",
"W%	c #E2C89B",
"X%	c #EFD597",
"Y%	c #F6DC95",
"Z%	c #E2C896",
"`%	c #D5BB96",
" &	c #CCB394",
".&	c #C9B190",
"+&	c #C8B08D",
"@&	c #C8AE8C",
"#&	c #C4AC88",
"$&	c #C3AB87",
"%&	c #C8AF89",
"&&	c #CCB18A",
"*&	c #CFB58E",
"=&	c #D0B791",
"-&	c #D0B994",
";&	c #CCB994",
">&	c #CBBA93",
",&	c #D0C091",
"'&	c #E5D68B",
")&	c #DDD08A",
"!&	c #CDC28C",
"~&	c #C5BA8C",
"{&	c #C2B989",
"]&	c #C1B986",
"^&	c #BFB783",
"/&	c #BAB283",
"(&	c #B5AC83",
"_&	c #AFA57F",
":&	c #AAA17C",
"<&	c #A29C77",
"[&	c #C4A07C",
"}&	c #C49F7C",
"|&	c #C19D7B",
"1&	c #AB8E72",
"2&	c #95816A",
"3&	c #95836E",
"4&	c #998873",
"5&	c #9E8E78",
"6&	c #A4957E",
"7&	c #A99A83",
"8&	c #AE9E87",
"9&	c #B4A38A",
"0&	c #BAA88F",
"a&	c #C3B093",
"b&	c #D4BF93",
"c&	c #E6D194",
"d&	c #EEDA96",
"e&	c #D9C499",
"f&	c #D0BA97",
"g&	c #CAB494",
"h&	c #C8B190",
"i&	c #C5AE8C",
"j&	c #C2AC88",
"k&	c #C2AE8B",
"l&	c #C2AE8C",
"m&	c #BFAB88",
"n&	c #C0AB87",
"o&	c #C2AC87",
"p&	c #C5AE89",
"q&	c #C6B08B",
"r&	c #C6B08D",
"s&	c #C3B08D",
"t&	c #C1AF8C",
"u&	c #C4B38A",
"v&	c #D6C784",
"w&	c #DACC83",
"x&	c #D5C884",
"y&	c #CABB86",
"z&	c #C7B986",
"A&	c #C7BA85",
"B&	c #C5B985",
"C&	c #C0B687",
"D&	c #B9B288",
"E&	c #B3AA85",
"F&	c #ADA481",
"G&	c #A7A07C",
"H&	c #A29D78",
"I&	c #C6A27D",
"J&	c #C6A27E",
"K&	c #C7A380",
"L&	c #C09F7D",
"M&	c #B79979",
"N&	c #AD9175",
"O&	c #A68D73",
"P&	c #9F8A71",
"Q&	c #95856F",
"R&	c #8D806D",
"S&	c #897E6E",
"T&	c #8F8474",
"U&	c #988D7D",
"V&	c #A79B85",
"W&	c #C2B48A",
"X&	c #D3C58E",
"Y&	c #D9CB92",
"Z&	c #C8BA96",
"`&	c #C4B496",
" *	c #C5B394",
".*	c #C5B192",
"+*	c #C3AF8E",
"@*	c #C1AE8C",
"#*	c #C1B08F",
"$*	c #C6B696",
"%*	c #C8B99A",
"&*	c #C1B191",
"**	c #BEAE8D",
"=*	c #BDAC8B",
"-*	c #BCA988",
";*	c #BBA886",
">*	c #BAA786",
",*	c #B8A885",
"'*	c #B7A785",
")*	c #BAAB83",
"!*	c #C7B980",
"~*	c #D5C77E",
"{*	c #DDCE7E",
"]*	c #CEBD82",
"^*	c #CBB985",
"/*	c #CABA87",
"(*	c #C9BA89",
"_*	c #C3B98C",
":*	c #BDB78E",
"<*	c #B7AF8C",
"[*	c #B0AA87",
"}*	c #A9A582",
"|*	c #A3A07C",
"1*	c #C6A681",
"2*	c #C7A782",
"3*	c #C9A985",
"4*	c #CBAC87",
"5*	c #CDAE89",
"6*	c #CEAF8A",
"7*	c #CEB08B",
"8*	c #CDB08B",
"9*	c #C8AE88",
"0*	c #BFA683",
"a*	c #B59D7F",
"b*	c #AB967C",
"c*	c #A4937D",
"d*	c #A49880",
"e*	c #BAB281",
"f*	c #B2AC7B",
"g*	c #A19C76",
"h*	c #958D7B",
"i*	c #9E9686",
"j*	c #ACA490",
"k*	c #B4A994",
"l*	c #BCAF98",
"m*	c #C5B69D",
"n*	c #CEC1A6",
"o*	c #D5CBB0",
"p*	c #DAD0B5",
"q*	c #D7CBAF",
"r*	c #D0C3A7",
"s*	c #C7B99E",
"t*	c #BAAB91",
"u*	c #B3A488",
"v*	c #AFA082",
"w*	c #AEA27F",
"x*	c #B1A57F",
"y*	c #B6AA80",
"z*	c #C1B67F",
"A*	c #D5C97F",
"B*	c #E2D380",
"C*	c #CEBF87",
"D*	c #C9BA8B",
"E*	c #C9BA8F",
"F*	c #C7BC91",
"G*	c #C4BB92",
"H*	c #C0B992",
"I*	c #B9B590",
"J*	c #B3B08C",
"K*	c #ACAB87",
"L*	c #A5A580",
"M*	c #CEAC88",
"N*	c #CFAD88",
"O*	c #D3B18C",
"P*	c #D4B48E",
"Q*	c #D6B690",
"R*	c #D6B58F",
"S*	c #D3B38D",
"T*	c #CEB18B",
"U*	c #C9AF86",
"V*	c #C7AF88",
"W*	c #C8B18F",
"X*	c #CDB99C",
"Y*	c #C9BAA1",
"Z*	c #C8BDA1",
"`*	c #D6CF9D",
" =	c #CAC597",
".=	c #B7B292",
"+=	c #A9A290",
"@=	c #A49D8D",
"#=	c #9D9787",
"$=	c #878173",
"%=	c #847D6F",
"&=	c #898172",
"*=	c #958E7E",
"==	c #A09A88",
"-=	c #A9A390",
";=	c #AFA691",
">=	c #B0A591",
",=	c #AFA390",
"'=	c #ADA18F",
")=	c #A59A86",
"!=	c #9A907A",
"~=	c #90876E",
"{=	c #A19877",
"]=	c #B7AD83",
"^=	c #BEB583",
"/=	c #D3C982",
"(=	c #E1D682",
"_=	c #CBC08A",
":=	c #C6BA8E",
"<=	c #C6BB92",
"[=	c #C5BE94",
"}=	c #C4BE94",
"|=	c #C2BD94",
"1=	c #BCBB92",
"2=	c #B7B78E",
"3=	c #B2B289",
"4=	c #AAAB81",
"5=	c #D9B48F",
"6=	c #DAB590",
"7=	c #DCB893",
"8=	c #DCBA94",
"9=	c #D9B993",
"0=	c #D5B38F",
"a=	c #CDAE8A",
"b=	c #C5AA86",
"c=	c #C1AA84",
"d=	c #C8B490",
"e=	c #D5C4A2",
"f=	c #E6D8BC",
"g=	c #E9DEC3",
"h=	c #EAE1C1",
"i=	c #F3ECB8",
"j=	c #EBE5B6",
"k=	c #DCD6B6",
"l=	c #CCC4AE",
"m=	c #B2AB99",
"n=	c #8F897B",
"o=	c #5A574E",
"p=	c #494640",
"q=	c #47443F",
"r=	c #504E47",
"s=	c #5C5951",
"t=	c #68655B",
"u=	c #766F63",
"v=	c #7E766A",
"w=	c #867E72",
"x=	c #928A7D",
"y=	c #8C8679",
"z=	c #7F7A6D",
"A=	c #6D675B",
"B=	c #8F886F",
"C=	c #B7AE88",
"D=	c #BEB68C",
"E=	c #D4CB89",
"F=	c #E2D988",
"G=	c #CBC28F",
"H=	c #C5BB92",
"I=	c #C3BB94",
"J=	c #C3BE95",
"K=	c #C3C095",
"L=	c #BFC093",
"M=	c #BCBD90",
"N=	c #B8B88A",
"O=	c #B1B282",
"P=	c #E0BB96",
"Q=	c #E0BC97",
"R=	c #E1BE99",
"S=	c #DEBC98",
"T=	c #DAB996",
"U=	c #D5B391",
"V=	c #CEAF8C",
"W=	c #CBB08E",
"X=	c #D4C0A0",
"Y=	c #DECEB1",
"Z=	c #E5D8BE",
"`=	c #E2D6BE",
" -	c #DFD4BC",
".-	c #E1D6B8",
"+-	c #F0E7AE",
"@-	c #ECE4B0",
"#-	c #E1D8B6",
"$-	c #D5CCB6",
"%-	c #ACA595",
"&-	c #7A756A",
"*-	c #47433F",
"=-	c #363330",
"--	c #302E2B",
";-	c #2A2927",
">-	c #2E2D2C",
",-	c #373634",
"'-	c #464540",
")-	c #4C4944",
"!-	c #504C47",
"~-	c #57534C",
"{-	c #5A5851",
"]-	c #5A5952",
"^-	c #53504B",
"/-	c #7E7869",
"(-	c #B0A78E",
"_-	c #C8C09E",
":-	c #DFD79D",
"<-	c #EBE39A",
"[-	c #D6CC9F",
"}-	c #CBC09C",
"|-	c #C5BA96",
"1-	c #C1BB92",
"2-	c #C4BF91",
"3-	c #C7C291",
"4-	c #C5C291",
"5-	c #C3C18E",
"6-	c #C0BE89",
"7-	c #BBB985",
"8-	c #E0C29B",
"9-	c #E0C19B",
"0-	c #DFC09C",
"a-	c #DDBD9B",
"b-	c #DABA99",
"c-	c #D8B999",
"d-	c #D4B99A",
"e-	c #CEB99D",
"f-	c #C6B89F",
"g-	c #BCB19C",
"h-	c #B1A796",
"i-	c #A69E8E",
"j-	c #A8A08F",
"k-	c #B3AA93",
"l-	c #CCC493",
"m-	c #D4CC9B",
"n-	c #D4CCA6",
"o-	c #D0C6B0",
"p-	c #BDB2A2",
"q-	c #A39A8B",
"r-	c #857D72",
"s-	c #756E63",
"t-	c #686358",
"u-	c #56534B",
"v-	c #474540",
"w-	c #3E3D3A",
"x-	c #41413D",
"y-	c #3B3836",
"z-	c #3A3733",
"A-	c #3F3E39",
"B-	c #484741",
"C-	c #524F4A",
"D-	c #7E786E",
"E-	c #AEA794",
"F-	c #CCC4A6",
"G-	c #E4DBA9",
"H-	c #ECE4A6",
"I-	c #D0C6A4",
"J-	c #C1B79D",
"K-	c #BAB095",
"L-	c #BEB493",
"M-	c #C3B991",
"N-	c #C8BE8E",
"O-	c #C8C18E",
"P-	c #C8C28D",
"Q-	c #C8C28B",
"R-	c #C4BF88",
"S-	c #DEC59D",
"T-	c #DEC49D",
"U-	c #DCC09D",
"V-	c #D8BB9A",
"W-	c #D4B698",
"X-	c #CDB397",
"Y-	c #C6B29A",
"Z-	c #BAAD99",
"`-	c #837C70",
" ;	c #6C655D",
".;	c #635E56",
"+;	c #6B665D",
"@;	c #7C7768",
"#;	c #9B946F",
"$;	c #AEA77B",
"%;	c #B8B289",
"&;	c #B7AD99",
"*;	c #BDB2A1",
"=;	c #C3B7A5",
"-;	c #BEB3A0",
";;	c #B4AB98",
">;	c #A79F8C",
",;	c #7C776B",
"';	c #66635A",
");	c #5C5A52",
"!;	c #504D48",
"~;	c #43403D",
"{;	c #393632",
"];	c #3C3934",
"^;	c #47453E",
"/;	c #605D55",
"(;	c #8D887E",
"_;	c #BAB3A5",
":;	c #D6CFB8",
"<;	c #E9E2BB",
"[;	c #EBE4B5",
"};	c #C2BAA4",
"|;	c #AEA696",
"1;	c #A89F8E",
"2;	c #B5A993",
"3;	c #BEB191",
"4;	c #C5B88E",
"5;	c #C9BD8D",
"6;	c #CCC28D",
"7;	c #CDC58C",
"8;	c #CBC38A",
"9;	c #DBC199",
"0;	c #DAC099",
"a;	c #D8BE99",
"b;	c #CEB492",
"c;	c #BAA286",
"d;	c #918372",
"e;	c #786F64",
"f;	c #625D55",
"g;	c #4B4741",
"h;	c #3E3A36",
"i;	c #413D39",
"j;	c #474541",
"k;	c #504E46",
"l;	c #625E46",
"m;	c #75704A",
"n;	c #807A52",
"o;	c #706A5E",
"p;	c #79726B",
"q;	c #898276",
"r;	c #968D7F",
"s;	c #A19988",
"t;	c #ADA492",
"u;	c #BAB09C",
"v;	c #BCB19D",
"w;	c #B7AD9A",
"x;	c #ACA391",
"y;	c #9A9182",
"z;	c #857E70",
"A;	c #6F6A5F",
"B;	c #666057",
"C;	c #6A635A",
"D;	c #878276",
"E;	c #B8B2A4",
"F;	c #E5DFD2",
"G;	c #F4F2EB",
"H;	c #FBF9EA",
"I;	c #EEECD5",
"J;	c #B2AB9C",
"K;	c #958C80",
"L;	c #8C8376",
"M;	c #A09788",
"N;	c #B0A690",
"O;	c #BCB293",
"P;	c #C5B68E",
"Q;	c #CABC8C",
"R;	c #CEC18A",
"S;	c #CDC38A",
"T;	c #D6B892",
"U;	c #D5B892",
"V;	c #D4B892",
"W;	c #C4AA88",
"X;	c #A59176",
"Y;	c #696154",
"Z;	c #524D46",
"`;	c #47423D",
" >	c #3B3833",
".>	c #35322F",
"+>	c #33312E",
"@>	c #3B3936",
"#>	c #403E3B",
"$>	c #45433E",
"%>	c #4B493D",
"&>	c #5F5C3E",
"*>	c #6E6A41",
"=>	c #625E48",
"->	c #5D5A4F",
";>	c #5E5A56",
">>	c #66625A",
",>	c #716C62",
"'>	c #8A8375",
")>	c #928B7C",
"!>	c #989181",
"~>	c #9E9585",
"{>	c #9F9685",
"]>	c #9D9584",
"^>	c #9A9282",
"/>	c #9B9282",
"(>	c #A09686",
"_>	c #ADA394",
":>	c #CAC1AE",
"<>	c #E9E0C7",
"[>	c #F9F4CF",
"}>	c #E7E2C5",
"|>	c #C7C1AE",
"1>	c #A19989",
"2>	c #8E8578",
"3>	c #887F72",
"4>	c #928A7C",
"5>	c #A09988",
"6>	c #B0A891",
"7>	c #BEB296",
"8>	c #C7BA94",
"9>	c #CCBE8F",
"0>	c #C8BC88",
"a>	c #CEAB8A",
"b>	c #CEAC8A",
"c>	c #CDAD89",
"d>	c #B99F7E",
"e>	c #948269",
"f>	c #504A40",
"g>	c #413C36",
"h>	c #423C36",
"i>	c #433E38",
"j>	c #3E3C37",
"k>	c #3B3A37",
"l>	c #3E3E3A",
"m>	c #42413C",
"n>	c #45423E",
"o>	c #43413E",
"p>	c #55523D",
"q>	c #67653E",
"r>	c #666640",
"s>	c #555440",
"t>	c #444140",
"u>	c #42413F",
"v>	c #454440",
"w>	c #4A4742",
"x>	c #4F4D47",
"y>	c #56544D",
"z>	c #615D55",
"A>	c #736D63",
"B>	c #857D71",
"C>	c #968E7F",
"D>	c #A79D8C",
"E>	c #B2A996",
"F>	c #BAB09D",
"G>	c #BCAF9D",
"H>	c #CABEA3",
"I>	c #DDD2A8",
"J>	c #EDE5A2",
"K>	c #CAC192",
"L>	c #9E9681",
"M>	c #928A78",
"N>	c #8E8575",
"O>	c #8D8374",
"P>	c #898375",
"Q>	c #938D7E",
"R>	c #A39C8B",
"S>	c #B4AD9A",
"T>	c #BEB499",
"U>	c #C0B491",
"V>	c #BAAF82",
"W>	c #C09C7C",
"X>	c #BD9B7A",
"Y>	c #AB9072",
"Z>	c #8C7962",
"`>	c #534B42",
" ,	c #45403A",
".,	c #46403A",
"+,	c #49423C",
"@,	c #46403B",
"#,	c #423E3A",
"$,	c #44403B",
"%,	c #44413B",
"&,	c #43413C",
"*,	c #423F3C",
"=,	c #4D4A3A",
"-,	c #5C5A3A",
";,	c #6E6D3E",
">,	c #62603E",
",,	c #4E4C3F",
"',	c #454340",
"),	c #464442",
"!,	c #494743",
"~,	c #4A4944",
"{,	c #4C4A45",
"],	c #4D4B46",
"^,	c #4F4E48",
"/,	c #53514B",
"(,	c #57554E",
"_,	c #5F5B53",
":,	c #65615A",
"<,	c #6E6A61",
"[,	c #837D6D",
"},	c #A9A17B",
"|,	c #C9C187",
"1,	c #C8C291",
"2,	c #B6AE8E",
"3,	c #A09786",
"4,	c #918A79",
"5,	c #8E8776",
"6,	c #8F8676",
"7,	c #8D8678",
"8,	c #8F887A",
"9,	c #968F7F",
"0,	c #A5A08D",
"a,	c #A49E8B",
"b,	c #9E9682",
"c,	c #999073",
"d,	c #B18F6F",
"e,	c #B08E6F",
"f,	c #AE8B6D",
"g,	c #A18367",
"h,	c #88725B",
"i,	c #574D41",
"j,	c #47413A",
"k,	c #433D38",
"l,	c #423B36",
"m,	c #3D3834",
"n,	c #383632",
"o,	c #393631",
"p,	c #3A3732",
"q,	c #3B3933",
"r,	c #3C3935",
"s,	c #413E35",
"t,	c #4B4836",
"u,	c #615E39",
"v,	c #68643A",
"w,	c #65623C",
"x,	c #55533E",
"y,	c #4D4A3F",
"z,	c #48453F",
"A,	c #464440",
"B,	c #464441",
"C,	c #484743",
"D,	c #545147",
"E,	c #605D4B",
"F,	c #736F51",
"G,	c #868258",
"H,	c #928E60",
"I,	c #8A866A",
"J,	c #948E7A",
"K,	c #A39B88",
"L,	c #9E9684",
"M,	c #97907F",
"N,	c #8F8A7B",
"O,	c #8E887A",
"P,	c #90897B",
"Q,	c #918C7C",
"R,	c #807B6E",
"S,	c #736E61",
"T,	c #898066",
"U,	c #A28465",
"V,	c #A28364",
"W,	c #A27F63",
"X,	c #99795F",
"Y,	c #886E57",
"Z,	c #645545",
"`,	c #554A3E",
" '	c #4C433A",
".'	c #413932",
"+'	c #35312C",
"@'	c #2C2B28",
"#'	c #2C2926",
"$'	c #2E2C27",
"%'	c #312F29",
"&'	c #34312C",
"*'	c #35312E",
"='	c #39342F",
"-'	c #4B4632",
";'	c #615C34",
">'	c #6F6B36",
",'	c #646138",
"''	c #575339",
")'	c #4D483A",
"!'	c #4A473C",
"~'	c #47453D",
"{'	c #47443E",
"]'	c #4A4741",
"^'	c #4D4B43",
"/'	c #4F4E44",
"('	c #504D42",
"_'	c #5A5742",
":'	c #676442",
"<'	c #6F6C41",
"['	c #686640",
"}'	c #5C5B40",
"|'	c #535046",
"1'	c #716C61",
"2'	c #ACA290",
"3'	c #A49D8C",
"4'	c #989485",
"5'	c #948F80",
"6'	c #7B7669",
"7'	c #5E5950",
"8'	c #514C43",
"9'	c #80765B",
"0'	c #9C8263",
"a'	c #9C8163",
"b'	c #997B61",
"c'	c #977960",
"d'	c #93775E",
"e'	c #8C7259",
"f'	c #897157",
"g'	c #7F6A52",
"h'	c #5D4F40",
"i'	c #3D372F",
"j'	c #262522",
"k'	c #272622",
"l'	c #292622",
"m'	c #282721",
"n'	c #272521",
"o'	c #292522",
"p'	c #2E2A26",
"q'	c #373528",
"r'	c #45442B",
"s'	c #5E5C2E",
"t'	c #636031",
"u'	c #625D34",
"v'	c #605B36",
"w'	c #595538",
"x'	c #55513A",
"y'	c #5A573C",
"z'	c #5B583D",
"A'	c #5D5A3D",
"B'	c #68653C",
"C'	c #6C693E",
"D'	c #6D6A3F",
"E'	c #676441",
"F'	c #4D4A42",
"G'	c #4B4844",
"H'	c #53504A",
"I'	c #656057",
"J'	c #897F71",
"K'	c #A89D8B",
"L'	c #BCB39D",
"M'	c #B8B19D",
"N'	c #AAA391",
"O'	c #908A7B",
"P'	c #605C54",
"Q'	c #4A4740",
"R'	c #4B463D",
"S'	c #7C6E55",
"T'	c #9E8668",
"U'	c #9D8568",
"V'	c #998065",
"W'	c #977D63",
"X'	c #967C61",
"Y'	c #957B60",
"Z'	c #947B5F",
"`'	c #8E775B",
" )	c #76634F",
".)	c #53493C",
"+)	c #34312B",
"@)	c #2A2825",
"#)	c #282523",
"$)	c #292422",
"%)	c #2A2622",
"&)	c #282522",
"*)	c #262421",
"=)	c #272422",
"-)	c #282723",
";)	c #2E2E23",
">)	c #403E26",
",)	c #484529",
"')	c #4E4A2B",
"))	c #56522B",
"!)	c #56512D",
"~)	c #555031",
"{)	c #5F5C35",
"])	c #5E5A36",
"^)	c #5B5737",
"/)	c #615D38",
"()	c #5D5A3A",
"_)	c #57533B",
":)	c #534F3C",
"<)	c #4C483D",
"[)	c #46433F",
"})	c #474440",
"|)	c #4D4A45",
"1)	c #635C55",
"2)	c #80786C",
"3)	c #9F9786",
"4)	c #C0B7A1",
"5)	c #B2AA96",
"6)	c #8D8879",
"7)	c #55524C",
"8)	c #44413C",
"9)	c #4B453C",
"0)	c #776851",
"a)	c #A28C70",
"b)	c #A18B6F",
"c)	c #9D886B",
"d)	c #998367",
"e)	c #967F64",
"f)	c #947D63",
"g)	c #927C62",
"h)	c #8F7A5F",
"i)	c #87735B",
"j)	c #6C5E4C",
"k)	c #4D463A",
"l)	c #322D2A",
"m)	c #312B29",
"n)	c #342D2A",
"o)	c #2F2B28",
"p)	c #292825",
"q)	c #292623",
"r)	c #242320",
"s)	c #242221",
"t)	c #322F23",
"u)	c #413E21",
"v)	c #464224",
"w)	c #4B4627",
"x)	c #56522C",
"y)	c #534F2E",
"z)	c #4D492F",
"A)	c #4C4831",
"B)	c #434033",
"C)	c #3C3835",
"D)	c #3E3936",
"E)	c #403C37",
"F)	c #423E38",
"G)	c #44403A",
"H)	c #43403B",
"I)	c #423F3B",
"J)	c #45423F",
"K)	c #55504B",
"L)	c #726C62",
"M)	c #AEA590",
"N)	c #A49D8A",
"O)	c #7E7A6E",
"P)	c #4E4D48",
"Q)	c #45423C",
"R)	c #50483D",
"S)	c #73644E",
"T)	c #A89677",
"U)	c #A69476",
"V)	c #A18F71",
"W)	c #9B896B",
"X)	c #968367",
"Y)	c #947F65",
"Z)	c #8F7C62",
"`)	c #8B785F",
" !	c #87745D",
".!	c #7E6D57",
"+!	c #71634F",
"@!	c #5E5546",
"#!	c #524A3E",
"$!	c #4A4239",
"%!	c #463F38",
"&!	c #3C3730",
"*!	c #322E29",
"=!	c #312C29",
"-!	c #2C2A27",
";!	c #282421",
">!	c #282521",
",!	c #2A2822",
"'!	c #2C2A22",
")!	c #2E2B21",
"!!	c #2B2921",
"~!	c #282722",
"{!	c #292824",
"]!	c #2D2B27",
"^!	c #312E2B",
"/!	c #363230",
"(!	c #3E3935",
"_!	c #463E38",
":!	c #48403A",
"<!	c #433F39",
"[!	c #43413B",
"}!	c #4C4941",
"|!	c #676357",
"1!	c #615D54",
"2!	c #524E4A",
"3!	c #4A4744",
"4!	c #4F4A41",
"5!	c #5C5342",
"6!	c #74644D",
"7!	c #AA9A7C",
"8!	c #A9987B",
"9!	c #A49475",
"0!	c #9E8E70",
"a!	c #99886C",
"b!	c #968369",
"c!	c #917F65",
"d!	c #8C7B62",
"e!	c #88765F",
"f!	c #83725C",
"g!	c #7C6E57",
"h!	c #726651",
"i!	c #6A5F4D",
"j!	c #64594A",
"k!	c #605648",
"l!	c #5A5143",
"m!	c #534B3D",
"n!	c #4D453A",
"o!	c #474037",
"p!	c #3F3A33",
"q!	c #342F2B",
"r!	c #312C28",
"s!	c #302C28",
"t!	c #2B2826",
"u!	c #262523",
"v!	c #232321",
"w!	c #252321",
"x!	c #232221",
"y!	c #292725",
"z!	c #292927",
"A!	c #2F2D2A",
"B!	c #38332E",
"C!	c #423C35",
"D!	c #48413A",
"E!	c #49433C",
"F!	c #48423B",
"G!	c #44413D",
"H!	c #4C4740",
"I!	c #595344",
"J!	c #685F48",
"K!	c #74674E",
"L!	c #AC9A7F",
"M!	c #AA9A7E",
"N!	c #A59678",
"O!	c #A19174",
"P!	c #9D8C70",
"Q!	c #99866C",
"R!	c #948268",
"S!	c #8F7E64",
"T!	c #897861",
"U!	c #84745E",
"V!	c #7F715A",
"W!	c #7C6F58",
"X!	c #7A6C57",
"Y!	c #776A56",
"Z!	c #766854",
"`!	c #746853",
" ~	c #726751",
".~	c #6A5F4C",
"+~	c #615748",
"@~	c #564E42",
"#~	c #484138",
"$~	c #443D36",
"%~	c #413B34",
"&~	c #3A372F",
"*~	c #302E29",
"=~	c #282725",
"-~	c #2D2A26",
";~	c #2C2925",
">~	c #252421",
",~	c #242421",
"'~	c #222320",
")~	c #282724",
"!~	c #39342D",
"~~	c #423C34",
"{~	c #494139",
"]~	c #4D443D",
"^~	c #4F463E",
"/~	c #4D453D",
"(~	c #444039",
"_~	c #413D38",
":~	c #534D3F",
"<~	c #645D46",
"[~	c #72694D",
"}~	c #746B4F",
"|~	c #AA987F",
"1~	c #A9987E",
"2~	c #A59478",
"3~	c #A19074",
"4~	c #98866C",
"5~	c #948368",
"6~	c #918065",
"7~	c #8B7C63",
"8~	c #867760",
"9~	c #80735C",
"0~	c #7B6F58",
"a~	c #766C56",
"b~	c #726A54",
"c~	c #726854",
"d~	c #726954",
"e~	c #726B54",
"f~	c #736B54",
"g~	c #726853",
"h~	c #6F6550",
"i~	c #6B614E",
"j~	c #675D4C",
"k~	c #605948",
"l~	c #564F41",
"m~	c #4A4338",
"n~	c #3F3932",
"o~	c #3E3A32",
"p~	c #3B3630",
"q~	c #36312C",
"r~	c #2A2724",
"s~	c #2C2A25",
"t~	c #252524",
"u~	c #2A2926",
"v~	c #322F2B",
"w~	c #3C3631",
"x~	c #473F39",
"y~	c #4E453D",
"z~	c #4F473D",
"A~	c #454239",
"B~	c #464139",
"C~	c #665E47",
"D~	c #70684C",
"E~	c #746D4F",
"F~	c #746D51",
"G~	c #A5977C",
"H~	c #A4967B",
"I~	c #A09275",
"J~	c #9D8E71",
"K~	c #9A8A6D",
"L~	c #96866A",
"M~	c #938467",
"N~	c #908165",
"O~	c #8B7E63",
"P~	c #877B62",
"Q~	c #83775F",
"R~	c #7D745C",
"S~	c #78725A",
"T~	c #757058",
"U~	c #746D58",
"V~	c #726C58",
"W~	c #716D57",
"X~	c #736E57",
"Y~	c #736C56",
"Z~	c #706853",
"`~	c #6B6450",
" {	c #675E4C",
".{	c #605847",
"+{	c #5B5243",
"@{	c #585043",
"#{	c #544C41",
"${	c #4F473C",
"%{	c #453F35",
"&{	c #403A32",
"*{	c #3E3830",
"={	c #3D372E",
"-{	c #34302A",
";{	c #2B2A28",
">{	c #2C2C2A",
",{	c #363431",
"'{	c #443F39",
"){	c #51493F",
"!{	c #534A40",
"~{	c #50483E",
"{{	c #48433A",
"]{	c #514A3E",
"^{	c #615746",
"/{	c #72674E",
"({	c #766C50",
"_{	c #766E51",
":{	c #756E52",
"<{	c #A09679",
"[{	c #A09578",
"}{	c #9C9173",
"|{	c #9A8D6F",
"1{	c #978A6B",
"2{	c #948769",
"3{	c #928467",
"4{	c #908266",
"5{	c #8D8165",
"6{	c #8B7F65",
"7{	c #887D64",
"8{	c #847C63",
"9{	c #7F7A61",
"0{	c #7C775F",
"a{	c #79745F",
"b{	c #77725D",
"c{	c #74705B",
"d{	c #73705A",
"e{	c #726E57",
"f{	c #706D55",
"g{	c #716D55",
"h{	c #706B55",
"i{	c #6F6955",
"j{	c #716954",
"k{	c #716853",
"l{	c #716752",
"m{	c #6F6352",
"n{	c #6C6050",
"o{	c #685D4C",
"p{	c #5B5244",
"q{	c #51483B",
"r{	c #464035",
"s{	c #3C3932",
"t{	c #3C3936",
"u{	c #565045",
"v{	c #625848",
"w{	c #5E5446",
"x{	c #574D43",
"y{	c #524A40",
"z{	c #73664E",
"A{	c #7A6C53",
"B{	c #7B6E53",
"C{	c #7A6E52",
"D{	c #786E52",
"E{	c #9E9679",
"F{	c #9E9578",
"G{	c #9C9174",
"H{	c #9A8E72",
"I{	c #988C6F",
"J{	c #968A6D",
"K{	c #94886B",
"L{	c #93866A",
"M{	c #94886A",
"N{	c #94876B",
"O{	c #93856C",
"P{	c #90856C",
"Q{	c #8D826A",
"R{	c #897F68",
"S{	c #857D67",
"T{	c #837B65",
"U{	c #817963",
"V{	c #7D7863",
"W{	c #7A765F",
"X{	c #77745B",
"Y{	c #75735B",
"Z{	c #74715A",
"`{	c #736F58",
" ]	c #716B55",
".]	c #716A54",
"+]	c #716754",
"@]	c #706653",
"#]	c #706652",
"$]	c #706751",
"%]	c #6F6452",
"&]	c #6D604F",
"*]	c #685D4D",
"=]	c #645A4C",
"-]	c #62594C",
";]	c #685E4F",
">]	c #706451",
",]	c #766752",
"']	c #746551",
")]	c #706351",
"!]	c #716250",
"~]	c #776651",
"{]	c #7C6A53",
"]]	c #7C6B54",
"^]	c #7D6D54",
"/]	c #7E6E54",
"(]	c #A39B7F",
"_]	c #A39A7E",
":]	c #9D9376",
"<]	c #9B9174",
"[]	c #998E72",
"}]	c #978C6E",
"|]	c #988E6E",
"1]	c #988D6F",
"2]	c #988C70",
"3]	c #978C71",
"4]	c #958970",
"5]	c #93876F",
"6]	c #8F856E",
"7]	c #8E846C",
"8]	c #8C826B",
"9]	c #88806A",
"0]	c #847D67",
"a]	c #817C63",
"b]	c #7D7760",
"c]	c #7B745E",
"d]	c #77715B",
"e]	c #767059",
"f]	c #766F58",
"g]	c #766E58",
"h]	c #756E58",
"i]	c #776F59",
"j]	c #776D5A",
"k]	c #776B59",
"l]	c #756A57",
"m]	c #736856",
"n]	c #736756",
"o]	c #756755",
"p]	c #786854",
"q]	c #796954",
"r]	c #796A54",
"s]	c #7B6A54",
"t]	c #7E6A54",
"u]	c #806B54",
"v]	c #7F6B54",
"w]	c #806C55",
"x]	c #826E56",
"y]	c #826E57",
"z]	c #ACA387",
"A]	c #ABA285",
"B]	c #A79E7F",
"C]	c #A39A7C",
"D]	c #9F9679",
"E]	c #9D9275",
"F]	c #9C9171",
"G]	c #9C9371",
"H]	c #9B9271",
"I]	c #9B9071",
"J]	c #9B9073",
"K]	c #9A8E74",
"L]	c #998D74",
"M]	c #968B74",
"N]	c #968A72",
"O]	c #958971",
"P]	c #91876F",
"Q]	c #8E846D",
"R]	c #8A826A",
"S]	c #888066",
"T]	c #877D64",
"U]	c #847A63",
"V]	c #7F7861",
"W]	c #7D765F",
"X]	c #7D755E",
"Y]	c #7C755E",
"Z]	c #7A755E",
"`]	c #7A745E",
" ^	c #7A735E",
".^	c #7A715D",
"+^	c #7A705B",
"@^	c #7C6F5B",
"#^	c #7A6C58",
"$^	c #796955",
"%^	c #776955",
"&^	c #7C6C54",
"*^	c #7E6C54",
"=^	c #806C54",
"-^	c #826C54",
";^	c #846D56",
">^	c #856E58",
",^	c #856E5A",
"'^	c #BAAD8E",
")^	c #B8AB8D",
"!^	c #B1A687",
"~^	c #ABA182",
"{^	c #A69C7D",
"]^	c #A39877",
"^^	c #A19673",
"/^	c #A09571",
"(^	c #9E9371",
"_^	c #9C9271",
":^	c #999071",
"<^	c #988E72",
"[^	c #968D72",
"}^	c #948D72",
"|^	c #958B71",
"1^	c #958A71",
"2^	c #938971",
"3^	c #91886F",
"4^	c #8E856C",
"5^	c #8C8268",
"6^	c #8B8166",
"7^	c #888064",
"8^	c #847E63",
"9^	c #827C62",
"0^	c #817B62",
"a^	c #807B62",
"b^	c #807B63",
"c^	c #807A64",
"d^	c #7F7963",
"e^	c #7E7661",
"f^	c #7C745F",
"g^	c #7A705C",
"h^	c #796D59",
"i^	c #796D57",
"j^	c #7A6D56",
"k^	c #7C6E56",
"l^	c #7E6E56",
"m^	c #806E56",
"n^	c #846E58",
"o^	c #856E5C",
"p^	c #C3B493",
"q^	c #C1B291",
"r^	c #B9AA8A",
"s^	c #B2A484",
"t^	c #ACA07E",
"u^	c #A49874",
"v^	c #9D9270",
"w^	c #9A9070",
"x^	c #988E6F",
"y^	c #948D6D",
"z^	c #918C6D",
"A^	c #8E8A6C",
"B^	c #8D8A6B",
"C^	c #8E896B",
"D^	c #8F886B",
"E^	c #8E876A",
"F^	c #8C8569",
"G^	c #8A8366",
"H^	c #898265",
"I^	c #888265",
"J^	c #868063",
"K^	c #857E63",
"L^	c #837C63",
"M^	c #827C63",
"N^	c #807C63",
"O^	c #807C64",
"P^	c #817C64",
"Q^	c #827C64",
"R^	c #827C65",
"S^	c #817B64",
"T^	c #7E7762",
"U^	c #7D745F",
"V^	c #7C725D",
"W^	c #7D725C",
"X^	c #7D725A",
"Y^	c #7E7258",
"Z^	c #7F7158",
"`^	c #807158",
" /	c #817158",
"./	c #827057",
"+/	c #847058",
"@/	c #85705A",
"#/	c #85705B",
"$/	c #C9B896",
"%/	c #C7B694",
"&/	c #BFAC8C",
"*/	c #B1A27E",
"=/	c #AB9C78",
"-/	c #A59873",
";/	c #A09470",
">/	c #9C906E",
",/	c #988E6D",
"'/	c #948C6C",
")/	c #8E8A68",
"!/	c #8A8867",
"~/	c #878767",
"{/	c #868665",
"]/	c #868664",
"^/	c #878664",
"//	c #898564",
"(/	c #898463",
"_/	c #878262",
":/	c #878263",
"</	c #878062",
"[/	c #867E62",
"}/	c #847C62",
"|/	c #807C62",
"1/	c #7F7C62",
"2/	c #7F7962",
"3/	c #807760",
"4/	c #827760",
"5/	c #81765E",
"6/	c #81765B",
"7/	c #83755B",
"8/	c #83755A",
"9/	c #83745A",
"0/	c #837358",
"a/	c #847258",
"b/	c #85725A",
"c/	c #CBBA96",
"d/	c #C9B894",
"e/	c #C1B08C",
"f/	c #BAA984",
"g/	c #B3A27E",
"h/	c #A59772",
"i/	c #A0926E",
"j/	c #9A8E6C",
"k/	c #958C69",
"l/	c #908A66",
"m/	c #8C8864",
"n/	c #888664",
"o/	c #858563",
"p/	c #838361",
"q/	c #838461",
"r/	c #838561",
"s/	c #858561",
"t/	c #878560",
"u/	c #87845E",
"v/	c #86825E",
"w/	c #87825E",
"x/	c #87805E",
"y/	c #867E5F",
"z/	c #847C60",
"A/	c #827C60",
"B/	c #807C60",
"C/	c #7F7C60",
"D/	c #7F7C61",
"E/	c #7D7C61",
"F/	c #7D7B61",
"G/	c #7D7960",
"H/	c #7F795E",
"I/	c #807A5F",
"J/	c #827B60",
"K/	c #847960",
"L/	c #857860",
"M/	c #86785F",
"N/	c #88785D",
"O/	c #87785B",
"P/	c #86785A",
"Q/	c #867858",
"R/	c #867657",
"S/	c #867558",
"T/	c #857458",
"U/	c #CAB993",
"V/	c #C9B791",
"W/	c #C3AF89",
"X/	c #BCA983",
"Y/	c #AF9C78",
"Z/	c #A99873",
"`/	c #A4956F",
" (	c #9E916C",
".(	c #988E68",
"+(	c #928B65",
"@(	c #8F8963",
"#(	c #8C8763",
"$(	c #898662",
"%(	c #888460",
"&(	c #878561",
"*(	c #888662",
"=(	c #8A8662",
"-(	c #8B8660",
";(	c #8B855E",
">(	c #89855E",
",(	c #89845E",
"'(	c #88835D",
")(	c #88815D",
"!(	c #88805E",
"~(	c #877F60",
"{(	c #857F60",
"](	c #837E60",
"^(	c #827E60",
"/(	c #817E60",
"((	c #807D5F",
"_(	c #7F7C5E",
":(	c #7E7C5E",
"<(	c #7E7A5E",
"[(	c #7E795E",
"}(	c #7F795D",
"|(	c #817A5E",
"1(	c #867C60",
"2(	c #887B60",
"3(	c #8A7B60",
"4(	c #8B7D5F",
"5(	c #8C7D5E",
"6(	c #8B7D5C",
"7(	c #8B7D5A",
"8(	c #8B7C59",
"9(	c #8B7A58",
"0(	c #887857",
"a(	c #C9B78F",
"b(	c #C8B58D",
"c(	c #BFA882",
"d(	c #B9A37D",
"e(	c #B59E78",
"f(	c #AF9B74",
"g(	c #AA9871",
"h(	c #A5956D",
"i(	c #9E9269",
"j(	c #998E66",
"k(	c #968C65",
"l(	c #938A64",
"m(	c #908964",
"n(	c #908863",
"o(	c #908864",
"p(	c #908965",
"q(	c #928966",
"r(	c #928864",
"s(	c #928762",
"t(	c #908862",
"u(	c #8E8761",
"v(	c #8D865F",
"w(	c #8C845F",
"x(	c #8C8460",
"y(	c #8B8361",
"z(	c #898361",
"A(	c #888161",
"B(	c #868061",
"C(	c #848061",
"D(	c #827E5F",
"E(	c #807C5E",
"F(	c #807B5E",
"G(	c #807A5E",
"H(	c #837B5F",
"I(	c #867D60",
"J(	c #887F60",
"K(	c #8B7E61",
"L(	c #8E7E61",
"M(	c #8E8261",
"N(	c #908362",
"O(	c #928361",
"P(	c #92835F",
"Q(	c #92815D",
"R(	c #90805B",
"S(	c #8D7E59",
"T(	c #C9B38B",
"U(	c #C8B18A",
"V(	c #C4AB84",
"W(	c #C0A780",
"X(	c #BCA47C",
"Y(	c #B9A379",
"Z(	c #B6A077",
"`(	c #B29C75",
" _	c #B09A73",
"._	c #AA986F",
"+_	c #A5956C",
"@_	c #A0926A",
"#_	c #9E916A",
"$_	c #9D916A",
"%_	c #9C916B",
"&_	c #9A916C",
"*_	c #99916C",
"=_	c #9B8F6C",
"-_	c #9C8E6C",
";_	c #9B8E6C",
">_	c #9A8D6A",
",_	c #988C68",
"'_	c #968B67",
")_	c #958A66",
"!_	c #938867",
"~_	c #918767",
"{_	c #908565",
"]_	c #8E8464",
"^_	c #8C8263",
"/_	c #888062",
"(_	c #887C62",
"__	c #897D62",
":_	c #8A7F62",
"<_	c #8C8162",
"[_	c #8F8163",
"}_	c #928265",
"|_	c #948566",
"1_	c #978768",
"2_	c #998869",
"3_	c #998767",
"4_	c #988564",
"5_	c #968461",
"6_	c #94845F",
". + @ # $ % & % * = - ; > , ' ) ! ! ~ { ] ^ / ( _ : < [ } | 1 2 3 4 5 6 7 8 9 0 a b c d e f g h ",
"i j k l m n o o p q r s t u v w x y z A B C D E F G H [ I J K L M N O P Q R S T U V W X Y Z `  .",
"..+.@.m #.$.%.%.&.*.=.-.;.>.,.'.).!.~.{.].^./.(._.:.<.[.}.|.1.2.T 3.4.5.5.6.6.6.6.7.8.9.0.a.b.c.",
"d.d.e.f.g.h.i.j.k.l.m.n.o.p.q.r.s.t.u.v.w.x.y.z.A.B.C.D.E.F.G.H.I.J.K.L.M.N.O.P.Q.R.S.T.U.I.V.W.",
"X.Y.Z.`. +.+++@+#+$+%+&+*+=+-+;+>+,+'+)+!+)+] ~+{+]+^+/+(+_+:+<+V.[+}+|+1+2+3+4+5+6+I.7+8+9+0+a+",
"b+c+d+e+f+g+h+i+j+k+l+m+n+-+o+p+q+r+s+t+u+] v+w+x+y+z+A+B+C+D+E+F+G+H+I+I+I+J+K+L+M+N+O+P+Q+R+S+",
"T+U+V+W+X+Y+Z+`+ @.@h++@@@#@$@%@&@*@=@-@;@>@>@,@'@)@!@~@{@]@^@/@(@_@:@<@[@}@|@1@2@3@4@5@6@7@8@9@",
"0@a@b@c@d@e@f@g@h@i@j@k@l@m@n@o@p@q@r@s@t@u@u@v@w@x@y@z@A@B@C@D@E@F@G@H@I@J@K@L@M@N@6@O@P@Q@R@S@",
"T@U@t+V@W@X@Y@Z@`@ #.#+#@###$#%#&#*#=#-#;#>#,#'#)#!#~#{#]#^#/#(#D@_#:#3@0@<#[#}#|#1#2#D+D+3#4#5#",
"6#6#7#8#9#0#.#a#b#c#d#e#f#g#h#&#i#j#k#l#m#n#o#p#q#r#s#t#u#v#w#x#y#z#6@7#A#B#C#D#C#E#F#G#H#I#J#K#",
"L#M#N#O#P#Q#R#S#T#U#V#V#W#X#Y#Z#`# $.$+$@$#$$$%$&$*$=$-$;$>$,$'$)$!$~${$@@]$g@^$/$($_$:$<$[$}$|$",
"F+1$0@2$3$4$5$6$7$8$9$0$a$b$c$d$e$f$g$h$i$j$k$l$m$n$o$p$q$q$r$s$t$u$v$w$x$y$z$A$B$C$D$E$F$G$H$I$",
"F@F@J$K$L$M$N$O$P$Q$R$S$T$U$V$W$X$Y$Z$`$ %.%+%@%#%m$$%%%&%*%=%-%;%>%,%'%)%!%~%{%]%^%/%(%_%:%<%[%",
"}%|%1%2%3%4%5%6%7%.%8%9%0%a%b%c%d%e%f%g%h%W#i%j%k%l%m%n%o%p%q%r%s%t%u%v%w%x%y%z%A%B%C%D%E%F%G%H%",
"I%J%K%L%M%N%O%P%Q%R%S%T%U%V%W%X%Y%Z%`% &.&+&@&=@#&$&r+%&&&*&=&-&;&>&,&'&)&!&~&{&]&^&/&(&_&:&G%<&",
"[&}&|&1&2&3&4&5&6&7&8&9&0&a&b&c&d&e&f&g&h&i&j&#@k&l&m&n&o&p&q&r&s&t&u&v&w&x&y&z&A&B&C&D&E&F&G&H&",
"I&J&K&L&M&N&O&P&Q&R&S&T&U&V&W&X&Y&Z&`& *.*+*@*#*$*%*&***=*-*;*>*,*'*)*!*~*{*]*^*/*(*_*:*<*[*}*|*",
"1*2*3*4*5*6*7*8*9*0*a*b*c*d*e*f*g*h*i*j*k*l*m*n*o*p*q*r*s*t*u*v*w*x*y*z*A*B*C*D*E*F*G*H*I*J*K*L*",
"M*N*O*P*Q*R*S*T*U*V*W*X*Y*Z*`* =.=+=@=#=$=%=&=*===-=;=>=,='=)=!=~={=]=^=/=(=_=:=<=[=}=|=1=2=3=4=",
"5=6=7=8=9=0=a=b=c=d=e=f=g=h=i=j=k=l=m=n=o=p=q=r=s=t=u=v=w=x=y=z=A=B=C=D=E=F=G=H=I=J=K=K=L=M=N=O=",
"P=Q=R=S=T=U=V=W=X=Y=Z=`= -.-+-@-#-$-%-&-*-=---;->-,-'-)-!-~-{-]-^-/-(-_-:-<-[-}-|-1-2-3-4-5-6-7-",
"8-9-0-a-b-c-d-e-f-g-h-i-j-k-l-m-n-o-p-q-r-s-t-u-v-w-x-w-y-z-A-B-C-D-E-F-G-H-I-J-K-L-M-N-O-P-Q-R-",
"S-T-U-V-W-X-Y-Z-i*`- ;.;+;@;#;$;%;&;*;=;-;;;>;*=,;';);!;~;{;];^;/;(;_;:;<;[;};|;1;2;3;4;5;6;7;8;",
"9;0;a;b;c;d;e;f;g;h;{;i;j;k;l;m;n;o;p;q;r;s;t;u;v;w;x;y;z;A;B;C;D;E;F;G;H;I;J;K;L;M;N;O;P;Q;R;S;",
"T;U;V;W;X;Y;Z;`; >.>+>@>#>$>%>&>*>=>->;>>>,>,;'>)>!>~>{>]>^>/>(>_>:><>[>}>|>1>2>3>4>5>6>7>8>9>0>",
"a>b>c>d>e>f>g>h>i>j>k>l>m>n>o>p>q>r>s>t>u>v>w>x>y>z>A>B>C>D>E>F>G>H>I>J>K>L>M>N>O>P>Q>R>S>T>U>V>",
"W>W>X>Y>Z>`> ,.,+,@,#,$,%,&,*,=,-,;,>,,,',),!,~,{,],^,/,(,_,:,<,[,},|,1,2,3,4,5,6,7,8,9,0,a,b,c,",
"d,e,f,g,h,i,j,k,l,m,n,o,p,q,r,s,t,u,v,w,x,y,z,'-A,B,),C,~,)-D,E,F,G,H,I,J,s;K,L,M,N,O,P,Q,R,S,T,",
"U,V,W,X,Y,Z,`, '.'+'@'#'$'%'&'*'='-';'>',''')'!'~'{']'^'/'('_':'<'['}'|'1'9,2'x;3'4'5'O,6'7'8'9'",
"0'a'b'c'd'e'f'g'h'i'j'j'k'l'm'n'o'p'q'r's't'u'v'w'x'y'z'A'B'C'D'E'_'F'G'H'I'J'K'L'M'N'O'P'Q'R'S'",
"T'U'V'W'X'Y'Z'`' ).)+)@)#)$)%)&)*)=)-);)>),)')))!)~){)])^)/)()_):)<)n>[)})|)1)2)3)4)5)6)7)8)9)0)",
"a)b)c)d)e)f)g)h)i)j)k)='l)m)n)o)p)q)*)r)s)%)t)u)v)w)x)y)z)A)B)C)D)E)F)G)H)I)J)K)L)M)N)O)P)Q)R)S)",
"T)U)V)W)X)Y)Z)`) !.!+!@!#!$!%!&!*!=!o)-!&);!>!>!,!'!)!!!~!{!]!^!/!(!_!:! ,<![!Q)}!|!1!2!3!4!5!6!",
"7!8!9!0!a!b!c!d!e!f!g!h!i!j!k!l!m!n!o!p!q!r!s!t!u!v!*)w!s)x!u!y!z!A!B!C!%!D!E!F!F!}!z,G!H!I!J!K!",
"L!M!N!O!P!Q!R!S!T!U!V!W!X!Y!Z!`! ~.~+~@~#~$~%~&~*~=~-~-~;~j'>~,~'~'~)~!~~~{~]~^~/~(~_~G):~<~[~}~",
"|~1~2~3~P!4~5~6~7~8~9~0~a~b~c~d~e~f~g~h~i~j~k~l~m~n~o~p~q~;~q)r~s~)~t~u~v~w~x~y~z~A~B~z~C~D~E~F~",
"G~H~I~J~K~L~M~N~O~P~Q~R~S~T~U~V~W~X~Y~e~b~Z~`~ {.{+{@{#{${%{&{*{={-{;{>{,{'{){!{~{{{]{^{/{({_{:{",
"<{[{}{|{1{2{3{4{5{6{7{8{9{0{a{b{c{d{e{f{g{h{i{j{k{l{m{n{o{.{p{i,q{r{s{t{{'u{v{w{x{y{^{z{A{B{C{D{",
"E{F{G{H{I{J{K{L{M{N{O{P{Q{R{S{T{U{V{W{X{Y{Z{`{ ].].]+]@]#]$]#]%]&]*]=]-];]>],]'])]!]~]{]]]^]/]/]",
"(]_]<{:]<][]I{}]|]1]2]3]4]5]6]7]8]9]0]a]9{b]c]d]e]f]g]g]h]f]i]j]k]l]m]n]o]p]q]r]r]s]t]u]v]w]x]y]",
"z]A]B]C]D]E]}{F]G]H]I]J]K]L]M]N]O]P]Q]R]S]T]U]V]W]X]X]Y]Z]Z]`] ^ ^.^+^@^#^$^%^r]&^*^=^-^-^;^>^,^",
"'^)^!^~^{^]^^^/^(^_^I]:^<^[^}^|^1^2^3^4^5^6^7^8^9^0^0^0^a^b^c^c^c^d^e^f^g^h^i^j^k^k^l^m^x]n^,^o^",
"p^q^r^s^t^0 u^/^v^w^x^y^z^A^B^C^D^D^E^F^G^H^I^J^K^L^M^a]N^O^P^Q^R^S^c^T^U^V^W^X^Y^Z^`^ /./+/@/#/",
"$/%/&/C+*/=/-/;/>/,/'/)/!/~/{/]/^/////(/_/:/:/</[/}/9^|/1/1/|/a]P^P^S^2/V]3/4/5/6/7/8/9/0/a/b/b/",
"c/d/e/f/g/=/h/i/j/k/l/m/n/o/p/q/r/s/t/u/v/v/w/x/y/z/A/B/C/C/C/D/E/F/G/H/I/J/K/L/M/N/O/P/Q/R/S/T/",
"U/V/W/X/6@Y/Z/`/ (.(+(@(#($(%(&(*(=(-(;(>(,('()(!(~({(](^(/(((_(:(<([(}(|(z/1(2(3(4(5(6(7(8(9(0(",
"a(b(-+c(d(e(f(g(h(i(j(k(l(m(n(o(p(q(r(s(t(u(v(w(x(y(z(A(B(C(D(E(E(F(G(|(H(I(J(K(L(M(N(O(P(Q(R(S(",
"T(U(V(W(X(Y(Z(`( _._+_@_#_$_%_&_*_=_-_-_;_>_,_'_)_!_~_{_]_^_/_[/[/[/[/(___:_<_[_}_|_1_2_3_4_5_6_"};
