/* XPM */
static char * sodipodi2_16x16_xpm[] = {
"16 16 112 2",
"  	c None",
". 	c #4B351E",
"+ 	c #7A5731",
"@ 	c #77542F",
"# 	c #573D22",
"$ 	c #5B4124",
"% 	c #322314",
"& 	c #4A351E",
"* 	c #966A3C",
"= 	c #A56F3D",
"- 	c #B6703E",
"; 	c #AD6839",
"> 	c #BC5E32",
", 	c #A1552D",
"' 	c #744E2B",
") 	c #352615",
"! 	c #5A4024",
"~ 	c #A06F3E",
"{ 	c #C97D45",
"] 	c #834525",
"^ 	c #6D4626",
"/ 	c #674828",
"( 	c #6D4D2B",
"_ 	c #6C3E22",
": 	c #B75B30",
"< 	c #734A29",
"[ 	c #48331C",
"} 	c #8B6237",
"| 	c #AF713E",
"1 	c #B66738",
"2 	c #50311B",
"3 	c #775430",
"4 	c #543C22",
"5 	c #9C6E3E",
"6 	c #A17240",
"7 	c #9D6F3F",
"8 	c #633D21",
"9 	c #C16636",
"0 	c #50361E",
"a 	c #7E4827",
"b 	c #804B29",
"c 	c #20160C",
"d 	c #855F35",
"e 	c #71502D",
"f 	c #D89151",
"g 	c #C77841",
"h 	c #CC7A42",
"i 	c #D89150",
"j 	c #B97440",
"k 	c #994B27",
"l 	c #4B301A",
"m 	c #996C3C",
"n 	c #805932",
"o 	c #563D23",
"p 	c #D68F50",
"q 	c #B46738",
"r 	c #4C2A1B",
"s 	c #BD5B2F",
"t 	c #D6713C",
"u 	c #7F4726",
"v 	c #6F3A1F",
"w 	c #5D4225",
"x 	c #D89855",
"y 	c #D68E50",
"z 	c #A37340",
"A 	c #D9884B",
"B 	c #64391F",
"C 	c #8D4021",
"D 	c #D46937",
"E 	c #AF542B",
"F 	c #D36A38",
"G 	c #B86033",
"H 	c #72512E",
"I 	c #986B3C",
"J 	c #7E5732",
"K 	c #D17E45",
"L 	c #D89453",
"M 	c #DA7E44",
"N 	c #63341D",
"O 	c #77351B",
"P 	c #DB6534",
"Q 	c #C45D30",
"R 	c #6D351B",
"S 	c #976B3C",
"T 	c #A67642",
"U 	c #782D16",
"V 	c #582D1F",
"W 	c #BE5C30",
"X 	c #DA7B42",
"Y 	c #B45B30",
"Z 	c #503225",
"` 	c #6B341C",
" .	c #A96839",
"..	c #BE7942",
"+.	c #AF552C",
"@.	c #B4522B",
"#.	c #953F20",
"$.	c #D5582C",
"%.	c #CD4E26",
"&.	c #6E2F18",
"*.	c #7E4526",
"=.	c #572815",
"-.	c #6B3E22",
";.	c #A16C3C",
">.	c #90542E",
",.	c #AF4C27",
"'.	c #5E2B16",
").	c #372213",
"!.	c #A85F33",
"~.	c #D2723D",
"{.	c #824525",
"].	c #442112",
"                                ",
"                                ",
"              . + @ # $ %       ",
"          & * = - ; > , ' )     ",
"        ! ~ { ] ^ / ( _ : < [   ",
"      } | 1 2 3 4 5 6 7 8 9     ",
"    0 a b c d e f g h i j k     ",
"    l   m n o p q r s t u v     ",
"      w x y z A B C D E F G     ",
"    H I J K L M N O P Q R       ",
"  S T U V W X Y Z `             ",
"   ...+.@.#.$.%.&.              ",
"    *.=.-.;.>.,.'.              ",
"      ).!.~.{.                  ",
"          ].                    ",
"                                "};
