/* XPM */
static char * tvtime2_48x48_xpm[] = {
"48 48 740 2",
"  	c None",
". 	c #838383",
"+ 	c #7A7C7D",
"@ 	c #797B7C",
"# 	c #78797B",
"$ 	c #767879",
"% 	c #767779",
"& 	c #787A7C",
"* 	c #7B7C7E",
"= 	c #797A7D",
"- 	c #7B7C80",
"; 	c #7D7E81",
"> 	c #919396",
", 	c #B7B9BD",
"' 	c #B7B9BB",
") 	c #B6B8BA",
"! 	c #B5B7B9",
"~ 	c #B4B6B8",
"{ 	c #B4B5B7",
"] 	c #B3B5B6",
"^ 	c #B4B6B7",
"/ 	c #B8BABC",
"( 	c #B7B9BA",
"_ 	c #B6B8B9",
": 	c #B9BBBD",
"< 	c #B3B5B7",
"[ 	c #555759",
"} 	c #D7D9DB",
"| 	c #D2D6D8",
"1 	c #D4D9DB",
"2 	c #DBDFE2",
"3 	c #DFE4E6",
"4 	c #E0E4E6",
"5 	c #E3E6E8",
"6 	c #E5E8EA",
"7 	c #E8EAEC",
"8 	c #EAEDEF",
"9 	c #ECEFF1",
"0 	c #EEF1F3",
"a 	c #EFF2F5",
"b 	c #F0F2F4",
"c 	c #F0F3F5",
"d 	c #F1F4F7",
"e 	c #F2F5F8",
"f 	c #F0F3F6",
"g 	c #F2F5F7",
"h 	c #F1F4F6",
"i 	c #EFF2F4",
"j 	c #EDF0F2",
"k 	c #E4E8EA",
"l 	c #E1E5E8",
"m 	c #E1E4E9",
"n 	c #DEE1E6",
"o 	c #DCDFE4",
"p 	c #63676A",
"q 	c #4B4F52",
"r 	c #353838",
"s 	c #BFC5CA",
"t 	c #C0C8CC",
"u 	c #BFC7C9",
"v 	c #CDD4D6",
"w 	c #CED3D6",
"x 	c #DCE1E4",
"y 	c #E1E3E7",
"z 	c #E5E6EA",
"A 	c #E8E9ED",
"B 	c #EBECEF",
"C 	c #ECEDF0",
"D 	c #ECEDF1",
"E 	c #EDEEF2",
"F 	c #EFF0F3",
"G 	c #EFF0F4",
"H 	c #F0F1F2",
"I 	c #EFF0F1",
"J 	c #EDEEF0",
"K 	c #E9EAEC",
"L 	c #E8E9EB",
"M 	c #CDD1D3",
"N 	c #CCCFD5",
"O 	c #CDD0D8",
"P 	c #CBCED7",
"Q 	c #D4D7DE",
"R 	c #6A6D72",
"S 	c #515558",
"T 	c #2C3131",
"U 	c #474B4A",
"V 	c #B3B9BE",
"W 	c #B3BCC1",
"X 	c #B5BDC0",
"Y 	c #969C9F",
"Z 	c #818689",
"` 	c #919699",
" .	c #939699",
"..	c #97989C",
"+.	c #999A9E",
"@.	c #9A9B9F",
"#.	c #9B9CA0",
"$.	c #9D9EA2",
"%.	c #9E9FA3",
"&.	c #9FA0A4",
"*.	c #A2A3A6",
"=.	c #A5A6AA",
"-.	c #A7A8AC",
";.	c #A7A8AA",
">.	c #AAABAD",
",.	c #ACADAF",
"'.	c #ADAEB0",
").	c #AFB0B2",
"!.	c #B2B3B5",
"~.	c #C3C6C9",
"{.	c #C2C5CA",
"].	c #C2C5CD",
"^.	c #BFC2CB",
"/.	c #D1D4DC",
"(.	c #787B80",
"_.	c #595D60",
":.	c #333837",
"<.	c #373C3B",
"[.	c #B6BDC2",
"}.	c #B4BCC1",
"|.	c #BBC3C5",
"1.	c #81878A",
"2.	c #717679",
"3.	c #75797C",
"4.	c #7C7E82",
"5.	c #86878B",
"6.	c #8F9094",
"7.	c #949599",
"8.	c #98999D",
"9.	c #A3A4A8",
"0.	c #ACADB1",
"a.	c #B4B5B9",
"b.	c #BABBBF",
"c.	c #BEBFC1",
"d.	c #C6C7C9",
"e.	c #CBCCCE",
"f.	c #D0D1D3",
"g.	c #D3D4D6",
"h.	c #D9DADC",
"i.	c #DCDDDF",
"j.	c #C1C3C5",
"k.	c #C0C4C6",
"l.	c #BEC1C7",
"m.	c #C0C3CB",
"n.	c #BDC0C9",
"o.	c #D0D3DB",
"p.	c #7D8086",
"q.	c #5A5E61",
"r.	c #353A3A",
"s.	c #343938",
"t.	c #3C403F",
"u.	c #BCC3C8",
"v.	c #BAC2C7",
"w.	c #BEC6C8",
"x.	c #8D9396",
"y.	c #787D80",
"z.	c #888B8E",
"A.	c #909195",
"B.	c #96979B",
"C.	c #A4A5A9",
"D.	c #AAABAF",
"E.	c #AFB0B4",
"F.	c #BBBCC0",
"G.	c #C2C3C7",
"H.	c #C4C5C7",
"I.	c #D4D5D7",
"J.	c #DADBDD",
"K.	c #DDDEE0",
"L.	c #C1C5C7",
"M.	c #C1C4C9",
"N.	c #BFC2CA",
"O.	c #CFD2DB",
"P.	c #7E8187",
"Q.	c #353B3A",
"R.	c #353A39",
"S.	c #353938",
"T.	c #BAC1C6",
"U.	c #B8C0C5",
"V.	c #909799",
"W.	c #7E8386",
"X.	c #898E91",
"Y.	c #909396",
"Z.	c #A0A1A5",
"`.	c #B0B1B5",
" +	c #B5B6BA",
".+	c #C1C2C6",
"++	c #C7C8CC",
"@+	c #CCCDCF",
"#+	c #D1D2D4",
"$+	c #D6D7D9",
"%+	c #DBDCDE",
"&+	c #C2C4C6",
"*+	c #C3C7C9",
"=+	c #C1C4CA",
"-+	c #C1C4CB",
";+	c #BEC1CA",
">+	c #5B5F62",
",+	c #373D3C",
"'+	c #343837",
")+	c #3C3F3E",
"!+	c #B9BFC4",
"~+	c #B5BDC2",
"{+	c #BCC4C6",
"]+	c #949A9D",
"^+	c #868B8E",
"/+	c #909497",
"(+	c #96999C",
"_+	c #B6B7BB",
":+	c #BCBDC1",
"<+	c #C6C7CB",
"[+	c #CDCED2",
"}+	c #D5D6D8",
"|+	c #C2C6C8",
"1+	c #CCCFD7",
"2+	c #797C82",
"3+	c #3B4140",
"4+	c #383C3B",
"5+	c #373B3A",
"6+	c #323433",
"7+	c #B7BDC2",
"8+	c #B2BABF",
"9+	c #B9C1C3",
"0+	c #969DA0",
"a+	c #8E9396",
"b+	c #959A9D",
"c+	c #9B9DA1",
"d+	c #A1A2A6",
"e+	c #C9CACE",
"f+	c #CCCDD1",
"g+	c #D2D3D7",
"h+	c #D8D9DB",
"i+	c #BFC1C2",
"j+	c #BEC1C8",
"k+	c #BCBFC8",
"l+	c #CBCED5",
"m+	c #7A7D82",
"n+	c #3F4443",
"o+	c #3A3F3D",
"p+	c #363A39",
"q+	c #343736",
"r+	c #B4BBC0",
"s+	c #B0B8BE",
"t+	c #B7BEC2",
"u+	c #99A0A4",
"v+	c #92979B",
"w+	c #999EA1",
"x+	c #A0A2A5",
"y+	c #A6A7AA",
"z+	c #B1B2B5",
"A+	c #B7B8BB",
"B+	c #BDBEC1",
"C+	c #C9CACD",
"D+	c #CECFD2",
"E+	c #D6D7DA",
"F+	c #BCBEC1",
"G+	c #C0C4CA",
"H+	c #BBBFC6",
"I+	c #B8BDC3",
"J+	c #B9BDC4",
"K+	c #C9CDD3",
"L+	c #7A7E82",
"M+	c #5B6062",
"N+	c #3D4342",
"O+	c #3E4341",
"P+	c #363938",
"Q+	c #2C2D2D",
"R+	c #B3BABF",
"S+	c #AEB6BD",
"T+	c #B5BCC2",
"U+	c #9BA1A7",
"V+	c #979CA0",
"W+	c #9EA3A7",
"X+	c #A6A9AB",
"Y+	c #B7B8BA",
"Z+	c #CACBCD",
"`+	c #CECFD1",
" @	c #D2D3D5",
".@	c #D7D8DA",
"+@	c #B8BBBE",
"@@	c #BEC2CB",
"#@	c #BBBFC7",
"$@	c #B6BBC1",
"%@	c #B6BBC0",
"&@	c #C7CCD0",
"*@	c #777C7F",
"=@	c #5A5F62",
"-@	c #3E4444",
";@	c #3E4342",
">@	c #393D3C",
",@	c #373938",
"'@	c #2B2C2B",
")@	c #B2B8BD",
"!@	c #ACB4BB",
"~@	c #B2B9BF",
"{@	c #9DA3A8",
"]@	c #A5A9AD",
"^@	c #ACAEB1",
"/@	c #B8B9BB",
"(@	c #C8C9CB",
"_@	c #B3B6B9",
":@	c #BABEC6",
"<@	c #B9BDC5",
"[@	c #B3B8BD",
"}@	c #C5CACD",
"|@	c #757A7D",
"1@	c #3E4443",
"2@	c #393B3A",
"3@	c #2B2D2C",
"4@	c #B1B8BD",
"5@	c #AAB2B9",
"6@	c #B0B7BD",
"7@	c #9EA5AA",
"8@	c #A4A9AD",
"9@	c #AAAFB3",
"0@	c #B2B5B7",
"a@	c #B9BABC",
"b@	c #CFD0D2",
"c@	c #AFB2B6",
"d@	c #B7BBC4",
"e@	c #B4B9C1",
"f@	c #B5BAC0",
"g@	c #B1B6BB",
"h@	c #C3C8CC",
"i@	c #767B7E",
"j@	c #595E61",
"k@	c #3C4242",
"l@	c #414544",
"m@	c #3E4241",
"n@	c #3A3D3C",
"o@	c #AEB4B9",
"p@	c #A8B0B7",
"q@	c #ADB4BA",
"r@	c #B1B6B9",
"s@	c #B9BBBE",
"t@	c #C0C1C3",
"u@	c #C5C6C8",
"v@	c #ABAEB2",
"w@	c #B7BBC3",
"x@	c #B3B7BF",
"y@	c #B3B8BE",
"z@	c #B0B5BA",
"A@	c #BEC3C7",
"B@	c #565B5E",
"C@	c #3F4545",
"D@	c #414645",
"E@	c #3F4342",
"F@	c #3E403F",
"G@	c #2C2E2D",
"H@	c #ACB2B7",
"I@	c #A6AEB5",
"J@	c #ABB2B8",
"K@	c #9FA6AB",
"L@	c #AFB4B8",
"M@	c #B8BCC0",
"N@	c #BFC1C4",
"O@	c #C7C8CA",
"P@	c #C9CACC",
"Q@	c #C3C4C6",
"R@	c #A5A8AC",
"S@	c #B5B9C2",
"T@	c #B2B6BE",
"U@	c #B1B6BC",
"V@	c #AEB3B9",
"W@	c #BCC1C4",
"X@	c #414747",
"Y@	c #424746",
"Z@	c #3F4241",
"`@	c #2E2F2E",
" #	c #AAB1B6",
".#	c #A4ACB3",
"+#	c #A7AEB4",
"@#	c #A1A7AC",
"##	c #B7BCC0",
"$#	c #BEC3C6",
"%#	c #C5C7CA",
"&#	c #CDCED0",
"*#	c #A0A3A7",
"=#	c #AFB4BC",
"-#	c #AFB4BA",
";#	c #AEB3B8",
">#	c #B9BEC2",
",#	c #74797C",
"'#	c #575C5F",
")#	c #424848",
"!#	c #444947",
"~#	c #434746",
"{#	c #414342",
"]#	c #2F3130",
"^#	c #A9B0B5",
"/#	c #A2AAB1",
"(#	c #A5ACB2",
"_#	c #A2A8AD",
":#	c #C5C9CD",
"<#	c #CBCDD0",
"[#	c #BFC0C2",
"}#	c #B3B4B6",
"|#	c #9A9DA1",
"1#	c #B1B5BD",
"2#	c #ADB2BA",
"3#	c #ADB2B8",
"4#	c #ADB2B7",
"5#	c #72777A",
"6#	c #575D5F",
"7#	c #454A48",
"8#	c #444847",
"9#	c #424544",
"0#	c #313232",
"a#	c #A7AEB2",
"b#	c #9FA8AF",
"c#	c #A1AAAF",
"d#	c #A4AAAF",
"e#	c #C7C9CE",
"f#	c #CDCDD2",
"g#	c #D1D2D5",
"h#	c #D5D7D9",
"i#	c #D7DBDC",
"j#	c #DADCDE",
"k#	c #C4C5C9",
"l#	c #BEBFC3",
"m#	c #B8B9BD",
"n#	c #B2B3B6",
"o#	c #95989D",
"p#	c #AEB2BB",
"q#	c #ABAFB7",
"r#	c #ABB0B6",
"s#	c #A8ADB2",
"t#	c #B6BBBE",
"u#	c #444A4A",
"v#	c #464B49",
"w#	c #424645",
"x#	c #434645",
"y#	c #333534",
"z#	c #A6ADB2",
"A#	c #9DA6AD",
"B#	c #9FA8AD",
"C#	c #A5AAB0",
"D#	c #CBCED3",
"E#	c #D1D1D6",
"F#	c #D6D6D9",
"G#	c #D8DBDC",
"H#	c #D9DEDE",
"I#	c #DBDEDF",
"J#	c #B7B8BC",
"K#	c #B1B2B6",
"L#	c #909298",
"M#	c #ADB1BA",
"N#	c #AAAEB6",
"O#	c #AAAFB5",
"P#	c #A7ACB2",
"Q#	c #B4B9BD",
"R#	c #585D60",
"S#	c #434949",
"T#	c #444948",
"U#	c #373837",
"V#	c #A5ACB1",
"W#	c #9BA4AA",
"X#	c #9CA6AB",
"Y#	c #A6ABB1",
"Z#	c #D1D4D9",
"`#	c #D6D6DB",
" $	c #DADADD",
".$	c #DADDDE",
"+$	c #D9DEDF",
"@$	c #DBDDDF",
"#$	c #ABACB0",
"$$	c #8B8D93",
"%$	c #ACAFB8",
"&$	c #A8ACB4",
"*$	c #A8ADB3",
"=$	c #A6ABB0",
"-$	c #B1B6BA",
";$	c #707578",
">$	c #434846",
",$	c #424443",
"'$	c #3C3E3D",
")$	c #A4ABB0",
"!$	c #99A2A8",
"~$	c #9BA4A9",
"{$	c #A6ACB1",
"]$	c #D6D8DD",
"^$	c #D9D9DE",
"/$	c #DBDBDE",
"($	c #D8DDDE",
"_$	c #D9DCDD",
":$	c #C1C2C4",
"<$	c #A9AAAE",
"[$	c #85888D",
"}$	c #AAAEB7",
"|$	c #A7ABB3",
"1$	c #A5AAAF",
"2$	c #B0B5B8",
"3$	c #424745",
"4$	c #454948",
"5$	c #414443",
"6$	c #97A0A6",
"7$	c #9AA4A9",
"8$	c #D9DBE0",
"9$	c #DBDBE0",
"0$	c #DCDCDF",
"a$	c #D7DDDD",
"b$	c #D9DBDD",
"c$	c #BBBCBE",
"d$	c #929397",
"e$	c #808388",
"f$	c #A9ADB5",
"g$	c #A5A9B1",
"h$	c #A3A8AD",
"i$	c #AEB3B7",
"j$	c #6D7275",
"k$	c #A0A6AB",
"l$	c #959FA5",
"m$	c #9AA4A8",
"n$	c #DADDE2",
"o$	c #DCDCE1",
"p$	c #DCDCE0",
"q$	c #D7DCDC",
"r$	c #D6D8DA",
"s$	c #BABBBD",
"t$	c #AFB0B3",
"u$	c #A8A9AD",
"v$	c #A2A3A7",
"w$	c #9C9DA1",
"x$	c #919296",
"y$	c #8C8D91",
"z$	c #7C7F84",
"A$	c #A4A8B0",
"B$	c #A2A7AC",
"C$	c #6C7174",
"D$	c #545A5C",
"E$	c #464A49",
"F$	c #4C4E4D",
"G$	c #939CA2",
"H$	c #97A0A5",
"I$	c #DEE0E5",
"J$	c #DEDEE3",
"K$	c #DBDBDF",
"L$	c #D4D9DA",
"M$	c #D3D6D7",
"N$	c #B5B6B8",
"O$	c #95969A",
"P$	c #8B8C90",
"Q$	c #7A7C82",
"R$	c #ABAFB8",
"S$	c #A5AAB2",
"T$	c #6B7073",
"U$	c #53585B",
"V$	c #404646",
"W$	c #464B4A",
"X$	c #555756",
"Y$	c #9EA3A6",
"Z$	c #949CA1",
"`$	c #99A1A6",
" %	c #9CA0A6",
".%	c #BBBDC2",
"+%	c #C5C6CB",
"@%	c #CCCED2",
"#%	c #CFD2D5",
"$%	c #D0D4D6",
"%%	c #CED0D2",
"&%	c #A8A9AB",
"*%	c #999B9F",
"=%	c #94969A",
"-%	c #8E9093",
";%	c #8A8C90",
">%	c #848689",
",%	c #808286",
"'%	c #76797E",
")%	c #A8ADB5",
"!%	c #AEB3B6",
"~%	c #52575A",
"{%	c #424847",
"]%	c #313333",
"^%	c #A2A4A4",
"/%	c #969A9C",
"(%	c #999DA2",
"_%	c #AEB2B7",
":%	c #B7BBC0",
"<%	c #B9BDC2",
"[%	c #BEC2C7",
"}%	c #B5B9BC",
"|%	c #B4B7B9",
"1%	c #AAADB0",
"2%	c #ABADB0",
"3%	c #A5A7AA",
"4%	c #A3A6A9",
"5%	c #A1A4A7",
"6%	c #9EA0A4",
"7%	c #9B9FA2",
"8%	c #94989B",
"9%	c #8F9396",
"0%	c #888C8F",
"a%	c #828689",
"b%	c #7B7F82",
"c%	c #7A7E81",
"d%	c #71757A",
"e%	c #B2B6BF",
"f%	c #ADB2B5",
"g%	c #6F7477",
"h%	c #AAADAC",
"i%	c #A1A5A7",
"j%	c #9FA5AB",
"k%	c #ADB3B9",
"l%	c #B6BCC3",
"m%	c #BCC2C8",
"n%	c #C1C7CE",
"o%	c #C8CDD4",
"p%	c #CCD2D9",
"q%	c #CFD4DA",
"r%	c #D3D9DE",
"s%	c #D3D9DD",
"t%	c #C7CCD1",
"u%	c #BDC2C7",
"v%	c #BCC1C6",
"w%	c #A7ACB0",
"x%	c #979B9F",
"y%	c #8D9194",
"z%	c #83868A",
"A%	c #797C80",
"B%	c #72767A",
"C%	c #6F7377",
"D%	c #74787B",
"E%	c #6F7378",
"F%	c #ABB0B7",
"G%	c #AFB4B7",
"H%	c #3D4140",
"I%	c #A0A2A2",
"J%	c #A9AFB1",
"K%	c #A4ACB4",
"L%	c #ADB5BD",
"M%	c #B3BBC4",
"N%	c #B9C1CA",
"O%	c #B5BDC6",
"P%	c #BAC2CB",
"Q%	c #BEC6CF",
"R%	c #C4CCD3",
"S%	c #C6CED4",
"T%	c #CDD4DB",
"U%	c #C6CDD4",
"V%	c #BAC2C8",
"W%	c #C7CFD5",
"X%	c #D6DDE4",
"Y%	c #D6DDE3",
"Z%	c #DADEE3",
"`%	c #D5D9DE",
" &	c #D3D7DB",
".&	c #CED2D6",
"+&	c #C1C5CA",
"@&	c #AFB3B8",
"#&	c #9A9EA3",
"$&	c #8F9399",
"%&	c #ACB0B8",
"&&	c #454B4B",
"*&	c #BABEC0",
"=&	c #BEC6CE",
"-&	c #B2BAC3",
";&	c #B8C0C9",
">&	c #B7BFC7",
",&	c #C0C8D1",
"'&	c #BFC7D0",
")&	c #BFC8CF",
"!&	c #C2CBD2",
"~&	c #C4CDD4",
"{&	c #C7D0D7",
"]&	c #C8D1D8",
"^&	c #C6CFD6",
"/&	c #CBD2D7",
"(&	c #CED4D8",
"_&	c #D2D8DD",
":&	c #D6DCE1",
"<&	c #D3D9DF",
"[&	c #B3B7C0",
"}&	c #A7ACB4",
"|&	c #9EA3A8",
"1&	c #ACB1B5",
"2&	c #404543",
"3&	c #2E3231",
"4&	c #B4B8BE",
"5&	c #BEC3C9",
"6&	c #BCC0C7",
"7&	c #B0B5BB",
"8&	c #A5AAB1",
"9&	c #9FA4AB",
"0&	c #A2A9B0",
"a&	c #AAB2B8",
"b&	c #B6BEC5",
"c&	c #C0C8CF",
"d&	c #C3CBD2",
"e&	c #C6CED5",
"f&	c #C7CFD6",
"g&	c #C6CDD3",
"h&	c #C4CBD1",
"i&	c #BDC4CA",
"j&	c #C9D0D6",
"k&	c #CDD4DA",
"l&	c #CDD3DA",
"m&	c #A9AEB2",
"n&	c #73787B",
"o&	c #343937",
"p&	c #C4C5C8",
"q&	c #C8C9CC",
"r&	c #DADBDF",
"s&	c #D9DDE1",
"t&	c #CFD5DA",
"u&	c #A4AAAE",
"v&	c #AFB6BB",
"w&	c #C1C9CF",
"x&	c #BDC5CC",
"y&	c #B5BDC4",
"z&	c #C2CAD1",
"A&	c #C3CBD1",
"B&	c #C3C9D1",
"C&	c #B6BAC3",
"D&	c #B0B5BD",
"E&	c #ADB2B6",
"F&	c #252A28",
"G&	c #C0C3C6",
"H&	c #D5D8DB",
"I&	c #DEE1E4",
"J&	c #CFD2D6",
"K&	c #A9B2B8",
"L&	c #A3ACB2",
"M&	c #B3BCC3",
"N&	c #B6BFC6",
"O&	c #B8C0C7",
"P&	c #B8BCC4",
"Q&	c #B5BAC1",
"R&	c #B2B7BD",
"S&	c #4F5457",
"T&	c #2D3232",
"U&	c #BBBEC0",
"V&	c #DBDEE0",
"W&	c #D8DCDF",
"X&	c #94979B",
"Y&	c #8B8F93",
"Z&	c #979BA0",
"`&	c #ABAFB4",
" *	c #999DA1",
".*	c #A9ADB0",
"+*	c #878B8E",
"@*	c #585D5F",
"                                                                                                ",
"                                                                                                ",
"                                                                                                ",
"                                                                                                ",
"                                                                                                ",
"                                                                                                ",
"              . + @ # $ % & * = = - ; - > , , ' ) ! ~ ~ { ] ^ / ( _ ) : < [                     ",
"            } | 1 2 3 4 5 6 7 8 9 0 a b c d e d f g h a c i j k l m n o p q r                   ",
"            s t u v w x y z A B C D E F G G G H I H J K K L 7 M N O P Q R S T U                 ",
"            V W X Y Z `  ...+.@.#.$.%.&.*.=.-.;.>.,.'.,.).!.~ ~.{.].^./.(._.:.<.                ",
"            [.}.|.1.2.3.4.5.6.7.8.%.9.-.0.a.b.c.d.e.f.g.h.i.j.k.l.m.n.o.p.q.r.s.t.              ",
"            u.v.w.x.y.Z z.A.B.#.%.C.D.E.a.F.G.H.e.f.I.h.J.K.H.L.M.N.^.O.P.q.Q.R.S.              ",
"            T.U.w.V.W.X.Y.B.@.Z.C.D.`. +F..+++@+#+$+h.%+%+K.&+*+=+-+;+O p.>+,+<.'+)+            ",
"            !+~+{+]+^+/+(+#.&.=.D.`._+:+G.<+[+#+}+h.%+i.i.i.j.|+M.m.;+1+2+>+3+4+5+6+            ",
"            7+8+9+0+a+b+c+d+=.0.`._+:+G.e+f+g+}+h+%+%+%+J.J.i+k.l.j+k+l+m+>+n+o+p+q+            ",
"            r+s+t+u+v+w+x+y+,.z+A+B+H.C+D+g.E+J.%+i.i.%+h.h+F+G+H+I+J+K+L+M+N+O+5+P+Q+          ",
"            R+S+T+U+V+W+X+,.!.Y+c.H.Z+`+ @.@h.%+i.%+J.J..@$++@@@#@$@%@&@*@=@-@;@>@,@'@          ",
"            )@!@~@{@W+]@^@!./@c.H.(@`+I..@J.%+%+%+J.h+$+g.f._@:@<@$@[@}@|@=@1@n+t.2@3@          ",
"            4@5@6@7@8@9@0@a@c.H.Z+`+g..@h.%+%+%+%+h..@g.b@@+c@d@e@f@g@h@i@j@k@l@m@n@3@          ",
"            o@p@q@7@9@r@s@t@u@Z+b@I..@h.%+%+J.J.h+I. @b@Z+d.v@w@x@y@z@A@*@B@C@D@E@F@G@          ",
"            H@I@J@K@L@M@N@O@e.b@g.h+J.%+i.i.%+h.$+ @`+P@Q@t@R@S@T@U@V@W@i@B@X@Y@l@Z@`@          ",
"             #.#+#@###$#%#e.b@I.h+%+i.i.i.%+h.$+ @&#P@H.c.a@*#x@=#-#;#>#,#'#)#!#~#{#]#          ",
"            ^#/#(#_#A@:#<##+}+.@J.i.%+J.J.h.$+#+&#O@Q@[#/@}#|#1#2#3#4###5#6#)#7#8#9#0#          ",
"            a#b#c#d#e#f#g#h#i#j#%+%+J.J..@}+f.f+++k#l#m#n#0.o#p#q#r#s#t#5#'#u#v#w#x#y#          ",
"            z#A#B#C#D#E#F#G#H#I#i.%+J.h+I. @@+++.+:+J#K#D.=.L#M#N#O#P#Q#2.R#S#T#~#9#U#          ",
"            V#W#X#Y#Z#`# $.$+$@$%+h..@I.b@@+d.G.:+J#`.#$C.&.$$%$&$*$=$-$;$R#)#>$8#,$'$          ",
"            )$!$~${$]$^$/$.$($_$h.$+I.#+@+(@:$:+ +E.<$C.$...[$}$|$P#1$2$;$j@)#3$4$5$            ",
"            @#6$7$C#8$9$0$j#a$b$h+I.#+@+d.:$c$_+E.D.9.&.8.d$e$f$g$Y#h$i$j$B@)#!#U Z@            ",
"            k$l$m$C#n$o$p$j#q$r$g.b@e.d.[#s${ t$u$v$w$8.x$y$z$f$A$C#B$i$C$D$X@Y@E$F$            ",
"            7@G$H$Y#I$J$K$} L$M$b@Z+d.t@a@N$).u$d+w$O$x$P$5.Q$R$S$C#B$i$T$U$V$W$~#X$            ",
"            Y$Z$`$ %.%+%@%#%$%%%&#O@t@s$}#'.&%x+*%=%-%;%>%,%'%M#)%P#h$!%C$~%{%E$4$]%            ",
"            ^%/%(%_%:%<%[%:%<%}%|%1%2%3%4%5%6%7%8%9%0%a%b%c%d%e%N#O#1$f%g%U$)#4$l@              ",
"            h%i%j%k%l%m%n%o%p%q%r%s%t%u%v%[@w%x%y%z%A%B%C%D%E%S@F%O#s#G%g%'#u#!#H%              ",
"            I%J%K%L%M%N%O%P%Q%R%S%T%U%V%W%X%Y%Z%`% &.&+&@&#&$&e%%&*$=$!%5#j@&&~#S.              ",
"              *&=&-&;&-&>&,&'&)&!&!&~&{&]&^&{&/&(&_&r%_&:&:&<&[&}&P#|&1&,#j@&&2&3&              ",
"                  4&5&6&7&8&9&0&a&b&c&d&e&f&R%g&h&i&h&j&j&k&l&[&f$*$B$m&n&=@S#o&                ",
"                        p&q&r&s&t&s o@@#{@u&v&V%w&x&y&z&A&S%B&C&D&V@s#E&2.'#V$F&                ",
"                                    G&H&I&2 J&u.K&L&b#p@M&N&O&P&Q&R&;#9@2.S&T&                  ",
"                                              _@U&V&I&W&G&X&Y&Z&`&@& *.*+*@*                    ",
"                                                                                                ",
"                                                                                                ",
"                                                                                                ",
"                                                                                                ",
"                                                                                                ",
"                                                                                                ",
"                                                                                                ",
"                                                                                                ",
"                                                                                                "};
