/* XPM */
static char *devel_48x48[] = {
/* columns rows colors chars-per-pixel */
"48 48 144 2",
"   c #050505",
".  c #151416",
"X  c #241f21",
"o  c #29282a",
"O  c #232c3f",
"+  c #35242d",
"@  c #372730",
"#  c #353535",
"$  c #212e49",
"%  c #3f4757",
"&  c #4e2e41",
"*  c #4a3841",
"=  c #603d4f",
"-  c #464646",
";  c #585859",
":  c #505767",
">  c #6f4e5f",
",  c #62535b",
"<  c #724f63",
"1  c #7d566a",
"2  c #696969",
"3  c #777577",
"4  c #276eec",
"5  c #2a71ec",
"6  c #3175ef",
"7  c #397af2",
"8  c #596887",
"9  c #506797",
"0  c #4563a1",
"q  c #657086",
"w  c #767b9c",
"e  c #7fae76",
"r  c #4b86fa",
"t  c #548cf6",
"y  c #5d92ff",
"u  c #608ff1",
"i  c #6898fd",
"p  c #759bea",
"a  c #759cf8",
"s  c #78a3fe",
"d  c #81476a",
"f  c #934e77",
"g  c #9f4d81",
"h  c #977588",
"j  c #a4558a",
"k  c #ae618c",
"l  c #a7729f",
"z  c #b26f94",
"x  c #b76bb9",
"c  c #9272d0",
"v  c #a46ec4",
"b  c #cc6aaf",
"n  c #c375a2",
"m  c #ce7ab9",
"M  c #d478b4",
"N  c #81af7a",
"B  c #84b27c",
"V  c #898989",
"C  c #848a98",
"Z  c #979797",
"A  c #8c96ad",
"S  c #8cb684",
"D  c #93ba8b",
"F  c #98bb92",
"G  c #82aea3",
"H  c #9ba5ba",
"J  c #b88ba5",
"K  c #b391a4",
"L  c #a1b89c",
"P  c #a2a2a2",
"I  c #a9b9a7",
"U  c #b7a3b2",
"Y  c #b1bfaf",
"T  c #bababa",
"R  c #87a0d0",
"E  c #9baac9",
"W  c #93abdc",
"Q  c #86a5e5",
"!  c #84abfd",
"~  c #8cb1fe",
"^  c #92ade4",
"/  c #9bb2e2",
"(  c #97b8fe",
")  c #b88bd0",
"_  c #a597e0",
"`  c #a7a3c3",
"'  c #aeb6c9",
"]  c #a1b4de",
"[  c #b3b8c2",
"{  c #a0beff",
"}  c #b6a8e5",
"|  c #9cc196",
" . c #a2c39c",
".. c #aac9a5",
"X. c #b1cdac",
"o. c #bac7b8",
"O. c #b4d0af",
"+. c #b8d2b4",
"@. c #aec1ea",
"#. c #a8c4fe",
"$. c #b3ccff",
"%. c #bbd1fe",
"&. c #c081a5",
"*. c #c89cb5",
"=. c #d987bb",
"-. c #c6a3b9",
";. c #cb82c0",
":. c #da8cc0",
">. c #dd93c2",
",. c #cda7d9",
"<. c #cebdc7",
"1. c #daa0ce",
"2. c #c2b9eb",
"3. c #d4b9e2",
"4. c #e29ac6",
"5. c #e5a6cc",
"6. c #e7add1",
"7. c #ebb8d6",
"8. c #c1d8bd",
"9. c #c6c9c7",
"0. c #c8dcc5",
"q. c #d0dace",
"w. c #c2c8f5",
"e. c #c7d9fe",
"r. c #d0d7e5",
"t. c #d3dafa",
"y. c #cde0ca",
"u. c #d1e1ce",
"i. c #d8e6d6",
"p. c #d7e3fe",
"a. c #eec3dc",
"s. c #f0c5dd",
"d. c #e6cbe6",
"f. c #f1cce1",
"g. c #f4d8e8",
"h. c #e0ebde",
"j. c #e2ede1",
"k. c #e5ebfd",
"l. c #ebf2e9",
"z. c #ecf2ff",
"x. c #f5e3ee",
"c. c #f9ebf3",
"v. c #f5f6f9",
"b. c None",
/* pixels */
"T T T T T T T T T T T T T T T T T T T T T T T T T I F D S D F I T T T T T T T T T T T T T T T T ",
"T T T T T T T T T T T T T T T T T T T T T T T I S S D F F  . . . .T T T T T T T T T T T T T T T ",
"T T T T T T T T T T T T T o.[ T T T T T T T L S D F  . . .........X.T T T T T T T T T T T T T T ",
"T T T T T T T T T T T T T T T T T T T T T L S D F  .....O.O.+.+.+.O.Y Y T T T T T T T T T T T T ",
"T T T T T T T T T T T T T T T T T T T T Y D D  . ...X.+.+.8.8.8.8.8.| e N D Y T T T T T T T T T ",
"T T T T T T T T T T T T T T T T T T T T F F  . .O.O.+.8.0.y.y.y.0.0. .D D S D Y T T T T T T T T ",
"T T T T T T T T T T T T T T T T T T T T F  . .X.+.+.8.y.u.u.i.i.i.u... .L  .| L T T T T T T T T ",
"T T T T T T T T T T T T T T T T T T T T F  ...+.8.8...| D  .8.h.h.0.X.O.X.X... .T T T T T T T T ",
"T T T T T T T T T T T T T T T T T T T T  ...O.+...B B B S B B ..j.0.8.y.8.+.+.X.T T T T T [ -.T ",
"T T T T T T T T T T T T T T T T T T T T ....+...S | |  . .| | S 8.u.i.i.u.y.8.o.T T T T T o.o.T ",
"T T T T T T T T T T T T T T T T T T T T T X.+.L  ...O.+.O.X. .| y.j.l.l.j.u.0.T T T T T T T T T ",
"T T T T T T T T T T T T T T T T T T T T T T Y ..+.8.y.y.y.8.O...i.l.v.v.j.q.T T T T T T T T T T ",
"T T T T T T T T T T T T T T T T T T T T T T T o.8.i.h.h.i.y.+.y.i.l.l.i.9.T [ o.-.[ T T T T T T ",
"T T T T T T T T T T <.T T T T T T T T T T T T 8.u.h.v.v.h.y.O.+.0.0.9.T T T T o.o.o.T T T T T T ",
"T T T T T T T T T T T T T T T T T T T T T T T T o.9.q.+.X...+.0.u.i.o.-.T T T -.T T T o.T T T T ",
"T T T T T T T T T T T T T T T T T T T T T T T [ o.` R G ..+.0.i.j.9.o.T T T T T T T T [ T T T T ",
"T T T T o.-.o.-.T T T T T T T T T T T T T T T T T t r r 7 t u ! W E T T T T T T T T T T T T T T ",
"T T T T o.[ o.T T T T T T T T T T T T T T T T T @.( ( ~ ! s s a i y H T T T T T T T T T T T T T ",
"T T <.T [ -.T T T T T T T [ T T T T T T T T T <.r.%.e.t.e.e.%.$.#.{ ; T T T T T T T T T T T T T ",
"T T [ o.o.o.T T T T T T T T T T T T T T T T T T ' i 7 r s ! ~ ( A C Z T T T T T T T T T T T T T ",
"T T T T T T T T T T T T T T T T T T T T T T T T Q t 5 i i i i y . 2 T T T T T T T T T T T T T T ",
"T T T T T T T T T T T T T T T T T T T T T T T ' s 6 r s s i s 0 ; T T T T T T T T T T T T T T T ",
"T T T T T T T T o.o.T T T T T T T T T T T T T ^ t 4 s s s s s $ V T T T T T T T T T T T T T T T ",
"T T T T T T T T [ -.T T T T T T T T T T T T [ ! 5 t ! ! ! s p . T T T T T T T T T T T T T T T [ ",
"T T T T T T T T T T T T T T T T T T T T T T / t 4 s ~ ~ ~ ~ 9 - T T T T T T T T T T T T T T T T ",
"T T T T T T T T T T T T T T T T T T T T T T ! 4 t ( ~ ( ~ ~ O e T T T T T T T T T T T T T T T T ",
"T T T T T T T T T T T T T T T T T T T T T ] t 4 ~ ( { ( ( Q   U T T T T T T T T T T T T T T T T ",
"T T T T T T T T T T T T T T T T T T T [ ' ( ~ ~ #.{ { #.{ 9 # T T T T T T T T T T T T T T T T T ",
"T T T T T T T T T T T T T T T T [ ] ( ( ( { { #.#.#.#.#.#.2 2 [ T T T T T T T T T T T T T T T T ",
"T T T T T T T T T T T T T T ' ^ ~ ~ ( ( ( #.#.$.$.$.$.$.$.#./ C T T T T T T T T T T T T T T T T ",
"T T T T T T T T T T T T T ^ s ~ ~ ( ( ( #.#.#.$.$.%.$.%.%.$.$.#.q P T T T T T T T T T T T T T T ",
"T T T T T T T T T T T ' Q s s ~ ~ ( ( #.#.$.%.%.%.e.e.%.e.%.%.$.#.: T T T T T T T T T T T T T T ",
"T T T T o.o.[ T T T T a s s ! ~ ( ( #.#.$.%.%.e.e.e.e.e.e.%.%.%.$.W ; T T T T T T T T T T T T T ",
"T T T T -.T T T T T s i s s ! ~ ( { #.#.$.%.e.e.e.p.e.p.p.e.e.e.%.$.% T T T T T T T T T T T T T ",
"T T T T T T o.-.T W i i s s ~ ( ( #.#.$.%.e.e.e.p.p.p.p.p.p.e.e.%.%.8 V T T T T T T T T T T T T ",
"T T T T T [ o.[ [ i i s s ! ~ ~ ( #.#.%.%.e.t.p.p.p.k.k.p.p.p.t.e.%.w 3 T T T T T T T T T T T T ",
"T T T T T T o.o.` c i s s ! ~ ) } #.$.%.e.t.t.p.k.z.z.z.k.p.p.p.e.,.d 3 T T T T T T T T T T T T ",
"T T T T T T -.T l v i a ! ! _ M M } $.%.e.t.t.k.k.z.v.v.z.k.p.t.1.=.& V T T T T T T T T T T T T ",
"T T [ T T T T T j x i a s _ =.M =.=.2.w.3.1.4.6.k.z.v.v.z.k.r.4.4.=.. Y T T T T T T T T T T T T ",
"T T T T T T T T g b p s _ =.=.>.>.>.4.4.5.5.5.5.d.v.v.v.x.a.6.5.5.> - T T T T T T T T T T T T T ",
"T T T [ T T T T f M m ;.M :.:.4.4.5.5.6.6.7.7.7.a.s.s.s.a.a.7.6.J   P T T T o.-.T T T T T T T T ",
"T T T o.T T T T 1 b M :.>.>.4.4.1.6.6.7.7.a.a.s.s.f.f.f.s.s.s.-.. 2 T T T [ o.T T T T T T T T T ",
"T T T T T T T T 3 k =.:.>.4.4.5.6.6.7.a.s.s.g.g.g.x.x.x.x.g.U . * T T T T T T T T T T T T T T T ",
"T T T T T T T T T * z >.>.4.1.6.6.7.a.s.s.g.g.x.c.c.c.c.x.3   - T T T T T T T T T T T T T T T T ",
"T T T T T T T T T Z + z :.1.5.6.7.7.a.s.s.g.g.x.c.c.c.P o   2 T T T T T o.[ T T T T T T T T T T ",
"T T T T T T T T T T P o = n >.5.6.a.7.a.s.g.g.g.<.3 .   * P T T T T T T T T T T T T T T T T T T ",
"T T T T T T T T T T T T 2 . @ < h &.*.-.K h , X     - Z T T [ o.T T T T T T T T -.o.T T T T T T ",
"-.T T T T T T T T T T T T T V ; o .       . o ; V T T T T T T o.T T T T T T T T T T T T T T T T "
};
