/* XPM */
static char *editors_32x32[] = {
/* columns rows colors chars-per-pixel */
"32 32 44 1",
"  c #0b0b0b",
". c #191919",
"X c #292929",
"o c #393939",
"O c #474747",
"+ c #575757",
"@ c #676767",
"# c #767676",
"$ c #cc913b",
"% c #cd9543",
"& c #d09a4b",
"* c #d39e51",
"= c #d6a357",
"- c #cca366",
"; c #cbaa77",
": c #dcad67",
"> c #d0ac74",
", c #dfb26f",
"< c #e1b46e",
"1 c #e2b877",
"2 c #888888",
"3 c #969696",
"4 c #a8a8a7",
"5 c #bbb6ad",
"6 c #bababa",
"7 c #caae85",
"8 c #c8b08a",
"9 c #c4b194",
"0 c #d9be94",
"q c #c3bfb7",
"w c #cbc2b4",
"e c #d9cab2",
"r c #e9ca9a",
"t c #e1c8a1",
"y c #eed3a9",
"u c #e7d4b7",
"i c #c5c5c5",
"p c #d7d2cb",
"a c #d8d8d8",
"s c #ebdec9",
"d c #e5e0d7",
"f c #e9e9e8",
"g c #f3f3f3",
"h c None",
/* pixels */
"66666666666666666666666666666666",
"66666666666666666666666666666666",
"66666666666666666666666666666666",
"6666666666666666666666666666666i",
"666666666666666666i6666666666q66",
"66666666666666666666666666666t0q",
"666666666666666666666666666wr1=>",
"66666666666666666666666666wr1$-5",
"4443333333223366666666666wr1$-66",
"+O34@++OooX.@63666666666ey,$;566",
"3Opg3@#234iafga4566666qer:$;6666",
"6+@fggggggggggga466666ey:$;56666",
"66o#fggggggfgfgfa466wer=$7666666",
"662X6gggggggfgfgfa45ur=$8q666666",
"666+Oigggggggfgfffaur&%966666666",
"6664X@fgggggfgffffur&%9666666666",
"6666#X3fgggfgffffsr**94666666666",
"66664Oo4ggggfgifdfy<sa4466666666",
"666664.+ifgfgiia434pffa646666666",
"666666@.2agfi646446pfaff64666666",
"6666666oX2ff66aiffafaffaai466666",
"66666663 +6faffifffffaaai4O#666i",
"66666666@ @6afffapi643#@+O. 2666",
"666666664XX2664332@+oX...o@24666",
"6666666663 o@+Oo.  Xo+2466666666",
"6666666666O .  X+#34666666666666",
"66666666664@#3666666666666666666",
"i6666666666666666666666666i66666",
"6i666666666666666666666666666666",
"66666666666666666666666666666666",
"66666666666666666666666666666666",
"66666666666666666666i66666666666"
};
