/* XPM */
static char *internet_32x32[] = {
/* columns rows colors chars-per-pixel */
"32 32 186 2",
"   c #050506",
".  c #000110",
"X  c #17150f",
"o  c #181716",
"O  c #010324",
"+  c #040a3a",
"@  c #163b01",
"#  c #222d12",
"$  c #222026",
"%  c #383838",
"&  c #000446",
"*  c #093465",
"=  c #242852",
"-  c #284a10",
";  c #37587a",
":  c #29656b",
">  c #423f32",
",  c #48463b",
"<  c #484748",
"1  c #4d4c54",
"2  c #504c54",
"3  c #5b584d",
"4  c #575757",
"5  c #444661",
"6  c #696969",
"7  c #787878",
"8  c #00129a",
"9  c #001ab3",
"0  c #002184",
"q  c #093f83",
"w  c #1c33b9",
"e  c #0014d4",
"r  c #0017ea",
"t  c #001ff2",
"y  c #023dd7",
"u  c #0121e1",
"i  c #0127f9",
"p  c #0332ee",
"a  c #0339fe",
"s  c #277d97",
"d  c #2576b9",
"f  c #105edc",
"g  c #0446fd",
"h  c #0d5ce6",
"j  c #0357fd",
"k  c #1a74d2",
"l  c #0d65e7",
"z  c #0568fc",
"x  c #0f71ec",
"c  c #0476fd",
"v  c #1079ec",
"b  c #237bc1",
"n  c #297be3",
"m  c #7c7f80",
"M  c #719533",
"N  c #5b8a46",
"B  c #54bb57",
"V  c #59b87a",
"C  c #769849",
"Z  c #66bd61",
"A  c #4ec438",
"S  c #57c63f",
"D  c #64cb3c",
"F  c #7cd73a",
"G  c #67ca46",
"H  c #65c45f",
"J  c #70ce45",
"K  c #7bd645",
"L  c #75d15e",
"P  c #6ac862",
"I  c #60c17a",
"U  c #70c764",
"Y  c #79d279",
"T  c #2a8bb8",
"R  c #3499af",
"E  c #2eacb8",
"W  c #26b5ac",
"Q  c #3ba8b4",
"!  c #1885dd",
"~  c #0789fb",
"^  c #0697fe",
"/  c #1685e7",
"(  c #1b98e4",
")  c #1295f0",
"_  c #11a8cd",
"`  c #06a8fc",
"'  c #08b9fd",
"]  c #1baae2",
"[  c #1eb8e8",
"{  c #2996c3",
"}  c #3998d3",
"|  c #32a0ce",
" . c #23a8ed",
".. c #2eb9f3",
"X. c #36b1ff",
"o. c #06c7fe",
"O. c #06d3fe",
"+. c #15c3f9",
"@. c #1bd6ed",
"#. c #07eafe",
"$. c #34c5d7",
"%. c #3fead2",
"&. c #4ebd85",
"*. c #54b4a8",
"=. c #4ba7cb",
"-. c #48b2fe",
";. c #56a9e5",
":. c #5bbef1",
">. c #66badc",
",. c #77afd1",
"<. c #73a8ed",
"1. c #4bc6a6",
"2. c #58cca7",
"3. c #5ee8b3",
"4. c #6bcc88",
"5. c #76d988",
"6. c #63d9a6",
"7. c #6de4a0",
"8. c #74e3a8",
"9. c #45e9c6",
"0. c #77c4f3",
"q. c #848967",
"w. c #81847d",
"e. c #96a67d",
"r. c #8cdc3b",
"t. c #90e33a",
"y. c #8ada45",
"u. c #8ad850",
"i. c #9bc75b",
"p. c #94dc46",
"a. c #8cdd77",
"s. c #9ce148",
"d. c #99ea74",
"f. c #a6e845",
"g. c #abe750",
"h. c #b1eb45",
"j. c #b8ed50",
"k. c #b8f94c",
"l. c #bff052",
"z. c #aeef62",
"x. c #a4f166",
"c. c #d88d68",
"v. c #eea37e",
"b. c #c6f13c",
"n. c #c0ee49",
"m. c #cbf44b",
"M. c #c6f45b",
"N. c #daf949",
"B. c #888888",
"V. c #8e8e91",
"C. c #999998",
"Z. c #8db98c",
"A. c #a3a298",
"S. c #b8a49a",
"D. c #a7a7a7",
"F. c #a8b7aa",
"G. c #b1afb4",
"H. c #b6b3a6",
"J. c #bababa",
"K. c #8ab6cc",
"L. c #82bbd5",
"P. c #93b9c8",
"I. c #93b6eb",
"U. c #acb7c9",
"Y. c #bfbfc1",
"T. c #88ce93",
"R. c #80d685",
"E. c #93c788",
"W. c #b1c09d",
"Q. c #adc4ae",
"!. c #bfc0bf",
"~. c #b9f2b9",
"^. c #a7c9da",
"/. c #bec1c3",
"(. c #afc3ed",
"). c #aed0f3",
"_. c #d8ab95",
"`. c #c3b3ac",
"'. c #c3bcbb",
"]. c #c9c7bd",
"[. c #c5c5c5",
"{. c #d1d1d1",
"}. c #efd2c3",
"|. c #f1e1d8",
" X c #fff4e0",
".X c None",
/* pixels */
"J.J.J.J.J.J.J.J.J.J.J.J.J.J.J.J.J.J.J.J.Y.J.J.J.J.J.J.J.J.J.J.J.",
"J.J.J.J.J.J.J.J.J.J.J.J.J.J.J.J.J.J.J.J.J.J.J.J.J.J.J.J.J.J.J.Y.",
"J.J.J.J.J.J.J.J.J.J.J.J.J.!.[.Y.J.J.J.J.J.J.J.J.J.J.J.J.J.J.J.J.",
"J.J.J.J.J.J.J.J.!.[.J.J.G.7 6 A.Y.J.J.J.J.J.J.J.J.J.J.J.J.J.J.J.",
"J.J.J.J.J.J.[.J.C.D.J.J.C.V.D.F.Q.J.J.J.J.J.J.J.J.J.J.J.J.J.J.J.",
"J.J.J.J.J.J.G.7 7 B.G.J.[.].[.~.5.J.J.J.J.J.J.J.J.J.J.J.J.J.J.J.",
"J.J.J.J.J.!.J.S.J.J.H.[.^.P.P.T.E.J.J.J.J.J.J.J.J.J.J.J.J.J.J.J.",
"J.J.J.J.J.J.}.v.`.!.L...' ` ` ] ,.`.J.J.J.J.J.J.Y.J.J.J.J.J.J.J.",
"J.J.J.J.J.J._.c.`.>.' o.o.o.o.' ^ ;.'.J.J.J.J.J.J.J.J.J.J.J.J.J.",
"J.J.J.J.J.J.J.`.K.' O.O.+.` ~ ~ W _ ,.'.J.J.J.Y.J.J.J.J.J.J.J.J.",
"J.J.J.J.J.J.J.J...o.o.:.I.n l b D S B Z.J.Y.Y.G.J.J.J.J.J.J.J.J.",
"J.J.J.J.J.J.J.J.+.` <.|.).} V V F J D A Z G.[.Y.J.'.Y.J.J.J.J.J.",
"J.J.J.J.J.J.'.U.1.R (. X).( s.s.y.K J G A B w.> , 6 V.J.J.J.J.J.",
"J.J.J.J.J.J.J.W.t.*.).0.X.] g.f.s.y.y.J D B * # 7 7 2 V.[.J.J.J.",
"J.J.J.J.J.!.G.i.t.*.-.` ` $.l.j.f.f.y.K D d r ,.].[.6 4 {.J.J.J.",
"J.J.J.[.!.G.e.p.r.E ` ' o.8.N.m.a.Y u.K T g i w G.{.6 % V.D.J.J.",
"J.J.Y.C.% $ C f.P  .' O.7.N.M.z.R.` ) / j j a u m 7 < 6 B.D.J.J.",
"J.J.[.% X 7 N t.&.` ' O.9.x.9.@.2.` ~ { x j a i O o 4 6 B.{.J.J.",
"J.J.{., 6 H.: Q E ` ' O.#.#.%.d.5.1.L V z j a t = S.J.C.< D.[.J.",
"J.J.[.2 4 C.q z ~ ` ' +.O.3.m.n.h.s.t.T j j a r 5 {.J.[.% 7 Y.J.",
"J.G.B.6 < < ; =.| ^ ' ' ' 6.b.h.s.s.H v j g a e 1 [.[.7 % 4 7 D.",
"J.F.C.% X 1 q.m.h.Q ^ ` ' [ 2.4.y.r.H x j g i 8 6 [.!.B.6 V.G.J.",
"G.{.C.  7 [.2 M k.U ~ ^ ^ ^ ^ ^ I F G k g a i & A.!.J.'.G.F.[.[.",
"J.[.B.% [.[.V.# y.y.! c ~ ~ ~ c / G B h a a * % !.J.J.J.J.J.J.J.",
"J.J.B.% B.J.[.2 - K T z c z c z j l f a i 9 o C.[.J.J.J.J.J.J.J.",
"J.V.7 6 4 D.!.J.% @ s j z j j j j a a a 8 O C [.J.J.J.J.J.J.J.J.",
"G.!.[.C.A.J.J.!.H.% . 0 y g g g a p 9 & X *.[.J.J.J.J.J.J.J.J.J.",
"J.[.[.J.J.J.J.J.J.J.7 X . + & & & O   > S.`.J.J.J.J.J.J.J.J.J.J.",
"J.J.J.J.J.J.J.J.J.J.Y.J.B.3 , > , 6 H.[.!.J.J.J.J.J.J.J.J.J.J.J.",
"J.J.J.J.J.J.J.J.J.J.J.J.[.[.[.[.[.[.'.'.J.J.J.J.J.J.J.J.J.J.J.J.",
"J.J.J.J.J.J.J.J.J.J.J.J.J.J.G.J.J.J.J.J.J.J.J.J.J.J.J.J.J.J.J.J.",
"J.J.J.J.J.J.J.J.J.J.J.J.J.J.J.J.J.J.J.J.J.J.J.J.J.J.J.J.J.J.J.J."
};
