/* XPM */
static char *system_16x16[] = {
/* columns rows colors chars-per-pixel */
"16 16 21 1",
"  c #3c3c3c",
". c #4d4d4d",
"X c #585858",
"o c #6b6b6b",
"O c #7b7b7b",
"+ c #878787",
"@ c #969696",
"# c #939fbe",
"$ c #9fa0a0",
"% c #a9aaaa",
"& c #b0b0ae",
"* c #b9b9b9",
"= c #92a8e0",
"- c #b6c3e5",
"; c #c4c4c4",
": c #dadada",
"> c #ced7ed",
", c #e4e2dc",
"< c #eaeae9",
"1 c #f7f7f7",
"2 c None",
/* pixels */
"******;&@+@OOo@;",
"****;*@@*<<<< O;",
"**;*@@;11<<,oO@;",
"*;@X*111<<1o%;O;",
"*;O+&@@*<1o%1%O;",
"*;+@;**$+X&11%+;",
"*;+%:*&::X1<<+%*",
"*;+%<<::;o11*O;*",
"*;+*1:,<*O11O&**",
"*;@&<<->&+1&+;**",
"*;@%%&#=%@1O&;**",
"**@&$+@;$&;+;***",
"*;@*,*$%@%+&****",
"*;%+;:<<%O@;***;",
"***%@++*O.;*****",
"***;;;&@o@;*****"
};
