/* XPM */
static char *video_32x32[] = {
/* columns rows colors chars-per-pixel */
"32 32 100 2",
"   c #020202",
".  c #181b19",
"X  c #1b1c25",
"o  c #20201e",
"O  c #262525",
"+  c #272732",
"@  c #27322c",
"#  c #293b31",
"$  c #383837",
"%  c #303048",
"&  c #32483c",
"*  c #364d40",
"=  c #402f35",
"-  c #454545",
";  c #435f4d",
":  c #514d4f",
">  c #585858",
",  c #4b476c",
"<  c #5c5c6a",
"1  c #5c5a7b",
"2  c #476957",
"3  c #5d6461",
"4  c #675558",
"5  c #686968",
"6  c #746868",
"7  c #7b7b7b",
"8  c #777799",
"9  c #5e8c74",
"0  c #529170",
"q  c #58a07b",
"w  c #65957c",
"e  c #7d9a8b",
"r  c #7acaa0",
"t  c #825757",
"y  c #a55a57",
"u  c #ac7b7a",
"i  c #c46f6e",
"p  c #868887",
"a  c #89899e",
"s  c #8e9191",
"d  c #938787",
"f  c #989898",
"g  c #989aa9",
"h  c #80b298",
"j  c #96a79c",
"k  c #9aaca3",
"l  c #a59595",
"z  c #a7a7a8",
"x  c #adadbf",
"c  c #a3b2aa",
"v  c #aeb1b1",
"b  c #bababa",
"n  c #8f8fc3",
"m  c #9898ca",
"M  c #a6a6d9",
"N  c #afb0dd",
"B  c #b3b3dd",
"V  c #a9aae7",
"C  c #b9bae5",
"Z  c #85c7a4",
"A  c #98d6b5",
"S  c #8ae7b6",
"D  c #96e8bd",
"F  c #90f2be",
"G  c #a5c6b5",
"H  c #9de9c1",
"J  c #a8ebc8",
"K  c #a4f3ca",
"L  c #aff6d1",
"P  c #b3ecce",
"I  c #b8efd2",
"U  c #b2f0cf",
"Y  c #b8f4d5",
"T  c #d89292",
"R  c #c4bbbb",
"E  c #e89090",
"W  c #ec9fa0",
"Q  c #e8a3a3",
"!  c #e9b7b8",
"~  c #f0bebf",
"^  c #c3c3c3",
"/  c #c8c8d5",
"(  c #c4d1cb",
")  c #d0cdce",
"_  c #d8d6d7",
"`  c #c6c6e7",
"'  c #c5c5f0",
"]  c #d2d3e9",
"[  c #d8d7f6",
"{  c #c7f2db",
"}  c #d8e1dd",
"|  c #ccf6e0",
" . c #d9f8e8",
".. c #f5d7d7",
"X. c #e8e8e8",
"o. c #e3e3f4",
"O. c #e3f8ed",
"+. c #e8f8f0",
"@. c #f7f7f7",
"#. c None",
/* pixels */
"b b b b b b b b b b b b b b b b b b b b b b b R z p ) _ R b b b ",
"b b b b b b b b b b b b b b b b b b b b b b b v p l ....! W l v ",
"b b b b b b b b b b b b b b b b b b b b R b R z 6 ~ ~ ! Q T 6 z ",
"b b b b b b b b b b b b b b b b b b b b b ^ s - u T W W E t p b ",
"b b b b b b b b b b b b b b b b b b b b b z f g u 4 4 y i d s ^ ",
"b b b b b b b b b b b b b b b b b b b b ) 6 7 @.+.] f 8 = > B b ",
"b b b b b b b b b b b b b b b b b b b v e z ] o.' ] ] C z f b G ",
"b b b b b b b b b b b b b b b b b b ^ z o g [ ] ' ` ` 8 = z R R ",
"b b b b b b b b b b b b b b b b G R z B x ` ` ` ` C M / s v B b ",
"b b b b b b b b b b b b b b b b R z o 3 ' ` C B B C 8 $ k R b b ",
"b b b b b b b b b b b b b b b b R z $ X 8 B ' V M M a $ z R b b ",
"b b b b b b b b b b b b b b b b z ) ( f $ + 1 m V n _ v b b b b ",
"b b b b b b b b b ^ b b b b ^ p   7 @.@.O.j & . , % . j R b b b ",
"b b b b b b b b b b b b b b z z > } @.+. . .| Z ; O $ R G R b b ",
"b b b b b b b b b b b b b v b } ( @.+.+. .{ I P I X.s R b b b b ",
"b b b b b b b b b b b b ) > - c O.O. . .{ { P A p z z b b b b b ",
"b b b b b b b b b b b ^ 7   # {  . . .{ { P L w   > ^ b b b b b ",
"b b b b b b b b b b b z b 5 G  .| | { { U U D k : p R b b b b b ",
"b b b b b b b b b b v ^ X.c { { { { { I U K A X.v z B R b b b b ",
"b b b b b b R R b b 5 v k J Y { { I U P K A s _ p R G R b b b b ",
"b b b b b b b G ^ 5   @ A { Y I U P J J K Z   O z R b b b b b b ",
"b b b b b b b R z O   h L J U U U J J H K ;   & ^ b b b b b b b ",
"b b b b b b R j b ) 2 Y J J J J J J H H r j - u ^ b b b b b b b ",
"b b b b b B v z @.> . 9 J K J K H H D S Z @.v z R b b b b b b b ",
"b b b b b R p } ^ -     & Z K H D S F r ( X.w ^ b b b b b b b b ",
"b b b b ^ 7   > b @.s     . 9 D D S F 0 d z l R b b b R b b b b ",
"b b b R f .   5 @.@.@.^ $     & r F S &   - b B b b b G b b b b ",
"b b b b -   $ X.@.@.@.@.X.5     . q 0     7 ^ b b b b b b b b b ",
"b b v f } - v @.@.@.@.X.@.@.z X     3 : o v b b b b b b b R b b ",
"b b s X.X.z @.@.@.@.@.@.@.+.@.) -   ) O.6 ^ b b b b b b b b b b ",
"^ f ^ @.d X.@.@.@.X.@.@.X.@.X.@.} s @.v f b b b b b b b b b b b ",
"z z @.z b @.X.@.@.@.X.X.@.X.X.+./ ( @.u v b b b b b b b b b b b "
};
